Division,WeightClassKg,Place,Name,Team,BodyweightKg,Best3SquatKg,Best3BenchKg,Best3DeadliftKg,TotalKg,Equipment,Event,Sex
Girls,44.23,1,Shelby Collett,Hawley,44.23,113.4,54.43,113.4,281.23,Single-ply,SBD,F
Girls,44.23,2,Juana Marin,Venus,44,102.06,36.29,102.06,240.4,Single-ply,SBD,F
Girls,44.23,3,Paulette Herrera,Midlothian,43.91,90.72,43.09,102.06,235.87,Single-ply,SBD,F
Girls,44.23,4,Mayte Arredondo,Whitney,43.27,83.91,31.75,111.13,226.8,Single-ply,SBD,F
Girls,44.23,5,Lourdes Delgado,Whitney,42.73,86.18,38.56,79.38,204.12,Single-ply,SBD,F
Girls,44.23,6,Blanca Sharp,Waco Reicher Catholic,44,70.31,43.09,81.65,195.04,Single-ply,SBD,F
Girls,44.23,7,Tara Wallis,Italy,43.91,72.57,38.56,74.84,185.97,Single-ply,SBD,F
Girls,44.23,8,Rachael Zacharias,West,43.73,70.31,24.95,68.04,163.29,Single-ply,SBD,F
Girls,44.23,9,Myrka Diaz,Ferris,37.74,52.16,22.68,65.77,140.61,Single-ply,SBD,F
Girls,44.23,DQ,Karina Kinney,Waco Reicher Catholic,44.09,,,,,Single-ply,SBD,F
Girls,47.85,1,Susie Perez,Hillsboro,47.36,99.79,47.63,104.33,251.74,Single-ply,SBD,F
Girls,47.85,2,Norma Nerio,Burleson Centennial,46.45,97.52,40.82,111.13,249.48,Single-ply,SBD,F
Girls,47.85,3,Juanita Diaz,Fort Worth North Side,46.18,81.65,45.36,104.33,231.33,Single-ply,SBD,F
Girls,47.85,4,Sierra Childers,Meridian,47.72,90.72,40.82,86.18,217.72,Single-ply,SBD,F
Girls,47.85,5,Tara Moreno,Alvarado,47.85,81.65,38.56,88.45,208.65,Single-ply,SBD,F
Girls,47.85,6,Ashia Haddock,Cedar Hill,47.72,86.18,40.82,79.38,206.38,Single-ply,SBD,F
Girls,47.85,7,Madeline McCulloch,Salado,47.54,79.38,38.56,86.18,204.12,Single-ply,SBD,F
Girls,47.85,8,Dariella Arendondo,Waco University,46.63,56.7,29.48,74.84,161.03,Single-ply,SBD,F
Girls,47.85,DQ,Lizzett Ortega,Venus,47.54,99.79,,,,Single-ply,SBD,F
Girls,47.85,DQ,Sam Garcia,Ferris,47.63,58.97,,,,Single-ply,SBD,F
Girls,51.94,1,Maci Brewer,Hawley,51.94,151.95,56.7,124.74,333.39,Single-ply,SBD,F
Girls,51.94,2,Ciara Haddock,Burleson Centennial,51.8,122.47,52.16,122.47,297.1,Single-ply,SBD,F
Girls,51.94,3,Maria Ashford,Venus,49.9,115.67,56.7,106.59,278.96,Single-ply,SBD,F
Girls,51.94,4,Desirey Medellin,Cleburne,51.94,106.59,49.9,99.79,256.28,Single-ply,SBD,F
Girls,51.94,5,Juana Escareno,Red Oak,50.26,97.52,40.82,115.67,254.01,Single-ply,SBD,F
Girls,51.94,6,Jacky Hernandez,Meridian,50.35,90.72,49.9,104.33,244.94,Single-ply,SBD,F
Girls,51.94,7,Sanjuana Delgado,Whitney,51.8,88.45,45.36,104.33,238.14,Single-ply,SBD,F
Girls,51.94,8,Tatiana Gonzales,Fort Worth North Side,51.94,95.25,40.82,99.79,235.87,Single-ply,SBD,F
Girls,51.94,9,Samantha Crocker,Eustace,51.8,95.25,38.56,97.52,231.33,Single-ply,SBD,F
Girls,51.94,10,Narda Serrato,Mexia,50.98,90.72,31.75,99.79,222.26,Single-ply,SBD,F
Girls,51.94,11,Traci Creamer,Whitney,49.9,97.52,38.56,83.91,219.99,Single-ply,SBD,F
Girls,51.94,12,Stephanie Piar,Hillsboro,50.53,81.65,31.75,97.52,210.92,Single-ply,SBD,F
Girls,51.94,13,Alejandra Faz,Venus,51.53,83.91,36.29,90.72,210.92,Single-ply,SBD,F
Girls,51.94,14,Reagan McDaniels,Burleson Centennial,51.07,77.11,36.29,92.99,206.38,Single-ply,SBD,F
Girls,51.94,15,Angel Griggs,Hillsboro,51.94,72.57,38.56,95.25,206.38,Single-ply,SBD,F
Girls,51.94,16,Catherine Chavez,Fort Worth North Side,50.8,77.11,31.75,90.72,199.58,Single-ply,SBD,F
Girls,51.94,17,Megan Howard,Cleburne,51.07,70.31,38.56,88.45,197.31,Single-ply,SBD,F
Girls,51.94,18,Chloe Wilson,Fairfield,49.71,79.38,38.56,63.5,181.44,Single-ply,SBD,F
Girls,51.94,19,Jayleen Flores,Fort Worth North Side,48.26,68.04,24.95,79.38,172.37,Single-ply,SBD,F
Girls,51.94,20,Madeline Murray,Salado,50.8,65.77,29.48,77.11,172.37,Single-ply,SBD,F
Girls,51.94,21,Elizabeth Ponce,Waco Reicher Catholic,49.17,58.97,27.22,77.11,163.29,Single-ply,SBD,F
Girls,51.94,DQ,Courtney Dillard,Hawley,51.35,113.4,,,,Single-ply,SBD,F
Girls,56.02,1,Carlee Pitcher,Hawley,55.52,151.95,65.77,127.01,344.73,Single-ply,SBD,F
Girls,56.02,2,Leighan Allen,Hawley,55.25,145.15,63.5,124.74,333.39,Single-ply,SBD,F
Girls,56.02,3,Kelly Sanchez,Hillsboro,55.52,129.27,54.43,142.88,326.59,Single-ply,SBD,F
Girls,56.02,4,McKensie Piar,Hillsboro,52.34,131.54,52.16,124.74,308.44,Single-ply,SBD,F
Girls,56.02,5,Angie Cervantez,Rio Vista,52.34,129.27,54.43,111.13,294.84,Single-ply,SBD,F
Girls,56.02,6,Shelby Harralson,West,52.25,106.59,52.16,115.67,274.42,Single-ply,SBD,F
Girls,56.02,7,Paige Parkhill,West,55.61,115.67,52.16,104.33,272.16,Single-ply,SBD,F
Girls,56.02,8,McKynsi Moore,Midlothian,54.07,102.06,49.9,113.4,265.35,Single-ply,SBD,F
Girls,56.02,9,Karissa Kaluza,West,54.16,106.59,45.36,111.13,263.08,Single-ply,SBD,F
Girls,56.02,10,Madalyn Graham,Salado,54.25,97.52,54.43,106.59,258.55,Single-ply,SBD,F
Girls,56.02,11,Taylor Bledsue,Joshua,55.57,95.25,45.36,115.67,256.28,Single-ply,SBD,F
Girls,56.02,12,Brittany Batson,Venus,54.43,90.72,47.63,113.4,251.74,Single-ply,SBD,F
Girls,56.02,13,Angelline Romero,Whitney,55.43,90.72,40.82,106.59,238.14,Single-ply,SBD,F
Girls,56.02,14,Allena Wooten,Whitney,56.02,99.79,47.63,88.45,235.87,Single-ply,SBD,F
Girls,56.02,15,Stephanie Rivera,Fort Worth North Side,53.34,88.45,34.02,102.06,224.53,Single-ply,SBD,F
Girls,56.02,16,Jaqui Nava,Whitney,53.16,72.57,38.56,102.06,213.19,Single-ply,SBD,F
Girls,56.02,17,Keaghan Moore,Alvarado,52.25,79.38,47.63,83.91,210.92,Single-ply,SBD,F
Girls,56.02,18,Kelli Ainsworth,Red Oak Life,55.61,86.18,36.29,88.45,210.92,Single-ply,SBD,F
Girls,56.02,19,Toni Zimmerman,North Forney,54.16,86.18,36.29,86.18,208.65,Single-ply,SBD,F
Girls,56.02,20,Aubrey Jewell,West,52.25,79.38,36.29,90.72,206.38,Single-ply,SBD,F
Girls,56.02,21,Monserrath Gonzalez,Fort Worth North Side,54.34,92.99,36.29,72.57,201.85,Single-ply,SBD,F
Girls,56.02,22,Ginger Landeros,Fort Worth North Side,53.34,74.84,31.75,83.91,190.51,Single-ply,SBD,F
Girls,56.02,23,Elizabeth Prado,Whitney,55.43,74.84,34.02,74.84,183.7,Single-ply,SBD,F
Girls,56.02,24,Caroline Birnbaum,Salado,54.88,58.97,40.82,79.38,179.17,Single-ply,SBD,F
Girls,56.02,25,Heliotrope Vaughn,Waco Reicher Catholic,53.8,61.23,31.75,72.57,165.56,Single-ply,SBD,F
Girls,56.02,26,Aleena Ramzanali,Hawley,52.8,45.36,31.75,61.23,138.35,Single-ply,SBD,F
Girls,56.02,DQ,Savannah Robinson,Fairfield,55.7,127.01,,,,Single-ply,SBD,F
Girls,60.1,1,Grace Bell,Midlothian,60.06,117.93,56.7,131.54,306.17,Single-ply,SBD,F
Girls,60.1,2,Jordan Tagg,Burleson Centennial,59.6,117.93,49.9,122.47,290.3,Single-ply,SBD,F
Girls,60.1,3,LaShawnda Sanders,Cedar Hill,57.7,111.13,56.7,117.93,285.76,Single-ply,SBD,F
Girls,60.1,4,Justice Oates,Fairfield,60.06,120.2,47.63,113.4,281.23,Single-ply,SBD,F
Girls,60.1,5,Keleigh Salazar,Rio Vista,58.88,115.67,47.63,99.79,263.08,Single-ply,SBD,F
Girls,60.1,6,Meisha McNeil,Mexia,58.6,90.72,47.63,120.2,258.55,Single-ply,SBD,F
Girls,60.1,7,Zaidee Paul,Joshua,57.97,97.52,58.97,99.79,256.28,Single-ply,SBD,F
Girls,60.1,8,Savanna Taylor,Waco Reicher Catholic,59.6,108.86,40.82,106.59,256.28,Single-ply,SBD,F
Girls,60.1,9,Skylar Monk,Rio Vista,56.97,102.06,45.36,95.25,242.67,Single-ply,SBD,F
Girls,60.1,10,Lauren Konrardy,Red Oak,59.24,90.72,40.82,106.59,238.14,Single-ply,SBD,F
Girls,60.1,11,Rachel Christensen,Midlothian,58.97,102.06,34.02,97.52,233.6,Single-ply,SBD,F
Girls,60.1,12,Skylar Johnson,Midlothian,59.51,83.91,43.09,104.33,231.33,Single-ply,SBD,F
Girls,60.1,13,Megan Mickels,Burleson Centennial,58.51,74.84,40.82,111.13,226.8,Single-ply,SBD,F
Girls,60.1,14,Rocio Lozano,Ferris,57.52,79.38,52.16,90.72,222.26,Single-ply,SBD,F
Girls,60.1,15,Adrianna Contreras,Whitney,59.33,79.38,40.82,102.06,222.26,Single-ply,SBD,F
Girls,60.1,16,Arian Hoelscher,Troy,57.15,72.57,43.09,97.52,213.19,Single-ply,SBD,F
Girls,60.1,17,Sarah Cortes,Midlothian,58.88,86.18,38.56,86.18,210.92,Single-ply,SBD,F
Girls,60.1,18,Banyaeni Opiew,Fort Worth North Side,58.24,61.23,27.22,104.33,192.78,Single-ply,SBD,F
Girls,60.1,19,Haylee Bulger,Fairfield,56.88,79.38,27.22,74.84,181.44,Single-ply,SBD,F
Girls,60.1,20,Abigail Witten,Venus,59.42,65.77,29.48,61.23,156.49,Single-ply,SBD,F
Girls,60.1,DQ,Madison Schick,Fairfield,58.97,99.79,,,,Single-ply,SBD,F
Girls,60.1,DQ,Brittney Akpunku,Cedar Hill,59.96,104.33,,,,Single-ply,SBD,F
Girls,67.36,1,Bree Gossett,Cleburne,63.87,179.17,79.38,170.1,428.64,Single-ply,SBD,F
Girls,67.36,2,Doynelia Hughes,Hillsboro,66.22,149.69,65.77,167.83,383.29,Single-ply,SBD,F
Girls,67.36,3,Carley Shadron,Venus,64.41,131.54,72.57,136.08,340.19,Single-ply,SBD,F
Girls,67.36,4,Briana Jones,Red Oak,66.68,133.81,54.43,122.47,310.71,Single-ply,SBD,F
Girls,67.36,5,Beverley Akpunku,Cedar Hill,67.04,122.47,52.16,136.08,310.71,Single-ply,SBD,F
Girls,67.36,6,Fey Esparza,Venus,63.5,124.74,61.23,122.47,308.44,Single-ply,SBD,F
Girls,67.36,7,Brittany Bryant,Cleburne,67.36,131.54,45.36,129.27,306.17,Single-ply,SBD,F
Girls,67.36,8,Samantha Williams,Meridian,63.78,102.06,63.5,131.54,297.1,Single-ply,SBD,F
Girls,67.36,9,Aaliyah Chatman,Cedar Hill,64.68,131.54,47.63,117.93,297.1,Single-ply,SBD,F
Girls,67.36,10,Kaylee Georig,Midlothian,66.22,117.93,49.9,120.2,288.03,Single-ply,SBD,F
Girls,67.36,11,Keyaire Williams,Cedar Hill,67.22,108.86,61.23,113.4,283.5,Single-ply,SBD,F
Girls,67.36,12,Kindell Hill,Salado,67.31,111.13,49.9,120.2,281.23,Single-ply,SBD,F
Girls,67.36,13,Lori Neil,Fairfield,66.5,108.86,58.97,108.86,276.69,Single-ply,SBD,F
Girls,67.36,14,Briana Sasser,Joshua,63.05,106.59,52.16,115.67,274.42,Single-ply,SBD,F
Girls,67.36,15,Kathy Vasquez,Whitney,60.51,106.59,52.16,113.4,272.16,Single-ply,SBD,F
Girls,67.36,16,Rosine Smith,Salado,64.68,92.99,54.43,120.2,267.62,Single-ply,SBD,F
Girls,67.36,17,Alexis Christman,Cedar Hill,66.04,102.06,47.63,117.93,267.62,Single-ply,SBD,F
Girls,67.36,18,Dreanna McAdams,Troy,66.04,104.33,45.36,117.93,267.62,Single-ply,SBD,F
Girls,67.36,19,Neely Rumfield,Joshua,61.96,106.59,45.36,113.4,265.35,Single-ply,SBD,F
Girls,67.36,20,Mikayla Kaluza,West,63.59,104.33,49.9,108.86,263.08,Single-ply,SBD,F
Girls,67.36,21,Michaela Brawly,Red Oak,67.36,113.4,49.9,99.79,263.08,Single-ply,SBD,F
Girls,67.36,22,Mallory Albers,Waco Reicher Catholic,65.77,102.06,45.36,113.4,260.82,Single-ply,SBD,F
Girls,67.36,23,Lacey Boney,Fairfield,67.04,104.33,43.09,111.13,258.55,Single-ply,SBD,F
Girls,67.36,24,Natalie Dodson,Burleson,64.95,102.06,47.63,104.33,254.01,Single-ply,SBD,F
Girls,67.36,25,Maria Harbison,Meridian,64.86,102.06,34.02,104.33,240.4,Single-ply,SBD,F
Girls,67.36,26,Alexis Alamos,Fort Worth North Side,63.32,83.91,43.09,102.06,229.06,Single-ply,SBD,F
Girls,67.36,27,Taylor Moreno,Alvarado,61.23,90.72,40.82,95.25,226.8,Single-ply,SBD,F
Girls,67.36,28,Juliana Flores,Waco Reicher Catholic,64.14,88.45,31.75,102.06,222.26,Single-ply,SBD,F
Girls,67.36,DQ,Kalli Butler,Fairfield,67.22,95.25,,,,Single-ply,SBD,F
Girls,75.07,1,Kandice Lopez,Hawley,68.76,170.1,102.06,145.15,417.3,Single-ply,SBD,F
Girls,75.07,2,Kya Charron,Keller Timber Creek,70.22,136.08,83.91,136.08,356.07,Single-ply,SBD,F
Girls,75.07,3,Daniela Gaytan,Fort Worth North Side,71.85,138.35,56.7,142.88,337.93,Single-ply,SBD,F
Girls,75.07,4,Savanna Warren,Venus,68.49,140.61,68.04,124.74,333.39,Single-ply,SBD,F
Girls,75.07,5,Ashlyn Wilkerson,Whitney,67.68,122.47,61.23,136.08,319.78,Single-ply,SBD,F
Girls,75.07,6,Nicole Nors,Waco Reicher Catholic,74.66,115.67,58.97,124.74,299.37,Single-ply,SBD,F
Girls,75.07,7,Emily Daniel,Keller Timber Creek,74.57,117.93,56.7,120.2,294.84,Single-ply,SBD,F
Girls,75.07,8,Gabrielle Clark,Troy,73.3,115.67,54.43,122.47,292.57,Single-ply,SBD,F
Girls,75.07,9,Allana Bettge,Waco Reicher Catholic,72.3,117.93,49.9,120.2,288.03,Single-ply,SBD,F
Girls,75.07,10,Ashley Purselley,Eustace,69.22,115.67,52.16,117.93,285.76,Single-ply,SBD,F
Girls,75.07,11,Alescis Moreno,North Crowley,69.67,113.4,56.7,115.67,285.76,Single-ply,SBD,F
Girls,75.07,12,Makayla Buck,Venus,70.76,113.4,47.63,117.93,278.96,Single-ply,SBD,F
Girls,75.07,13,Susana Mancilla,Midlothian,74.39,111.13,43.09,106.59,260.82,Single-ply,SBD,F
Girls,75.07,14,Chandler Rogers,North Crowley,69.58,99.79,40.82,104.33,244.94,Single-ply,SBD,F
Girls,75.07,15,Cassidy Wright,Alvarado,73.12,95.25,45.36,102.06,242.67,Single-ply,SBD,F
Girls,75.07,16,Natalie Hernendez,Corsicana,68.67,79.38,43.09,106.59,229.06,Single-ply,SBD,F
Girls,75.07,17,Merilyn Peralta,Fort Worth North Side,69.4,97.52,36.29,92.99,226.8,Single-ply,SBD,F
Girls,75.07,18,Taylor Barley,Cleburne,70.31,77.11,34.02,102.06,213.19,Single-ply,SBD,F
Girls,75.07,19,Vicky Perez,Meridian,72.94,77.11,36.29,90.72,204.12,Single-ply,SBD,F
Girls,75.07,DQ,Kaci Gauntt,Mexia,73.84,,,,,Single-ply,SBD,F
Girls,75.07,DQ,Taylor Turner,Italy,68.67,104.33,43.09,,,Single-ply,SBD,F
Girls,75.07,DQ,Amber Rounsavall,Hillsboro,71.58,92.99,,,,Single-ply,SBD,F
Girls,75.07,DQ,Sha'Kara Boyd,Cedar Hill,73.48,136.08,,,,Single-ply,SBD,F
Girls,75.07,DQ,Michaela McGeary,Fairfield,70.03,124.74,,,,Single-ply,SBD,F
Girls,75.07,DQ,Guadalupe Lumbreras,Ferris,74.48,79.38,,,,Single-ply,SBD,F
Girls,75.07,DQ,Karlie Brown,Scurry-Rosser,73.84,120.2,58.97,,,Single-ply,SBD,F
Girls,75.07,DQ,Kyndall Hoelscher,West,74.12,136.08,70.31,,,Single-ply,SBD,F
Girls,82.33,1,Kristen Mosoba,Cleburne,81.47,163.29,92.99,165.56,421.84,Single-ply,SBD,F
Girls,82.33,2,Diana Platas,Hillsboro,80.92,183.7,74.84,154.22,412.77,Single-ply,SBD,F
Girls,82.33,3,Stephany Garza,Keller Timber Creek,78.83,149.69,68.04,138.35,356.07,Single-ply,SBD,F
Girls,82.33,4,Ericah Fletcher,Burleson Centennial,81.47,138.35,56.7,156.49,351.53,Single-ply,SBD,F
Girls,82.33,5,Brittany Carter,Bosqueville,77.84,127.01,54.43,145.15,326.59,Single-ply,SBD,F
Girls,82.33,6,Abigail World,West,81.83,127.01,63.5,108.86,299.37,Single-ply,SBD,F
Girls,82.33,7,Kameron Rogers,Ferris,78.74,124.74,45.36,124.74,294.84,Single-ply,SBD,F
Girls,82.33,8,Alene Ramos,Ferris,78.83,115.67,56.7,115.67,288.03,Single-ply,SBD,F
Girls,82.33,9,Storri Williams,Midlothian,80.56,108.86,49.9,122.47,281.23,Single-ply,SBD,F
Girls,82.33,10,Jenna Wagnon,Salado,80.74,97.52,40.82,120.2,258.55,Single-ply,SBD,F
Girls,82.33,11,Carla Juarez,Midlothian,76.75,99.79,34.02,99.79,233.6,Single-ply,SBD,F
Girls,82.33,12,Jordan Willis,Grandview,81.65,90.72,38.56,102.06,231.33,Single-ply,SBD,F
Girls,82.33,13,Wendy Flores,Alvarado,75.84,79.38,36.29,97.52,213.19,Single-ply,SBD,F
Girls,82.33,14,Loran Patterson,North Forney,81.19,77.11,29.48,61.23,167.83,Single-ply,SBD,F
Girls,82.33,DQ,Rebecca Garrett,Bosqueville,77.66,,,,,Single-ply,SBD,F
Girls,90.04,1,Kristy Burton,Waco Reicher Catholic,89.27,127.01,81.65,120.2,328.85,Single-ply,SBD,F
Girls,90.04,2,Brasjanae Riley-Morgan,Cedar Hill,85.91,122.47,61.23,122.47,306.17,Single-ply,SBD,F
Girls,90.04,3,Ithzel Gonzales,Hillsboro,89.18,115.67,47.63,129.27,292.57,Single-ply,SBD,F
Girls,90.04,4,Gabby Lopez,West,84.55,120.2,61.23,108.86,290.3,Single-ply,SBD,F
Girls,90.04,5,Caitlyn Culp,Eustace,89.99,111.13,54.43,113.4,278.96,Single-ply,SBD,F
Girls,90.04,6,Summerlynn Lewis,Lewisville The Colony,89.81,122.47,56.7,97.52,276.69,Single-ply,SBD,F
Girls,90.04,7,Abby Davis,Alvarado,86.36,106.59,61.23,106.59,274.42,Single-ply,SBD,F
Girls,90.04,8,Jessica Miller,Eustace,84.64,117.93,40.82,113.4,272.16,Single-ply,SBD,F
Girls,90.04,9,Jennifer Arreola,Ferris,86.73,104.33,52.16,115.67,272.16,Single-ply,SBD,F
Girls,90.04,10,Tajeyia Wilson,Italy,89.81,99.79,52.16,99.79,251.74,Single-ply,SBD,F
Girls,90.04,11,MaryCruz Martinez,Palmer,85.28,99.79,43.09,102.06,244.94,Single-ply,SBD,F
Girls,90.04,12,Kali Jaral,Waco University,88.18,111.13,31.75,99.79,242.67,Single-ply,SBD,F
Girls,90.04,13,Kalayah Smith,Corsicana,86.82,90.72,40.82,99.79,231.33,Single-ply,SBD,F
Girls,90.04,14,Gracie Stephenson,Grandview,86.14,81.65,45.36,86.18,213.19,Single-ply,SBD,F
Girls,90.04,DQ,Mikayela Hammond,Waco Reicher Catholic,89.99,,,,,Single-ply,SBD,F
Girls,90.04,DQ,Maria Rangel,Salado,87.72,,,,,Single-ply,SBD,F
Girls,100.02,1,Noemi Soto,Mexia,92.8,210.92,81.65,167.83,460.4,Single-ply,SBD,F
Girls,100.02,2,Lexi Helzer,Hawley,99.43,192.78,117.93,136.08,446.79,Single-ply,SBD,F
Girls,100.02,3,Bailey Rogers,West,91.44,190.51,92.99,140.61,424.11,Single-ply,SBD,F
Girls,100.02,4,Harley Weber,Hawley,94.62,167.83,102.06,124.74,394.63,Single-ply,SBD,F
Girls,100.02,5,Sunni Goodell,Eustace,98.43,174.63,86.18,131.54,392.36,Single-ply,SBD,F
Girls,100.02,6,Jessica Hill,Fairfield,99.25,154.22,65.77,136.08,356.07,Single-ply,SBD,F
Girls,100.02,7,Dani Munoz,Meridian,95.07,142.88,81.65,120.2,344.73,Single-ply,SBD,F
Girls,100.02,8,Iris Esparza,Grandview,98.25,129.27,72.57,140.61,342.46,Single-ply,SBD,F
Girls,100.02,9,Shelby Wines,West,94.98,140.61,65.77,131.54,337.93,Single-ply,SBD,F
Girls,100.02,10,Leticia Lopez,Waco University,96.8,136.08,49.9,120.2,306.17,Single-ply,SBD,F
Girls,100.02,11,Shannon Halbert,Red Oak,93.08,122.47,49.9,113.4,285.76,Single-ply,SBD,F
Girls,100.02,12,Haley Lord,Red Oak,95.25,104.33,49.9,124.74,278.96,Single-ply,SBD,F
Girls,100.02,13,Mattison Drake,Midlothian,99.34,108.86,38.56,111.13,258.55,Single-ply,SBD,F
Girls,100.02,14,Ashley Vesley,Salado,99.97,104.33,47.63,106.59,258.55,Single-ply,SBD,F
Girls,100.02,15,Erin Byrne,Whitney,90.72,54.43,31.75,77.11,163.29,Single-ply,SBD,F
Girls,100.02,DQ,Lacy Lebouef,Bosqueville,99.16,149.69,,,,Single-ply,SBD,F
Girls,100.02+,1,Lexi Harris,Cleburne,144.15,213.19,113.4,181.44,508.02,Single-ply,SBD,F
Girls,100.02+,2,McKayla Durham,North Forney,145.88,226.8,97.52,158.76,483.08,Single-ply,SBD,F
Girls,100.02+,3,Ashley Adams,Alvarado,132.63,151.95,83.91,145.15,381.02,Single-ply,SBD,F
Girls,100.02+,4,Blanca Vega,Cedar Hill,110.95,129.27,72.57,140.61,342.46,Single-ply,SBD,F
Girls,100.02+,5,Hailey Anderson,Bosqueville,102.33,131.54,77.11,131.54,340.19,Single-ply,SBD,F
Girls,100.02+,6,Keshlei Bridges,Salado,121.74,104.33,58.97,127.01,290.3,Single-ply,SBD,F
Girls,100.02+,7,Makenzie Carroll,Cleburne,100.06,108.86,54.43,113.4,276.69,Single-ply,SBD,F
Girls,100.02+,DQ,Alize Lewis,Fairfield,129,138.35,83.91,,,Single-ply,SBD,F
Girls,100.02+,DQ,Gabby Robles,Waco University,104.33,111.13,,,,Single-ply,SBD,F
Girls,,NS,Kayla Kissinger,West,,,,,,Single-ply,SBD,F
Girls,,NS,Destini Bradshaw,Whitney,,,,,,Single-ply,SBD,F
Girls,,NS,Starla Oatman,Whitney,,,,,,Single-ply,SBD,F
Girls,,NS,Jasmine Robinson,Waco University,,,,,,Single-ply,SBD,F
Girls,,NS,Shemaiah Whitfield,Waco University,,,,,,Single-ply,SBD,F
Girls,,NS,Sidney Henderson,Red Oak,,,,,,Single-ply,SBD,F
Girls,,NS,Kassidy Lerma,Ferris,,,,,,Single-ply,SBD,F
Girls,,NS,Lorna Baulechong,Corsicana,,,,,,Single-ply,SBD,F
Girls,,NS,Rosa Mendez,Ferris,,,,,,Single-ply,SBD,F
Girls,,NS,Tereza Ramirez,Fort Worth North Side,,,,,,Single-ply,SBD,F
Girls,,NS,Elizabeth Hernandez,Fort Worth North Side,,,,,,Single-ply,SBD,F
Girls,,NS,DiShanna Nathan,Corsicana,,,,,,Single-ply,SBD,F
Girls,,NS,Ashley Donaldson,Corsicana,,,,,,Single-ply,SBD,F
Girls,,NS,Kieana Allen,Cedar Hill,,,,,,Single-ply,SBD,F
Girls,,NS,Catherine Geisler,Burleson,,,,,,Single-ply,SBD,F
Girls,,NS,Bernice Flores,Alvarado,,,,,,Single-ply,SBD,F
Girls,,NS,Bailey Abney,Alvarado,,,,,,Single-ply,SBD,F
Girls,,NS,Julianna Johnson,Bosqueville,,,,,,Single-ply,SBD,F
Girls,,NS,Sabrina Rodriguez,Midlothian,,,,,,Single-ply,SBD,F
Girls,,NS,Daiza Ellis-Williams,Midlothian,,,,,,Single-ply,SBD,F
Girls,,NS,Denise Moreno,Midlothian,,,,,,Single-ply,SBD,F
Girls,,NS,Emma Tate,Joshua,,,,,,Single-ply,SBD,F
Girls,,NS,Yajaira Garzia,Meridian,,,,,,Single-ply,SBD,F
Girls,,NS,Reagan Chapman,Hawley,,,,,,Single-ply,SBD,F
Girls,,NS,Whitney Kitchen,Hawley,,,,,,Single-ply,SBD,F
Girls,,NS,Rebekah Singleton,Hawley,,,,,,Single-ply,SBD,F
Girls,,NS,Rebecca Corley,Italy,,,,,,Single-ply,SBD,F
Girls,,NS,Taylor Duffey,Justin Northwest,,,,,,Single-ply,SBD,F
Girls,,NS,Tatyana King,Hillsboro,,,,,,Single-ply,SBD,F
