Name,WeightClassKg,Division,Sex,Best3SquatKg,Best3BenchKg,Best3DeadliftKg,TotalKg,Event,Equipment,Place
James Caldwell,56,Open,M,185,100,137.5,422.5,SBD,Single-ply,1
Darrel DeVor,60,Open,M,200,110,205,515,SBD,Single-ply,1
Pal Keenan,67.5,Open,M,227.5,137.5,227.5,592.5,SBD,Single-ply,1
C. Underwood,75,Open,M,255,167.5,257.5,680,SBD,Single-ply,1
Don Graham,75,Open,M,255,147.5,257.5,660,SBD,Single-ply,2
Frank Navarre,75,Open,M,245,162.5,252.5,660,SBD,Single-ply,3
Jeff Burnett,75,Open,M,237.5,140,245,622.5,SBD,Single-ply,4
Tony Gerdes,75,Open,M,195,137.5,250,582.5,SBD,Single-ply,5
Paul Sutphin,82.5,Open,M,292.5,182.5,295,770,SBD,Single-ply,1
George McElroy,82.5,Open,M,292.5,177.5,280,750,SBD,Single-ply,2
Mike Cyrus,82.5,Open,M,237.5,147.5,237.5,622.5,SBD,Single-ply,3
Jeff Chorpenning,90,Open,M,327.5,205,312.5,845,SBD,Single-ply,1
Joe Pickle,90,Open,M,275,200,290,765,SBD,Single-ply,2
G. Prokopavich,90,Open,M,295,185,282.5,762.5,SBD,Single-ply,3
Mike Byrd,90,Open,M,257.5,210,272.5,740,SBD,Single-ply,4
Kick Hawkins,90,Open,M,300,170,260,730,SBD,Single-ply,5
Maron Cury,90,Open,M,250,150,247.5,647.5,SBD,Single-ply,6
Chuck Parus,90,Open,M,230,152.5,252.5,635,SBD,Single-ply,7
Kick Wolford,90,Open,M,235,147.5,217.5,600,SBD,Single-ply,8
Rocky Roach,90,Open,M,212.5,140,215,567.5,SBD,Single-ply,9
Ricky Dotson,100,Open,M,352.5,197.5,297.5,847.5,SBD,Single-ply,1
Frank Hottendorf,100,Open,M,335,207.5,295,837.5,SBD,Single-ply,2
Marcos Marinelli,100,Open,M,317.5,190,322.5,830,SBD,Single-ply,3
Jim Seitzer,100,Open,M,332.5,195,300,827.5,SBD,Single-ply,4
David Durbin,100,Open,M,300,172.5,290,762.5,SBD,Single-ply,5
Steve Suartz,100,Open,M,272.5,187.5,282.5,742.5,SBD,Single-ply,6
Ray Granger,100,Open,M,270,202.5,270,742.5,SBD,Single-ply,7
Bob Petrouski,100,Open,M,277.5,155,257.5,690,SBD,Single-ply,8
Jeff Chambers,100,Open,M,227.5,160,240,627.5,SBD,Single-ply,9
Brett Russell,110,Open,M,360,210,377.5,947.5,SBD,Single-ply,1
John Florio,110,Open,M,367.5,215,325,907.5,SBD,Single-ply,2
Mike Carruthers,110,Open,M,355,215,320,890,SBD,Single-ply,3
Gary Burch,110,Open,M,332.5,200,295,827.5,SBD,Single-ply,4
Rick Comett,110,Open,M,340,195,272.5,807.5,SBD,Single-ply,5
John Messinger,110,Open,M,312.5,195,295,802.5,SBD,Single-ply,6
Dan Dague,110,Open,M,287.5,190,310,787.5,SBD,Single-ply,7
Jim Goodnight,110,Open,M,260,185,250,695,SBD,Single-ply,8
Stacy Barber,110,Open,M,250,172.5,240,662.5,SBD,Single-ply,9
Bob Lippy,125,Open,M,312.5,210,295,817.5,SBD,Single-ply,1
Jeff King,125,Open,M,290,170,322.5,782.5,SBD,Single-ply,2
Tim King,125,Open,M,300,200,257.5,757.5,SBD,Single-ply,3
Stan Judd,125,Open,M,272.5,190,292.5,755,SBD,Single-ply,4
Alan Ppzybyla,125,Open,M,260,167.5,287.5,715,SBD,Single-ply,5
Guy Bowser,125,Open,M,287.5,160,267.5,715,SBD,Single-ply,6
Tony Leader,125,Open,M,267.5,177.5,267.5,712.5,SBD,Single-ply,7
Jesse Maness,125,Open,M,250,192.5,250,692.5,SBD,Single-ply,8
Greg Moodie,125,Open,M,267.5,160,257.5,685,SBD,Single-ply,9
Matt Dimmel,125+,Open,M,390,220,345,955,SBD,Single-ply,1
Mike Gollehon,125+,Open,M,387.5,197.5,320,905,SBD,Single-ply,2
Roger Ridgeway,125+,Open,M,302.5,230,287.5,820,SBD,Single-ply,3
Glenna Dudley,44,Open,F,62.5,37.5,92.5,192.5,SBD,Single-ply,1
Cheryl Finley,52,Open,F,112.5,67.5,140,320,SBD,Single-ply,1
Doris Simmons,52,Open,F,120,62.5,127.5,310,SBD,Single-ply,2
Marcia Insiey,56,Open,F,122.5,55,145,322.5,SBD,Single-ply,1
Mariah Liggett,60,Open,F,180,102.5,182.5,465,SBD,Single-ply,1
Ginger Grizzle,60,Open,F,115,55,120,290,SBD,Single-ply,2
Jana Davis,60,Open,F,95,45,130,270,SBD,Single-ply,3
Maria Ramirea,67.5,Open,F,127.5,47.5,122.5,297.5,SBD,Single-ply,1
Lisa Richards,67.5,Open,F,97.5,45,115,257.5,SBD,Single-ply,2
Laura Dodd,75,Open,F,217.5,102.5,227.5,547.5,SBD,Single-ply,1
Lora Ann Hager,75,Open,F,115,67.5,130,312.5,SBD,Single-ply,2
Terry Byland-Rohal,82.5,Open,F,250,127.5,235,612.5,SBD,Single-ply,1
Dawn Reschel-Sharon,90,Open,F,210,105,207.5,522.5,SBD,Single-ply,1
Maris Sternberg,90+,Open,F,237.5,122.5,212.5,572.5,SBD,Single-ply,1
Scott Walker,52,Novice,M,90,60,135,285,SBD,Single-ply,1
Steven Paciorek,60,Novice,M,142.5,97.5,152.5,392.5,SBD,Single-ply,1
Mark Lucente,60,Novice,M,155,75,150,380,SBD,Single-ply,2
Shawn McCart,60,Novice,M,112.5,80,145,337.5,SBD,Single-ply,3
Jim Deem,67.5,Novice,M,157.5,112.5,180,450,SBD,Single-ply,1
Bill Heale,67.5,Novice,M,157.5,105,182.5,445,SBD,Single-ply,2
Arley Nelson,67.5,Novice,M,127.5,110,195,432.5,SBD,Single-ply,3
Mitchell Donald,67.5,Novice,M,142.5,97.5,187.5,427.5,SBD,Single-ply,4
Andy Duke,67.5,Novice,M,137.5,95,172.5,405,SBD,Single-ply,5
Vince Fulghum,67.5,Novice,M,147.5,82.5,142.5,372.5,SBD,Single-ply,6
Mike Pelfrey,75,Novice,M,222.5,115,217.5,555,SBD,Single-ply,1
Randy Reynolds,75,Novice,M,180,132.5,230,542.5,SBD,Single-ply,2
Shawn Johnson,75,Novice,M,195,122.5,202.5,520,SBD,Single-ply,3
Tagg Shiley,75,Novice,M,182.5,137.5,192.5,512.5,SBD,Single-ply,4
Mike Jpajski,75,Novice,M,177.5,132.5,197.5,507.5,SBD,Single-ply,5
Greg Eihenberry,75,Novice,M,172.5,110,182.5,465,SBD,Single-ply,9
Brad Cailor,75,Novice,M,165,102.5,227.5,495,SBD,Single-ply,6
Brian Richards,75,Novice,M,165,110,200,475,SBD,Single-ply,8
Jack Severin,75,Novice,M,137.5,127.5,197.5,462.5,SBD,Single-ply,10
Rudy Cutrone,75,Novice,M,185,107.5,185,477.5,SBD,Single-ply,7
Craig Fluharty,75,Novice,M,137.5,110,185,432.5,SBD,Single-ply,11
James Schmock,82.5,Novice,M,227.5,147.5,265,640,SBD,Single-ply,1
Llyod Smith,82.5,Novice,M,212.5,140,250,602.5,SBD,Single-ply,2
Brent Vandiver,82.5,Novice,M,197.5,132.5,195,525,SBD,Single-ply,3
Jim Miller,82.5,Novice,M,192.5,115,205,512.5,SBD,Single-ply,4
John Masellie,82.5,Novice,M,185,115,205,505,SBD,Single-ply,5
John Reger,82.5,Novice,M,160,112.5,202.5,475,SBD,Single-ply,6
Tony DeMeo,82.5,Novice,M,140,100,187.5,427.5,SBD,Single-ply,7
Cliff Wilton,82.5,Novice,M,112.5,82.5,182.5,377.5,SBD,Single-ply,8
Ken Gudorf,90,Novice,M,235,175,227.5,637.5,SBD,Single-ply,1
Jeff Popovich,90,Novice,M,205,170,237.5,612.5,SBD,Single-ply,2
Lynn Gagnon,90,Novice,M,205,167.5,232.5,605,SBD,Single-ply,3
Vince George,90,Novice,M,215,140,222.5,577.5,SBD,Single-ply,4
Mike Smith,90,Novice,M,200,145,230,575,SBD,Single-ply,5
Reese James,90,Novice,M,182.5,130,227.5,540,SBD,Single-ply,6
Chuck McAtee,90,Novice,M,190,117.5,205,512.5,SBD,Single-ply,7
Roger Maynard,90,Novice,M,192.5,110,192.5,495,SBD,Single-ply,8
John Homan,100,Novice,M,257.5,145,280,682.5,SBD,Single-ply,1
Jon Toman,100,Novice,M,237.5,132.5,252.5,622.5,SBD,Single-ply,2
Billy Moore,100,Novice,M,220,145,245,610,SBD,Single-ply,3
Randy James,100,Novice,M,182.5,135,142.5,460,SBD,Single-ply,4
Mark Tenpenney,100,Novice,M,65,172.5,115,352.5,SBD,Single-ply,5
Jim Ingram,110,Novice,M,235,150,262.5,647.5,SBD,Single-ply,1
Mark Miller,110,Novice,M,227.5,145,255,627.5,SBD,Single-ply,2
Carl Herald,110,Novice,M,192.5,157.5,240,590,SBD,Single-ply,3
George Mynard,110,Novice,M,205,127.5,250,582.5,SBD,Single-ply,4
Jerry Clack,110,Novice,M,210,125,215,550,SBD,Single-ply,5
Tim Pierce,125,Novice,M,205,147.5,277.5,630,SBD,Single-ply,1
Roy Proffitt,125,Novice,M,182.5,117.5,165,465,SBD,Single-ply,2
Dalen Smith,125+,Novice,M,195,102.5,245,542.5,SBD,Single-ply,1
Reece Prater,,Masters,M,235,135,235,605,SBD,Single-ply,1
John Bayliss,,Masters,M,175,132.5,222.5,530,SBD,Single-ply,3
R. Williamson,,Masters,M,167.5,117.5,195,480,SBD,Single-ply,5
David McEwen,,Masters,M,197.5,115,202.5,515,SBD,Single-ply,4
Bob Coyer,,Masters,M,217.5,117.5,252.5,587.5,SBD,Single-ply,2
