Division,WeightClassKg,Place,Name,Team,BodyweightKg,Best3SquatKg,Best3BenchKg,Best3DeadliftKg,TotalKg,Equipment,Event,Sex
Boys,51.71,1,Santos Rodriguez,Fort Worth North Side,51.71,124.74,83.91,145.15,353.8,Single-ply,SBD,M
Boys,51.71,2,Dustin Richardson,Lake Worth,51.71,92.99,54.43,131.54,278.96,Single-ply,SBD,M
Boys,51.71,3,Austin F,Fort Worth Western Hills,48.44,83.91,47.63,104.33,235.87,Single-ply,SBD,M
Boys,55.79,1,Calvin Ford,Burleson,52.07,149.69,77.11,,226.8,Single-ply,SB,M
Boys,55.79,2,Colton Bedford,Burleson,55.52,136.08,104.33,140.61,381.02,Single-ply,SBD,M
Boys,55.79,3,Jage Smith,Kaufman,55.52,147.42,70.31,163.29,381.02,Single-ply,SBD,M
Boys,59.87,4,Austin Wooldridge,Mansfield Legacy,55.88,124.74,97.52,133.81,356.07,Single-ply,SBD,M
Boys,55.79,5,Nate Tarpley,Fort Worth Trimble Tech,53.71,133.81,63.5,133.81,331.12,Single-ply,SBD,M
Boys,55.79,6,Devante Hill,Fort Worth Arlington Heights,52.34,120.2,61.23,133.81,315.25,Single-ply,SBD,M
Boys,59.87,7,Zach Rose,Cedar Hill,55.97,111.13,56.7,120.2,288.03,Single-ply,SBD,M
Boys,55.79,8,Jose Rodriguez,Lake Worth,53.98,79.38,65.77,120.2,265.35,Single-ply,SBD,M
Boys,55.79,9,Aaron George,Everman,54.61,90.72,45.36,102.06,238.14,Single-ply,SBD,M
Boys,59.87,1,Dustin Gray,Lake Worth,59.87,174.63,81.65,201.85,458.13,Single-ply,SBD,M
Boys,59.87,2,Vincent Sellers,Midlothian,59.87,183.7,99.79,172.37,455.86,Single-ply,SBD,M
Boys,59.87,3,Ray Lopez,Granbury,56.88,158.76,88.45,,247.21,Single-ply,SB,M
Boys,59.87,4,Austin Williams,Fort Worth Western Hills,59.42,170.1,88.45,151.95,410.5,Single-ply,SBD,M
Boys,59.87,5,Charles Crosby,Red Oak,59.87,151.95,70.31,163.29,385.55,Single-ply,SBD,M
Boys,59.87,6,Kefrin Kelly,Everman,59.78,163.29,68.04,142.88,374.21,Single-ply,SBD,M
Boys,59.87,7,Alex Olmos,Everman,58.51,117.93,88.45,142.88,349.27,Single-ply,SBD,M
Boys,59.87,8,Sean Guinyard,Kennedale,57.24,124.74,79.38,138.35,342.46,Single-ply,SBD,M
Boys,59.87,9,Daniel P,Kaufman,59.33,127.01,70.31,145.15,342.46,Single-ply,SBD,M
Boys,59.87,10,Levi Mowles,Venus,58.88,122.47,63.5,129.27,315.25,Single-ply,SBD,M
Boys,59.87,11,Matt Burgess,Fort Worth Arlington Heights,59.69,127.01,56.7,124.74,308.44,Single-ply,SBD,M
Boys,59.87,12,Joey Powell,Cedar Hill,58.69,111.13,61.23,120.2,292.57,Single-ply,SBD,M
Boys,59.87,13,Grant Leach,Fort Worth Western Hills,59.42,70.31,52.16,104.33,226.8,Single-ply,SBD,M
Boys,59.87,DQ,Morgan Kirkpatrick,Granbury,59.19,158.76,,,,Single-ply,SBD,M
Boys,59.87,DQ,Ray Franklin,Fort Worth Trimble Tech,58.24,142.88,,,,Single-ply,SBD,M
Boys,67.13,DQ,Rene Rivas,Venus,59.96,142.88,,,,Single-ply,SBD,M
Boys,59.87,DQ,Collin H,Midlothian,57.88,111.13,65.77,,,Single-ply,SBD,M
Boys,67.13,1,Nate Barnd,Fort Worth Trimble Tech,66.86,195.04,120.2,195.04,510.29,Single-ply,SBD,M
Boys,67.13,2,Kwasi Bradford,Everman,66.68,165.56,92.99,199.58,458.13,Single-ply,SBD,M
Boys,67.13,3,Joe Posigian,Kaufman,66.32,172.37,74.84,181.44,428.64,Single-ply,SBD,M
Boys,67.13,4,Joel Bennett,Lake Worth,64.86,140.61,90.72,181.44,412.77,Single-ply,SBD,M
Boys,67.13,5,Kelton Specks,Cedar Hill,63.59,158.76,83.91,156.49,399.16,Single-ply,SBD,M
Boys,67.13,6,Colin Robinson,Kaufman,65.5,161.03,77.11,154.22,392.36,Single-ply,SBD,M
Boys,67.13,7,Carlton Vance,Keller Timber Creek,65.68,151.95,81.65,145.15,378.75,Single-ply,SBD,M
Boys,67.13,8,Brendon Rios,Mansfield Legacy,63.28,154.22,83.91,136.08,374.21,Single-ply,SBD,M
Boys,67.13,9,Kevin Harris,Fort Worth Western Hills,64.32,147.42,70.31,151.95,369.68,Single-ply,SBD,M
Boys,67.13,10,Michael Hernandez,Fort Worth North Side,63.5,120.2,81.65,158.76,360.61,Single-ply,SBD,M
Boys,67.13,11,Fouad Ali,Kennedale,60.33,117.93,74.84,151.95,344.73,Single-ply,SBD,M
Boys,67.13,12,Blake Young,Fort Worth Arlington Heights,62.69,102.06,92.99,136.08,331.12,Single-ply,SBD,M
Boys,67.13,13,Jonathan Glover,Mansfield Timberview,64.18,108.86,81.65,136.08,326.59,Single-ply,SBD,M
Boys,67.13,14,Travis St John,Mansfield Legacy,64.32,113.4,72.57,115.67,301.64,Single-ply,SBD,M
Boys,67.13,15,Gabrial White,Granbury,62.51,102.06,74.84,108.86,285.76,Single-ply,SBD,M
Boys,74.84,1,Michael Pyon,Kennedale,69.4,217.72,129.27,217.72,564.72,Single-ply,SBD,M
Boys,74.84,2,Nathan Nicholas,Burleson,74.62,183.7,131.54,188.24,503.49,Single-ply,SBD,M
Boys,74.84,3,Anterio Alba,Fort Worth North Side,70.94,192.78,97.52,208.65,498.95,Single-ply,SBD,M
Boys,74.84,4,Joel Rockmore,Lake Worth,73.94,181.44,117.93,195.04,494.42,Single-ply,SBD,M
Boys,74.84,5,Cail Gilley,Kennedale,74.84,181.44,120.2,190.51,492.15,Single-ply,SBD,M
Boys,74.84,6,Dashune Barlow,Cedar Hill,70.49,170.1,95.25,192.78,458.13,Single-ply,SBD,M
Boys,74.84,7,Victor Gonzales,Midlothian,71.21,161.03,102.06,190.51,453.59,Single-ply,SBD,M
Boys,82.1,8,Jeremi Lewis,Red Oak,74.93,170.1,92.99,181.44,444.52,Single-ply,SBD,M
Boys,74.84,9,Justin Seeton,Midlothian,73.12,165.56,88.45,179.17,433.18,Single-ply,SBD,M
Boys,74.84,10,Jason Bethel,Red Oak,73.39,167.83,108.86,154.22,430.91,Single-ply,SBD,M
Boys,74.84,11,Bryan Seville,Keller Timber Creek,70.67,156.49,97.52,165.56,419.57,Single-ply,SBD,M
Boys,74.84,12,Sheldon Gatewood,Mansfield Timberview,67.77,136.08,92.99,174.63,403.7,Single-ply,SBD,M
Boys,74.84,13,Matt Neiman,Mansfield Legacy,71.12,151.95,97.52,142.88,392.36,Single-ply,SBD,M
Boys,74.84,14,Michael Eusepi,Venus,68.72,154.22,79.38,151.95,385.55,Single-ply,SBD,M
Boys,74.84,15,Kody Kittrell,Venus,73.66,122.47,90.72,156.49,369.68,Single-ply,SBD,M
Boys,74.84,16,Clark Bohrer,Mansfield Legacy,69.63,133.81,79.38,142.88,356.07,Single-ply,SBD,M
Boys,74.84,17,Jeremy Green,Granbury,74.16,124.74,90.72,136.08,351.53,Single-ply,SBD,M
Boys,74.84,18,Zak Worthington,Mansfield Legacy,70.85,129.27,90.72,127.01,347,Single-ply,SBD,M
Boys,74.84,19,Alton Rackstraw,Everman,72.8,111.13,61.23,154.22,326.59,Single-ply,SBD,M
Boys,74.84,20,Essix Lightfoot,Everman,71.67,142.88,61.23,113.4,317.51,Single-ply,SBD,M
Boys,74.84,21,Jacob Andrada,Fort Worth Arlington Heights,72.12,102.06,68.04,140.61,310.71,Single-ply,SBD,M
Boys,74.84,22,Tyler Kilberg,Everman,70.85,102.06,52.16,142.88,297.1,Single-ply,SBD,M
Boys,74.84,23,Cameron Bundy,Kennedale,73.39,108.86,72.57,108.86,290.3,Single-ply,SBD,M
Boys,74.84,24,John Barton,Fort Worth Western Hills,73.57,102.06,61.23,120.2,283.5,Single-ply,SBD,M
Boys,82.1,1,Theo Hollars,Burleson,76.75,231.33,136.08,272.16,639.57,Single-ply,SBD,M
Boys,82.1,2,Ruben Fletcher,Everman,77.75,224.53,108.86,204.12,537.51,Single-ply,SBD,M
Boys,82.1,3,Jose Ramirez,Fort Worth North Side,81.65,172.37,122.47,226.8,521.63,Single-ply,SBD,M
Boys,82.1,4,Michael Glenn,Midlothian,81.65,201.85,99.79,199.58,501.22,Single-ply,SBD,M
Boys,82.1,5,Fred Griffin,Everman,75.21,183.7,108.86,188.24,480.81,Single-ply,SBD,M
Boys,82.1,6,Diego Rosalas,Fort Worth Trimble Tech,76.88,188.24,106.59,185.97,480.81,Single-ply,SBD,M
Boys,82.1,7,Justin Campos,Fort Worth North Side,77.56,192.78,106.59,174.63,474,Single-ply,SBD,M
Boys,82.1,8,Joe Howard,Fort Worth Arlington Heights,80.92,165.56,106.59,192.78,464.93,Single-ply,SBD,M
Boys,82.1,9,Jackie Jenkins,Cedar Hill,77.34,174.63,106.59,170.1,451.32,Single-ply,SBD,M
Boys,82.1,10,Christian Reed,Kaufman,81.74,170.1,104.33,174.63,449.06,Single-ply,SBD,M
Boys,82.1,11,Jordan Greene,Fort Worth Trimble Tech,77.66,185.97,88.45,172.37,446.79,Single-ply,SBD,M
Boys,82.1,12,Tres Lopez,Kaufman,76.75,181.44,83.91,176.9,442.25,Single-ply,SBD,M
Boys,82.1,13,Andre Anderson,Cedar Hill,81.1,181.44,83.91,170.1,435.45,Single-ply,SBD,M
Boys,82.1,14,Patrick Hernandez,Mansfield Timberview,81.56,163.29,115.67,156.49,435.45,Single-ply,SBD,M
Boys,82.1,15,Keynon Smith,Fort Worth Arlington Heights,76.38,158.76,108.86,165.56,433.18,Single-ply,SBD,M
Boys,82.1,16,Scott Froman,Fort Worth Paschal,81.42,156.49,111.13,163.29,430.91,Single-ply,SBD,M
Boys,82.1,17,Quarius Henderson,Midlothian,80.06,142.88,106.59,174.63,424.11,Single-ply,SBD,M
Boys,82.1,18,Joe Winters,Fort Worth Arlington Heights,80.92,156.49,74.84,181.44,412.77,Single-ply,SBD,M
Boys,82.1,19,Koltyn Davis,Kennedale,80.29,142.88,92.99,172.37,408.23,Single-ply,SBD,M
Boys,82.1,20,Jontaven King,Fort Worth Western Hills,79.83,136.08,102.06,165.56,403.7,Single-ply,SBD,M
Boys,82.1,21,Garrett Smith,Kaufman,81.28,145.15,102.06,154.22,401.43,Single-ply,SBD,M
Boys,82.1,22,Devynn Birdow,Everman,80.97,124.74,106.59,167.83,399.16,Single-ply,SBD,M
Boys,82.1,23,Terrance Woodall,Mansfield Legacy,79.92,140.61,90.72,136.08,367.41,Single-ply,SBD,M
Boys,82.1,24,Jesus Varela Goicoechea,Fort Worth North Side,76.29,115.67,90.72,142.88,349.27,Single-ply,SBD,M
Boys,82.1,DQ,Chris Lampkins,Midlothian,81.1,,,,,Single-ply,SBD,M
Boys,82.1,DQ,Isaac Brown,Red Oak,79.61,190.51,106.59,,,Single-ply,SBD,M
Boys,89.81,1,Shawn Sanders,Everman,88.36,238.14,142.88,244.94,625.96,Single-ply,SBD,M
Boys,89.81,2,Stefan Arias,Burleson,87.32,240.4,156.49,213.19,610.08,Single-ply,SBD,M
Boys,89.81,3,Reggie Brooks,Burleson,89.13,219.99,136.08,226.8,582.87,Single-ply,SBD,M
Boys,99.79,4,Spencer Heflin,Lake Worth,89.99,208.65,124.74,224.53,557.92,Single-ply,SBD,M
Boys,89.81,5,Jacob Kennedy,Everman,82.55,201.85,97.52,226.8,526.17,Single-ply,SBD,M
Boys,89.81,6,Brett Wade,Kennedale,88.9,195.04,108.86,210.92,514.83,Single-ply,SBD,M
Boys,89.81,7,Marcelus Singletary,Mansfield Timberview,83.82,185.97,117.93,208.65,512.56,Single-ply,SBD,M
Boys,89.81,8,Caleb Mareau,Fort Worth Western Hills,87.54,197.31,102.06,201.85,501.22,Single-ply,SBD,M
Boys,89.81,9,Garrett Park,Lake Worth,86.64,192.78,117.93,185.97,496.68,Single-ply,SBD,M
Boys,89.81,10,Devin Rhodes,Fort Worth Trimble Tech,82.64,188.24,111.13,195.04,494.42,Single-ply,SBD,M
Boys,89.81,11,Robert Lowe,Cedar Hill,86.36,197.31,108.86,165.56,471.74,Single-ply,SBD,M
Boys,99.79,12,Vincent Ponza,Midlothian,89.99,172.37,97.52,190.51,460.4,Single-ply,SBD,M
Boys,89.81,13,Cameron Porter,Cedar Hill,86.64,181.44,92.99,183.7,458.13,Single-ply,SBD,M
Boys,99.79,14,Seth Gamez,Fort Worth Trimble Tech,89.99,197.31,95.25,163.29,455.86,Single-ply,SBD,M
Boys,89.81,15,Cedric Shaw,Everman,85.18,188.24,92.99,167.83,449.06,Single-ply,SBD,M
Boys,89.81,16,Jason Neal,Kaufman,86.09,174.63,92.99,181.44,449.06,Single-ply,SBD,M
Boys,89.81,17,Ben E,Granbury,83.19,158.76,106.59,181.44,446.79,Single-ply,SBD,M
Boys,99.79,18,Quentin Slaughter,Red Oak,89.9,167.83,90.72,163.29,421.84,Single-ply,SBD,M
Boys,89.81,19,Alex Bazan,Red Oak,83.64,163.29,99.79,151.95,415.04,Single-ply,SBD,M
Boys,89.81,20,Kassey Cook,Everman,89.58,163.29,83.91,158.76,405.97,Single-ply,SBD,M
Boys,89.81,21,Edwin Hirojosa,Fort Worth Arlington Heights,88.68,136.08,102.06,158.76,396.89,Single-ply,SBD,M
Boys,89.81,22,Benjamin Blakely,Red Oak,85.73,129.27,92.99,145.15,367.41,Single-ply,SBD,M
Boys,89.81,23,Aturo Padilla,Fort Worth North Side,83.91,124.74,63.5,151.95,340.19,Single-ply,SBD,M
Boys,89.81,24,Sergio Martinez,Fort Worth Paschal,88.54,113.4,90.72,129.27,333.39,Single-ply,SBD,M
Boys,89.81,DQ,Scott Scarborrow,Burleson,85.96,226.8,,,,Single-ply,SBD,M
Boys,99.79,1,Tevin Jenkins,Everman,94.53,254.01,142.88,267.62,664.51,Single-ply,SBD,M
Boys,99.79,2,Jesse Hernandez,Granbury,98.61,265.35,140.61,249.48,655.44,Single-ply,SBD,M
Boys,99.79,3,Juan Santoyo,Kaufman,99.34,242.67,151.95,204.12,598.74,Single-ply,SBD,M
Boys,99.79,4,Brian Ngwa,Mansfield Timberview,93.89,226.8,129.27,208.65,564.72,Single-ply,SBD,M
Boys,109.77,5,Michael Stanley,Burleson,99.88,226.8,140.61,183.7,551.11,Single-ply,SBD,M
Boys,99.79,6,Xavier Warren,Cedar Hill,99.34,208.65,122.47,192.78,523.9,Single-ply,SBD,M
Boys,99.79,7,Austin Warren,Kaufman,99.34,208.65,115.67,195.04,519.36,Single-ply,SBD,M
Boys,99.79,8,Terry Owens,Fort Worth Trimble Tech,98.66,195.04,131.54,190.51,517.1,Single-ply,SBD,M
Boys,99.79,9,Jude Akpunku,Cedar Hill,92.62,181.44,115.67,204.12,501.22,Single-ply,SBD,M
Boys,99.79,10,Chris Dimas,Lake Worth,97.52,185.97,120.2,183.7,489.88,Single-ply,SBD,M
Boys,99.79,11,Dub Ingram,Mansfield Legacy,91.63,195.04,113.4,165.56,474,Single-ply,SBD,M
Boys,99.79,12,Chris Meno,Mansfield Legacy,91.81,204.12,108.86,158.76,471.74,Single-ply,SBD,M
Boys,99.79,13,Tony Kirk,Midlothian,96.8,183.7,99.79,188.24,471.74,Single-ply,SBD,M
Boys,99.79,14,Adrian Aguilar,Lake Worth,94.8,165.56,104.33,192.78,462.66,Single-ply,SBD,M
Boys,99.79,15,Stearling Foster,Granbury,90.26,172.37,111.13,158.76,442.25,Single-ply,SBD,M
Boys,99.79,16,Aj Wilingham,Fort Worth Western Hills,90.26,165.56,122.47,136.08,424.11,Single-ply,SBD,M
Boys,99.79,DQ,Yaw Osei-Baffour,Mansfield Timberview,98.61,,,,,Single-ply,SBD,M
Boys,99.79,DQ,Marques Ennett,Mansfield Timberview,93.53,181.44,,,,Single-ply,SBD,M
Boys,99.79,DQ,Rene Lawson,Mansfield Timberview,96.16,181.44,,,,Single-ply,SBD,M
Boys,99.79,DQ,Jesse Rios,Midlothian,94.8,197.31,111.13,,,Single-ply,SBD,M
Boys,109.77,1,Derrick Ellsworth,Burleson,108.5,238.14,142.88,226.8,607.81,Single-ply,SBD,M
Boys,109.77,2,Andrew Wiggins,Everman,103.06,233.6,120.2,226.8,580.6,Single-ply,SBD,M
Boys,109.77,3,Trevor Gardner,Lake Worth,107.5,231.33,142.88,199.58,573.79,Single-ply,SBD,M
Boys,109.77,4,Ernest Thomas,Fort Worth Arlington Heights,102.97,181.44,113.4,206.38,501.22,Single-ply,SBD,M
Boys,109.77,5,Denzel Lewis,Cedar Hill,102.24,197.31,104.33,185.97,487.61,Single-ply,SBD,M
Boys,109.77,6,Jonny Davenport,Granbury,104.51,188.24,113.4,163.29,464.93,Single-ply,SBD,M
Boys,109.77,7,Walker Hargrove,Venus,109.77,188.24,115.67,158.76,462.66,Single-ply,SBD,M
Boys,109.77,8,Jesse Armenderiz,Fort Worth North Side,108.86,170.1,92.99,170.1,433.18,Single-ply,SBD,M
Boys,109.77,9,Jody Thomson,Kaufman,106.23,170.1,86.18,145.15,401.43,Single-ply,SBD,M
Boys,109.77,10,Matt Keller,Fort Worth Paschal,108.5,129.27,95.25,142.88,367.41,Single-ply,SBD,M
Boys,109.77,11,Lionel Bellazin,Lake Worth,101.7,102.06,65.77,102.06,269.89,Single-ply,SBD,M
Boys,109.77,DQ,Roger Carlson,Mansfield Timberview,100.43,195.04,,,,Single-ply,SBD,M
Boys,109.77,DQ,Dakota Larson,Venus,108.05,156.49,,,,Single-ply,SBD,M
Boys,124.74,1,Heath LeMoine,Midlothian,123.15,249.48,131.54,208.65,589.67,Single-ply,SBD,M
Boys,124.74,2,Marcel McDowell,Mansfield Legacy,116.35,233.6,120.2,181.44,535.24,Single-ply,SBD,M
Boys,124.74,3,Steve Rivera,Fort Worth Trimble Tech,122.92,195.04,113.4,206.38,514.83,Single-ply,SBD,M
Boys,124.74,4,Kendrick Robinson,Everman,121.65,208.65,111.13,181.44,501.22,Single-ply,SBD,M
Boys,124.74,5,Nick Holsomback,Mansfield Timberview,124.01,165.56,131.54,181.44,478.54,Single-ply,SBD,M
Boys,124.74,6,Jason Cortez,Fort Worth Western Hills,118.39,183.7,115.67,167.83,467.2,Single-ply,SBD,M
Boys,124.74,7,Rafael Sanchez,Granbury,115.21,170.1,113.4,181.44,464.93,Single-ply,SBD,M
Boys,124.74,8,Lewis Vega,Fort Worth North Side,111.49,165.56,104.33,188.24,458.13,Single-ply,SBD,M
Boys,124.74,9,Kenny Johnson,Fort Worth Western Hills,115.76,142.88,108.86,206.38,458.13,Single-ply,SBD,M
Boys,124.74,10,Diego Mejia,Everman,120.29,172.37,97.52,174.63,444.52,Single-ply,SBD,M
Boys,124.74,11,Anthony Zapata,Everman,117.84,158.76,79.38,124.74,362.87,Single-ply,SBD,M
Boys,124.74,12,Hyland Mullins,Fort Worth Paschal,121.34,133.81,74.84,124.74,333.39,Single-ply,SBD,M
Boys,124.74+,1,Dominique Smith,Everman,139.8,285.76,181.44,263.08,730.28,Single-ply,SBD,M
Boys,124.74+,2,Xavier Johnson,Burleson,142.61,294.84,170.1,265.35,730.28,Single-ply,SBD,M
Boys,124.74+,3,Jordan Jackson,Fort Worth Trimble Tech,131.18,238.14,145.15,217.72,601.01,Single-ply,SBD,M
Boys,124.74+,4,Bobby Lynch,Burleson,137.53,238.14,151.95,208.65,598.74,Single-ply,SBD,M
Boys,124.74+,5,Carlos Pinida,Red Oak,130.41,240.4,129.27,204.12,573.79,Single-ply,SBD,M
Boys,124.74+,6,Keith Swan,Fort Worth Western Hills,139.8,210.92,111.13,201.85,523.9,Single-ply,SBD,M
Boys,124.74+,7,Orlando Cardona,Mansfield Timberview,152.95,213.19,113.4,197.31,523.9,Single-ply,SBD,M
Boys,124.74+,8,Edwin Gonzalez,Granbury,127.1,204.12,99.79,170.1,474,Single-ply,SBD,M
Boys,124.74+,9,Alex Deeds,Fort Worth Paschal,145.51,161.03,115.67,174.63,451.32,Single-ply,SBD,M
Boys,124.74+,10,Corey Rogers,Kennedale,136.53,154.22,90.72,170.1,415.04,Single-ply,SBD,M
Boys,124.74+,DQ,Jeff Reynolds,Midlothian,143.11,176.9,113.4,,,Single-ply,SBD,M
