Place,Name,BirthYear,Country,BodyweightKg,Squat1Kg,Squat2Kg,Squat3Kg,Best3SquatKg,Bench1Kg,Bench2Kg,Bench3Kg,Best3BenchKg,Deadlift1Kg,Deadlift2Kg,Deadlift3Kg,Best3DeadliftKg,TotalKg,WeightClassKg,Division,Event,Sex,Equipment
1,Pentti Rimpi,1967,Finland,58.68,140,155,160,160,105,115,-122.5,115,165,175,182.5,182.5,457.5,59,Masters 1,SBD,M,Single-ply
1,Lewis Noppers,1970,Canada,65.7,220,230,-240,230,-150,150,-157.5,150,220,235,,235,615,66,Masters 1,SBD,M,Single-ply
2,Karel Ruso,1965,Czechia,65.83,232.5,250,-257.5,250,95,100,-105,100,207.5,220,232.5,232.5,582.5,66,Masters 1,SBD,M,Single-ply
3,Jonas Telégin,1965,Sweden,65.61,195,207.5,215,215,120,127.5,132.5,132.5,207.5,220,-232.5,220,567.5,66,Masters 1,SBD,M,Single-ply
4,Frank Schönnerstedt,1966,Germany,65.02,175,190,-195,190,92.5,-97.5,-105,92.5,180,195,210,210,492.5,66,Masters 1,SBD,M,Single-ply
5,Ewald Stadlhofer,1970,Austria,64.78,150,160,170,170,90,97.5,102.5,102.5,170,180,190,190,462.5,66,Masters 1,SBD,M,Single-ply
1,Phil Richard,1971,UK,73.62,-275,282.5,290,290,210,-217.5,-225,210,235,245,-255,245,745,74,Masters 1,SBD,M,Single-ply
2,Sami Siltala,1972,Finland,73.17,230,240,245,245,160,167.5,-172.5,167.5,-240,245,252.5,252.5,665,74,Masters 1,SBD,M,Single-ply
3,Sean Muir,1970,Australia,73.6,-235,-235,235,235,150,-155,-155,150,240,257.5,265,265,650,74,Masters 1,SBD,M,Single-ply
4,Bernard McGurk,1968,UK,73.35,220,-235,-240,220,145,-147.5,147.5,147.5,250,262.5,275,275,642.5,74,Masters 1,SBD,M,Single-ply
5,Vincent Halbot,1969,France,73.5,220,-235,-237.5,220,180,-187.5,187.5,187.5,215,-220,220,220,627.5,74,Masters 1,SBD,M,Single-ply
6,Michael Macri,1969,USA,73.91,205,215,227.5,227.5,115,-122.5,122.5,122.5,205,-227.5,-227.5,205,555,74,Masters 1,SBD,M,Single-ply
DQ,Vincent Casenove,1972,France,72.26,215,225,232.5,232.5,147.5,-152.5,-152.5,147.5,-235,-235,-235,,,74,Masters 1,SBD,M,Single-ply
DQ,Nobuyuki Hamada,1969,Japan,73.75,-275,-275,-275,,210,-220,-220,210,230,240,-250,240,,74,Masters 1,SBD,M,Single-ply
1,Pavol Slíž,1973,Slovakia,82.29,280,-290,-290,280,165,170,172.5,172.5,260,270,280,280,732.5,83,Masters 1,SBD,M,Single-ply
2,Bernhard Kotzot,1968,Germany,82.56,270,-282.5,-282.5,270,-175,175,-215,175,240,250,-260,250,695,83,Masters 1,SBD,M,Single-ply
3,Leif Joensuu,1970,Sweden,82.36,245,255,262.5,262.5,180,-185,185,185,220,240,-255,240,687.5,83,Masters 1,SBD,M,Single-ply
4,Fabrice Bertin,1967,France,82.38,225,235,240,240,-195,195,-200,195,205,215,-225,215,650,83,Masters 1,SBD,M,Single-ply
5,Cyril Rocca,1974,France,82.69,230,-245,-247.5,230,130,137.5,142.5,142.5,240,-252.5,-252.5,240,612.5,83,Masters 1,SBD,M,Single-ply
DQ,Luis Tapia,1968,Puerto Rico,81.96,-325,-325,-325,,182.5,185,195,195,247.5,252.5,-270,252.5,,83,Masters 1,SBD,M,Single-ply
DQ,Tomi Vikla,1970,Finland,82.87,-240,-240,-240,,220,,,220,230,240,-245,240,,83,Masters 1,SBD,M,Single-ply
1,Geir Gregersen,1970,Norway,92.59,300,-310,-310,300,-205,205,-210,205,250,260,265,265,770,93,Masters 1,SBD,M,Single-ply
2,Pete Grohoski,1970,USA,92.92,250,262.5,267.5,267.5,250,-257.5,-257.5,250,222.5,235,242.5,242.5,760,93,Masters 1,SBD,M,Single-ply
3,Kim Dahl Hansen,1971,Denmark,92.54,275,-287.5,-287.5,275,170,-177.5,177.5,177.5,270,287.5,-307.5,287.5,740,93,Masters 1,SBD,M,Single-ply
4,Petteri Hakkarainen,1967,Finland,92.42,235,250,255,255,-190,-190,190,190,250,260,-265,260,705,93,Masters 1,SBD,M,Single-ply
5,Daniel Pires,1971,France,89.77,240,-250,-255,240,-210,215,-217.5,215,220,232.5,-240,232.5,687.5,93,Masters 1,SBD,M,Single-ply
6,Battsengel Bataa,1970,Mongolia,92.57,240,242.5,,242.5,220,230,-242.5,230,200,215,-227.5,215,687.5,93,Masters 1,SBD,M,Single-ply
7,Tomáš Tauer,1972,Czechia,91.77,-220,240,-255,240,-180,190,-200,190,220,240,,240,670,93,Masters 1,SBD,M,Single-ply
8,Olaf Meurer,1965,Germany,90.35,200,,,200,187.5,-192.5,192.5,192.5,220,232.5,240,240,632.5,93,Masters 1,SBD,M,Single-ply
DQ,Milan Greguš,1968,Czechia,92.65,-275,280,-290,280,-210,-210,-210,,245,252.5,,252.5,,93,Masters 1,SBD,M,Single-ply
DQ,Mario Schnurr,1966,Germany,92.72,-305,-310,-312.5,,200,-212.5,-217.5,200,285,300,-317.5,300,,93,Masters 1,SBD,M,Single-ply
1,Sune Bak,1974,Denmark,104.61,275,295,307.5,307.5,242.5,-252.5,252.5,252.5,285,297.5,-312.5,297.5,857.5,105,Masters 1,SBD,M,Single-ply
2,Brad Kennedy,1973,Canada,102.56,295,305,310,310,250,-260,260,260,255,-265,-265,255,825,105,Masters 1,SBD,M,Single-ply
3,Håkan Persson,1967,Sweden,104.24,290,-305,305,305,205,210,-212.5,210,295,310,-312.5,310,825,105,Masters 1,SBD,M,Single-ply
4,Jaromír Sršeň,1974,Czechia,97.13,295,310,315,315,222.5,-232.5,-232.5,222.5,270,285,-287.5,285,822.5,105,Masters 1,SBD,M,Single-ply
5,Michael Kalter,1972,Netherlands,104.62,290,305,-312.5,305,185,192.5,-195,192.5,295,-307.5,307.5,307.5,805,105,Masters 1,SBD,M,Single-ply
6,Reiner Heinrich,1971,Germany,103.89,210,250,290,290,190,-205,-205,190,295,-310,-310,295,775,105,Masters 1,SBD,M,Single-ply
7,Mark Wynn,1966,USA,104.27,-247.5,247.5,-255,247.5,170,177.5,187.5,187.5,255,267.5,270,270,705,105,Masters 1,SBD,M,Single-ply
8,Alan Krockover,1968,USA,102.48,240,250,265,265,165,177.5,185,185,240,252.5,-260,252.5,702.5,105,Masters 1,SBD,M,Single-ply
DQ,Karel Rada,1973,Czechia,103.85,-300,-300,-310,,180,185,190,190,260,280,-295,280,,105,Masters 1,SBD,M,Single-ply
1,Andre Gholson,1971,USA,119.39,352.5,355,357.5,357.5,262.5,-267.5,267.5,267.5,275,295,-302.5,295,920,120,Masters 1,SBD,M,Single-ply
2,Sorin Cazacu,1973,Romania,118.84,362.5,370,375,375,-270,-270,270,270,262.5,272.5,-275,272.5,917.5,120,Masters 1,SBD,M,Single-ply
3,Franz Leberwurst,1969,Austria,118.47,350,360,-370,360,215,225,230,230,300,310,-315,310,900,120,Masters 1,SBD,M,Single-ply
4,Jan Pinc,1973,Czechia,119.14,-315,325,340,340,255,265,-272.5,265,270,-290,-297.5,270,875,120,Masters 1,SBD,M,Single-ply
5,Ove Sjol Per,1971,Norway,118.4,310,330,-340,330,215,225,-235,225,290,302.5,-317.5,302.5,857.5,120,Masters 1,SBD,M,Single-ply
6,Stephan Arndt,1973,Germany,114.02,295,312.5,325,325,207.5,217.5,225,225,255,270,-280,270,820,120,Masters 1,SBD,M,Single-ply
7,Kaj Mattila,1970,Finland,117.55,270,290,300,300,210,227.5,-240,227.5,240,-250,-250,240,767.5,120,Masters 1,SBD,M,Single-ply
8,Wim Wamsteeker,1969,Netherlands,119.17,280,290,-295,290,195,200,202.5,202.5,245,252.5,-257.5,252.5,745,120,Masters 1,SBD,M,Single-ply
9,Robert Mullener,1974,USA,119.27,225,-235,-235,225,162.5,167.5,175,175,215,230,-237.5,230,630,120,Masters 1,SBD,M,Single-ply
1,Jaroslav Šoukal,1972,Czechia,160.76,325,350,367.5,367.5,-305,310,325,325,265,285,-307.5,285,977.5,120+,Masters 1,SBD,M,Single-ply
2,Arne Giseth Geir,1966,Norway,136.98,325,-340,340,340,232.5,240,-245,240,290,302.5,307.5,307.5,887.5,120+,Masters 1,SBD,M,Single-ply
3,Morten Sørig,1969,Denmark,141.36,347.5,-365,-365,347.5,-265,265,-277.5,265,257.5,270,-280,270,882.5,120+,Masters 1,SBD,M,Single-ply
4,Kay Haasler,1971,Germany,140.88,290,310,325,325,-230,230,-237.5,230,277.5,292.5,307.5,307.5,862.5,120+,Masters 1,SBD,M,Single-ply
5,Constantinos Alexopoulos,1974,New Zealand,137.07,305,315,-320,315,215,227.5,235,235,280,290,-305,290,840,120+,Masters 1,SBD,M,Single-ply
6,Valentin Patru,1968,Belgium,132.13,310,-325,325,325,185,-200,-200,185,275,290,-302.5,290,800,120+,Masters 1,SBD,M,Single-ply
DQ,Richard Hocquard,1968,France,125.82,-300,-300,-300,,180,190,200,200,250,267.5,-275,267.5,,120+,Masters 1,SBD,M,Single-ply
1,Jan Roytvand,1963,Norway,65.32,225,-235,-235,225,125,132.5,137.5,137.5,207.5,217.5,222.5,222.5,585,66,Masters 2,SBD,M,Single-ply
2,Cruz Rodríguez,1959,Puerto Rico,65.8,212.5,217.5,222.5,222.5,145,152.5,157.5,157.5,190,-200,-205,190,570,66,Masters 2,SBD,M,Single-ply
3,Pavel Malina,1960,Czechia,65.49,185,,,185,80,115,120,120,100,140,,140,445,66,Masters 2,SBD,M,Single-ply
1,Greg Page,1963,USA,73.74,255,262.5,-270,262.5,165,-170,170,170,250,262.5,-278,262.5,695,74,Masters 2,SBD,M,Single-ply
2,Michel Ruffault,1964,France,72.42,220,235,240,240,120,135,140,140,250,257.5,-262.5,257.5,637.5,74,Masters 2,SBD,M,Single-ply
3,Viggo Torgersen,1964,Norway,73.93,220,-235,-235,220,160,-165,165,165,220,237.5,242.5,242.5,627.5,74,Masters 2,SBD,M,Single-ply
4,Koichi Taniguchi,1960,Japan,72.65,-210,210,220,220,152.5,160,165,165,220,230,-237.5,230,615,74,Masters 2,SBD,M,Single-ply
5,Gerhard Anton Mayer,1962,Austria,73.74,-220,220,-235,220,147.5,-155,-155,147.5,215,225,-232.5,225,592.5,74,Masters 2,SBD,M,Single-ply
6,Allen Ottolangui,1960,UK,73.63,205,215,,215,130,140,-147.5,140,205,-215,-225,205,560,74,Masters 2,SBD,M,Single-ply
1,Makoto Yamaguchi,1963,Japan,81.96,255,-265,265,265,155,160,165,165,230,240,245,245,675,83,Masters 2,SBD,M,Single-ply
2,Erik Rasmussen,1962,Denmark,82.75,232.5,245,252.5,252.5,-175,-175,175,175,212.5,225,230,230,657.5,83,Masters 2,SBD,M,Single-ply
3,Tomas Ring,1960,Sweden,82.8,210,225,235,235,-190,190,195,195,190,200,-210,200,630,83,Masters 2,SBD,M,Single-ply
4,Michal Sekot,1961,Czechia,82.62,235,-245,-245,235,160,165,-170,165,220,-230,,220,620,83,Masters 2,SBD,M,Single-ply
5,Rami Huovinen,1964,Finland,82.63,230,242.5,-247.5,242.5,135,-142.5,142.5,142.5,230,235,-245,235,620,83,Masters 2,SBD,M,Single-ply
6,Georges Mingot,1964,France,80.85,212.5,220,-227.5,220,165,172.5,177.5,177.5,205,215,-222.5,215,612.5,83,Masters 2,SBD,M,Single-ply
7,Thomas Cencich,1960,USA,82.64,195,-210,210,210,180,190,192.5,192.5,190,205,-212.5,205,607.5,83,Masters 2,SBD,M,Single-ply
8,Karnail Singh,1957,UK,80.45,210,220,-230,220,140,-145,145,145,205,217.5,220,220,585,83,Masters 2,SBD,M,Single-ply
9,Jan Sahlgren,1960,Denmark,81.91,-215,215,-232.5,215,155,162.5,-165,162.5,200,-212.5,-212.5,200,577.5,83,Masters 2,SBD,M,Single-ply
1,Steve Cummings,1962,UK,92.68,240,260,280,280,190,-200,-200,190,240,255,277.5,277.5,747.5,93,Masters 2,SBD,M,Single-ply
2,Henry Gerard,1964,USA,91.99,270,280,285,285,185,192.5,200,200,245,252.5,260,260,745,93,Masters 2,SBD,M,Single-ply
3,Harri Hagfors,1961,Finland,92.08,245,255,260,260,170,175,177.5,177.5,267.5,-282.5,-310,267.5,705,93,Masters 2,SBD,M,Single-ply
4,Peer Hänsicke,1961,Germany,92.34,250,-265,-270,250,220,-232.5,-232.5,220,220,235,-245,235,705,93,Masters 2,SBD,M,Single-ply
5,Lars Höglander,1964,Sweden,92.57,270,285,-290,285,175,180,-182.5,180,240,-247.5,-250,240,705,93,Masters 2,SBD,M,Single-ply
6,Ulf Branheim,1962,Sweden,92.68,250,-265,-265,250,170,-177.5,-177.5,170,230,240,-250,240,660,93,Masters 2,SBD,M,Single-ply
7,Klaus-Dieter Jacob,1961,Germany,91.87,220,240,260,260,180,190,-200,190,200,-225,,200,650,93,Masters 2,SBD,M,Single-ply
1,Petr Theuser,1961,Czechia,102.53,300,-325,325,325,210,-222.5,222.5,222.5,260,272.5,275,275,822.5,105,Masters 2,SBD,M,Single-ply
2,Gary Pamplin,1957,USA,104.13,292.5,317.5,-327.5,317.5,232.5,242.5,-250,242.5,232.5,250,262.5,262.5,822.5,105,Masters 2,SBD,M,Single-ply
3,Jari Niskanen,1963,Finland,104.43,270,280,290,290,200,205,-210,205,265,272.5,275,275,770,105,Masters 2,SBD,M,Single-ply
4,Rolf Dilbat,1963,Germany,100.56,225,252.5,-265,252.5,240.5,250,253,253,222.5,250,262.5,262.5,768,105,Masters 2,SBD,M,Single-ply
5,Jan Östlund,1964,Sweden,104.48,252.5,265,-272.5,265,205,210,-212.5,210,240,255,-265,255,730,105,Masters 2,SBD,M,Single-ply
6,Fabrice Leroy,1963,France,104.34,230,240,-250,240,220,225,232.5,232.5,230,240,-242.5,240,712.5,105,Masters 2,SBD,M,Single-ply
7,Rik Priester,1955,Netherlands,104.59,-267.5,267.5,282.5,282.5,177.5,-185,-185,177.5,230,240,252.5,252.5,712.5,105,Masters 2,SBD,M,Single-ply
8,Rostislav Cejnek,1962,Czechia,102.67,225,-235,-235,225,210,220,230,230,220,230,-235,230,685,105,Masters 2,SBD,M,Single-ply
9,Serge Piret,1958,Belgium,99.07,-215,215,220,220,135,140,-150,140,210,-225,-225,210,570,105,Masters 2,SBD,M,Single-ply
DQ,Reinhard Melzig,1955,Germany,102.77,-270,-270,,,,,,,,,,,,105,Masters 2,SBD,M,Single-ply
1,Zoltán Kanát,1962,Czechia,112.74,305,-320,320,320,230,240,-250,240,275,290,-300,290,850,120,Masters 2,SBD,M,Single-ply
2,Tapani Laitala,1963,Finland,112.47,275,290,-300,290,215,-220,230,230,260,270,-285,270,790,120,Masters 2,SBD,M,Single-ply
3,Brian Callahan,1963,USA,110.39,277.5,290,297.5,297.5,185,195,200,200,267.5,282.5,-292.5,282.5,780,120,Masters 2,SBD,M,Single-ply
4,Mariusz Hadrysiak,1961,Poland,111.77,210,225,-235,225,270,280,286.5,286.5,210,220,230,230,741.5,120,Masters 2,SBD,M,Single-ply
5,Naoki Tsujimi,1964,Japan,116.15,260,275,285,285,222.5,232.5,-237.5,232.5,205,220,-235,220,737.5,120,Masters 2,SBD,M,Single-ply
1,Daniel Gaudreau,1960,USA,145.84,332.5,345,347.5,347.5,145,-290,290,290,200,265,-275,265,902.5,120+,Masters 2,SBD,M,Single-ply
DQ,Michael Jaeger,1964,Germany,132.19,-260,-260,-260,,235,245,-262.5,245,280,305,-332.5,305,,120+,Masters 2,SBD,M,Single-ply
DQ,Randy Earle,1962,USA,147.94,-320,-320,-320,,-227.5,-227.5,-227.5,,250,275,287.5,287.5,,120+,Masters 2,SBD,M,Single-ply
1,Alexander Moiseev,1954,Belarus,58.22,155,160,165,165,90,95,-100,95,160,170,-180,170,430,59,Masters 3,SBD,M,Single-ply
2,Joachim Lietzau,1950,Germany,58.58,105,-127.5,-127.5,105,120,132.5,-137.5,132.5,135,-140,142.5,142.5,380,59,Masters 3,SBD,M,Single-ply
3,Him Wong Kung,1947,Hong Kong,53.06,125,130,-135,130,90,95,97.5,97.5,140,145,-152.5,145,372.5,59,Masters 3,SBD,M,Single-ply
1,Milan Gombár,1948,Slovakia,59.4,200,-211,,200,-115,115,,115,180,200,215,215,530,66,Masters 3,SBD,M,Single-ply
2,Patrick Blard,1954,France,65.64,167.5,175,182.5,182.5,97.5,102.5,107.5,107.5,190,200,205,205,495,66,Masters 3,SBD,M,Single-ply
3,Jeffrey Jacobs,1947,USA,65.73,-175,175,-182.5,175,97.5,-102.5,102.5,102.5,185,200,-215,200,477.5,66,Masters 3,SBD,M,Single-ply
4,Markku Kemppainen,1949,Finland,65.33,125,135,-140,135,115,117.5,120,120,140,152.5,162.5,162.5,417.5,66,Masters 3,SBD,M,Single-ply
1,Horst Echtner,1952,Germany,72.5,190,200,-205,200,120,125,127.5,127.5,200,215,227.5,227.5,555,74,Masters 3,SBD,M,Single-ply
2,Roger Remy,1953,Belgium,73.71,205,-215,215,215,100,105,-110,105,-220,230,-240,230,550,74,Masters 3,SBD,M,Single-ply
3,Claude Couturier,1952,France,73.55,192.5,205,-215,205,-132.5,-132.5,132.5,132.5,202.5,-212.5,-212.5,202.5,540,74,Masters 3,SBD,M,Single-ply
4,Stanley Macrow,1949,UK,70.31,165,175,180,180,115,120,125,125,185,-190,-190,185,490,74,Masters 3,SBD,M,Single-ply
5,Heino Maiste,1949,Estonia,72.89,110,,,110,107.5,-120,-120,107.5,205,-225,-225,205,422.5,74,Masters 3,SBD,M,Single-ply
DD,Robert Yamasaki,1952,USA,73.12,210,227.5,240,240,140,150,-155,150,210,227.5,-238.5,227.5,,74,Masters 3,SBD,M,Single-ply
1,Janos Fabri,1945,Hungary,80.57,215,220,222.5,222.5,135,-140,,135,260,-270,270,270,627.5,83,Masters 3,SBD,M,Single-ply
2,Ron Delaney,1951,Canada,81.4,210,222.5,-230,222.5,132.5,-140,-140,132.5,252.5,-265,-265,252.5,607.5,83,Masters 3,SBD,M,Single-ply
3,Dieter Hundertmark,1954,Germany,82.28,200,210,-220,210,150,157.5,162.5,162.5,220,232.5,-247.5,232.5,605,83,Masters 3,SBD,M,Single-ply
4,Bill Clayton,1953,USA,81.85,170,185,-190,185,125,130,135,135,185,195,200,200,520,83,Masters 3,SBD,M,Single-ply
5,Michel Dudziak,1948,France,82.47,180,-187.5,-187.5,180,65,,,65,227.5,235,-245,235,480,83,Masters 3,SBD,M,Single-ply
6,Joe Rizza,1949,USA,76.96,180,-185,185,185,70,-72.5,-72.5,70,157.5,170,172.5,172.5,427.5,83,Masters 3,SBD,M,Single-ply
1,Kevin Jane,1951,UK,92.58,240,255,272.5,272.5,155,162.5,167.5,167.5,245,265,285,285,725,93,Masters 3,SBD,M,Single-ply
2,Miroslav Koprnicky,1951,Canada,92.35,190,202.5,207.5,207.5,150,-157.5,157.5,157.5,207.5,225,230,230,595,93,Masters 3,SBD,M,Single-ply
3,Gustav Waidmann,1953,Germany,90.05,210,230,-240,230,-130,130,-140,130,210,220,-230,220,580,93,Masters 3,SBD,M,Single-ply
4,Antero Juntunen,1954,Finland,85.69,-200,205,210,210,102.5,107.5,110,110,222.5,232.5,-260,232.5,552.5,93,Masters 3,SBD,M,Single-ply
5,Josef Ptáček,1953,Czechia,92.74,195,-205,-207.5,195,157.5,162.5,167.5,167.5,180,-190,,180,542.5,93,Masters 3,SBD,M,Single-ply
6,Mick Ellender,1945,UK,89.32,145,155,165,165,135,-142.5,-142.5,135,220,230,-240,230,530,93,Masters 3,SBD,M,Single-ply
7,Duane Bartolet,1953,USA,86.86,182.5,195,205,205,105,112.5,-115,112.5,182.5,197.5,207.5,207.5,525,93,Masters 3,SBD,M,Single-ply
8,Kari Mattila,1945,Sweden,90.13,180,-190,-190,180,100,,,100,200,-222.5,-232.5,200,480,93,Masters 3,SBD,M,Single-ply
1,Rolf Stenberg,1953,Norway,103.1,245,252.5,262.5,262.5,-175,175,185,185,250,265,275.5,275.5,723,105,Masters 3,SBD,M,Single-ply
2,Leif Lillegard,1950,Norway,101.48,240,250,-260,250,180,185,190,190,240,250,-260,250,690,105,Masters 3,SBD,M,Single-ply
3,Štefan Zvada,1953,Czechia,103.35,215,225,232.5,232.5,-157.5,157.5,165,165,225,235,242.5,242.5,640,105,Masters 3,SBD,M,Single-ply
4,Wolfgang Weidemeier,1954,Germany,95.2,227.5,237.5,242.5,242.5,130,137.5,142.5,142.5,230,240,245,245,630,105,Masters 3,SBD,M,Single-ply
5,Alfred Neumaier,1953,Austria,102,-185,185,-195,185,-190,190,-195,190,210,230,-245,230,605,105,Masters 3,SBD,M,Single-ply
6,Jim Dulling,1949,UK,102.57,180,-190,190,190,150,155,-160,155,227.5,235,-242.5,235,580,105,Masters 3,SBD,M,Single-ply
7,Jean-Paul Belmas,1949,France,100.95,-220,220,230,230,105,-110,110,110,215,225,230,230,570,105,Masters 3,SBD,M,Single-ply
8,Michael Nichols,1945,USA,102.55,140,152.5,-162.5,152.5,-112.5,112.5,117.5,117.5,177.5,192.5,200,200,470,105,Masters 3,SBD,M,Single-ply
9,František Hromas,1947,Czechia,101.4,100,115,-122.5,115,-110,115,120,120,110,120,135,135,370,105,Masters 3,SBD,M,Single-ply
1,Ab Wolders,1951,Netherlands,115.53,255,275,280.5,280.5,170,180,190,190,250,265,270,270,740.5,120,Masters 3,SBD,M,Single-ply
2,Curtis Wainwright,1954,USA,118.42,247.5,265,-280,265,175,182.5,-187.5,182.5,230,240,250,250,697.5,120,Masters 3,SBD,M,Single-ply
3,Lavrenty Matynyan,1952,Russia,117.73,260,-270,-270,260,165,175,182.5,182.5,245,252.5,-255,252.5,695,120,Masters 3,SBD,M,Single-ply
1,Göran Andersson,1953,Sweden,130.35,250,270,280,280,235.5,-242.5,-242.5,235.5,210,220,-237.5,220,735.5,120+,Masters 3,SBD,M,Single-ply
2,Robert Crawford,1951,USA,142.75,165,195,-205,195,175,200,-215,200,175,195,210,210,605,120+,Masters 3,SBD,M,Single-ply
3,Toivo Kyllönen,1952,Finland,121.05,220,232.5,242.5,242.5,115,125,130,130,215,225,-237.5,225,597.5,120+,Masters 3,SBD,M,Single-ply
4,Harald Paul,1954,Germany,123.25,195,207.5,217.5,217.5,147.5,155,162.5,162.5,190,202.5,210,210,590,120+,Masters 3,SBD,M,Single-ply
1,Marcel Nivault,1933,France,58.25,120,130,135,135,42.5,-47.5,47.5,47.5,155,165,171,171,353.5,59,Masters 4,SBD,M,Single-ply
2,Ludwig Werner,1938,Germany,58.56,110,115,-117.5,115,75,80,-85,80,130,140,-160,140,335,59,Masters 4,SBD,M,Single-ply
3,Kim-Won Pok,1940,Hong Kong,52,100,110,117.5,117.5,67.5,72.5,75,75,120,132.5,-135,132.5,325,59,Masters 4,SBD,M,Single-ply
1,Mitsuru Osawa,1941,Japan,73.32,-175,-185,185,185,105,112.5,-117.5,112.5,175,185,-197.5,185,482.5,74,Masters 4,SBD,M,Single-ply
2,Wilfried Häusler,1942,Germany,73.18,140,150,-160,150,85,90,95,95,150,160,,160,405,74,Masters 4,SBD,M,Single-ply
1,Rainer Schoetz,1943,Germany,81.65,190,-205,205,205,135,140,-145,140,190,202.5,210,210,555,83,Masters 4,SBD,M,Single-ply
2,Mikhail Zhuravlev,1943,Russia,79.73,200,-210,-210,200,115,122.5,-127.5,122.5,200,215,-232.5,215,537.5,83,Masters 4,SBD,M,Single-ply
3,Ernie Parkes,1942,UK,80.87,-175,-175,175,175,102.5,110,-115,110,205,220,227.5,227.5,512.5,83,Masters 4,SBD,M,Single-ply
4,Daniel Goodwin,1932,USA,76.82,60,72.5,77.5,77.5,67.5,72.5,75,75,125,137.5,140,140,292.5,83,Masters 4,SBD,M,Single-ply
1,William Rice,1944,USA,91.55,185,200,-210,200,80,92.5,97.5,97.5,215,235,245,245,542.5,93,Masters 4,SBD,M,Single-ply
2,Tapani Puhakka,1944,Finland,89.04,102.5,112.5,120,120,110,117.5,122.5,122.5,170,185,-200,185,427.5,93,Masters 4,SBD,M,Single-ply
3,Tom O'Keefe,1935,USA,89.49,145,155,-160,155,-100,100,-102.5,100,160,172.5,-187.5,172.5,427.5,93,Masters 4,SBD,M,Single-ply
1,Mihkel Laurits,1944,Estonia,97.12,185,-200,-200,185,127.5,132.5,-137.5,132.5,200,210,215,215,532.5,105,Masters 4,SBD,M,Single-ply
2,Claudir Lopes,1940,Brazil,96.08,165,-175,180,180,150,157.5,-165,157.5,165,-175,-190,165,502.5,105,Masters 4,SBD,M,Single-ply
3,Klaus Feldmann,1936,Germany,95.12,90,100,,100,100,105,110,110,130,140,150,150,360,105,Masters 4,SBD,M,Single-ply
1,Bill Helmich,1942,USA,109.54,145,155,,155,142.5,150,-160,150,-192.5,192.5,212.5,212.5,517.5,120,Masters 4,SBD,M,Single-ply
2,Vojťech Šárik,1943,Czechia,106.12,150,-170,-175,150,100,110,120,120,160,180,,180,450,120,Masters 4,SBD,M,Single-ply
1,Raimo Sandelin,1940,Finland,120.5,100,,,100,95,-127.5,-135,95,130,175,-180,175,370,120+,Masters 4,SBD,M,Single-ply
1,Nathalie Feraud,1967,France,46.56,122.5,127.5,-130,127.5,80,85,87.5,87.5,132.5,140,-145,140,355,47,Masters 1,SBD,F,Single-ply
2,Ilka Schwengl-Forsthuber,1965,Austria,46.59,115,-125,125,125,77.5,82.5,-87.5,82.5,130,140,-147.5,140,347.5,47,Masters 1,SBD,F,Single-ply
3,Elisabeth Barry,1973,South Africa,46.49,100,107.5,112.5,112.5,47.5,-50,-50,47.5,120,127.5,-130,127.5,287.5,47,Masters 1,SBD,F,Single-ply
1,Magdolna Petróczki,1968,Hungary,51.43,145,155,162.5,162.5,-87.5,92.5,95,95,150,160,170,170,427.5,52,Masters 1,SBD,F,Single-ply
2,Monika Gavorníková,1974,Slovakia,51.74,145,155,-160,155,92.5,97.5,100,100,135,145,-150,145,400,52,Masters 1,SBD,F,Single-ply
3,Tammy Cutrona,1966,USA,51.49,105,-110,110,110,70,75,-77.5,75,110,117.5,122.5,122.5,307.5,52,Masters 1,SBD,F,Single-ply
4,Gabriella Zabne Dobai,1974,Hungary,49.33,50,55,60,60,55,60,-62.5,60,67.5,77.5,82.5,82.5,202.5,52,Masters 1,SBD,F,Single-ply
1,Eva Bánovská,1971,Czechia,55.38,130,-140,-140,130,70,-80,-80,70,137.5,147.5,155,155,355,57,Masters 1,SBD,F,Single-ply
2,Nina Le Blevenec,1972,France,56.3,-130,130,-140,130,57.5,62.5,-65,62.5,140,147.5,-157.5,147.5,340,57,Masters 1,SBD,F,Single-ply
3,Sylvie Barataud,1967,France,56.25,97.5,-102.5,-102.5,97.5,52.5,-57.5,-57.5,52.5,120,125,130,130,280,57,Masters 1,SBD,F,Single-ply
DQ,Eva Buxbom,1969,Denmark,56.82,160,-165,-165,160,-90,-90,-90,,170,180,-185,180,,57,Masters 1,SBD,F,Single-ply
1,Lara Sturm,1968,USA,62.01,165,177.5,182.5,182.5,95,100,-102.5,100,150,162.5,172.5,172.5,455,63,Masters 1,SBD,F,Single-ply
2,Jennifer Rey-Gaudreau,1971,USA,62.74,-157.5,157.5,172.5,172.5,95,102.5,105,105,157.5,170,-180,170,447.5,63,Masters 1,SBD,F,Single-ply
3,Anita Stavik,1965,Norway,61.63,155,-165,167.5,167.5,65,-70,-70,65,155,162.5,167.5,167.5,400,63,Masters 1,SBD,F,Single-ply
4,Ulrika Johansson,1972,Sweden,61.66,-167.5,-167.5,167.5,167.5,-85,85,-90,85,140,-145,147.5,147.5,400,63,Masters 1,SBD,F,Single-ply
5,Petra Dietmayer,1967,Germany,61.18,85,92.5,-97.5,92.5,67.5,72.5,-77.5,72.5,115,122.5,127.5,127.5,292.5,63,Masters 1,SBD,F,Single-ply
1,Elena Bukina,1971,Russia,69.96,165,175,180,180,115,125,130,130,170,182.5,-190,182.5,492.5,72,Masters 1,SBD,F,Single-ply
2,Sybille Hampel,1967,Germany,69.73,152.5,162.5,-167.5,162.5,72.5,77.5,-82.5,77.5,145,152.5,-160,152.5,392.5,72,Masters 1,SBD,F,Single-ply
3,Virve Ilves,1970,Finland,71.66,145,155,-160,155,70,-77.5,-77.5,70,-150,150,-170,150,375,72,Masters 1,SBD,F,Single-ply
1,Carmen Sjardijn,1969,Netherlands,74.13,170,180,-187.5,180,-112.5,115,-120,115,155,165,170,170,465,84,Masters 1,SBD,F,Single-ply
2,Michelle Brand,1973,UK,82.47,152.5,160,165,165,100,107.5,110,110,140,147.5,152.5,152.5,427.5,84,Masters 1,SBD,F,Single-ply
3,Sarah Bohlen,1969,USA,78.72,147.5,152.5,160,160,-85,85,-90,85,150,160,-182.5,160,405,84,Masters 1,SBD,F,Single-ply
DQ,Ielja Strik,1973,Netherlands,83.65,240,-255.5,-255.5,240,-172.5,-172.5,-172.5,,200,210,-220,210,,84,Masters 1,SBD,F,Single-ply
1,Katariina Nokua,1973,Finland,105.73,200,,,200,140,-167.5,,140,190,-202.5,-222.5,190,530,84+,Masters 1,SBD,F,Single-ply
2,Mimi McRae,1970,Canada,104.68,160,172.5,-177.5,172.5,85,-92.5,-92.5,85,160,170,-185,170,427.5,84+,Masters 1,SBD,F,Single-ply
3,Erin Denton,1973,Canada,94.08,150,-165,-165,150,112.5,122.5,-127.5,122.5,137.5,-147.5,147.5,147.5,420,84+,Masters 1,SBD,F,Single-ply
1,Kimberly Ryman Price,1962,USA,46.16,97.5,105,-110,105,52.5,-57.5,-57.5,52.5,122.5,132.5,140,140,297.5,47,Masters 2,SBD,F,Single-ply
2,Yoshie Takizawa,1957,Japan,45.1,90,95,-100,95,60,62.5,65,65,100,-107.5,-107.5,100,260,47,Masters 2,SBD,F,Single-ply
1,Jenny Hunter,1958,UK,51.78,95,-100,100,100,70,75,-80,75,140,147.5,152.5,152.5,327.5,52,Masters 2,SBD,F,Single-ply
2,Therese Jallais Marie,1957,France,49.82,70,80,-85,80,52.5,-57.5,57.5,57.5,95,100,-105,100,237.5,52,Masters 2,SBD,F,Single-ply
3,Martine Roche,1956,France,51.87,-80,80,-92.5,80,25,,,25,70,85,-95,85,190,52,Masters 2,SBD,F,Single-ply
1,Antoinette Kemper,1964,USA,55.53,132.5,142.5,-147.5,142.5,75,-77.5,,75,130,140,145,145,362.5,57,Masters 2,SBD,F,Single-ply
2,Helen Allen,1961,Australia,56.45,107.5,115,-120,115,57.5,-60,-60,57.5,152.5,165,-170,165,337.5,57,Masters 2,SBD,F,Single-ply
1,Riitta Liimatainen,1963,Sweden,61.6,181,190.5,-200,190.5,-100,100,107.5,107.5,162.5,172.5,180.5,180.5,478.5,63,Masters 2,SBD,F,Single-ply
2,Françoise Calves,1956,France,60.21,-125,-125,125,125,62.5,65,67.5,67.5,127.5,132.5,135,135,327.5,63,Masters 2,SBD,F,Single-ply
3,Daisy Blondan,1959,France,61.64,-117.5,117.5,-122.5,117.5,75,-80,-80,75,130,135,-137.5,135,327.5,63,Masters 2,SBD,F,Single-ply
4,Monica Sobotka,1958,USA,58.01,100,105,-110,105,67.5,72.5,-75,72.5,140,147.5,-150,147.5,325,63,Masters 2,SBD,F,Single-ply
5,Caryn Daniel,1963,USA,62.16,112.5,122.5,-125,122.5,60,65,70,70,117.5,127.5,-132.5,127.5,320,63,Masters 2,SBD,F,Single-ply
6,Wing-Yuk Ip,1961,Hong Kong,59.71,100,-110,,100,-70,70,77.5,77.5,90,110,-135,110,287.5,63,Masters 2,SBD,F,Single-ply
1,Donna Marts,1960,USA,70.02,152.5,-157.5,157.5,157.5,100,102.5,-107.5,102.5,162.5,170,177.5,177.5,437.5,72,Masters 2,SBD,F,Single-ply
2,Gro-Berit Staveim,1964,Norway,71.13,150,155,160,160,72.5,77.5,-80,77.5,-147.5,147.5,-155,147.5,385,72,Masters 2,SBD,F,Single-ply
1,Laura Styrlund,1964,USA,82.08,155,165,172.5,172.5,110,117.5,-125,117.5,170,182.5,190,190,480,84,Masters 2,SBD,F,Single-ply
2,Jackie Blasbery,1963,UK,83.48,-155,155,170,170,105,115,120,120,170,182.5,190,190,480,84,Masters 2,SBD,F,Single-ply
3,Susanne Steidle,1964,Germany,76.07,-157.5,157.5,-165,157.5,87.5,95,-97.5,95,140,150,160,160,412.5,84,Masters 2,SBD,F,Single-ply
1,Jean Maton,1963,UK,85.18,-160,160,170,170,105,112.5,-120,112.5,170,180,-185,180,462.5,84+,Masters 2,SBD,F,Single-ply
1,Trish Muldrock,1954,New Zealand,45.27,100,107.5,115.5,115.5,60,65,70,70,120,130,-140,130,315.5,47,Masters 3,SBD,F,Single-ply
2,Marina Cornwall,1954,UK,45.34,72.5,-77.5,77.5,77.5,45,47.5,-50,47.5,110,120,-127.5,120,245,47,Masters 3,SBD,F,Single-ply
1,Maryse Malicot,1946,France,50.82,85,90,-95,90,45,-47.5,-47.5,45,90,97.5,105,105,240,52,Masters 3,SBD,F,Single-ply
2,Denise Johnson,1947,USA,51.72,45,50,55,55,32.5,-37.5,-37.5,32.5,75,82.5,85,85,172.5,52,Masters 3,SBD,F,Single-ply
1,Irmeli Vaulakorpi,1954,Finland,55.99,82.5,92.5,102.5,102.5,60,65,67.5,67.5,100,110,-117.5,110,280,57,Masters 3,SBD,F,Single-ply
1,Hisako Hayashi,1951,Japan,60.69,-130,130,-140,130,77.5,85,-95.5,85,135,145,150.5,150.5,365.5,63,Masters 3,SBD,F,Single-ply
2,Carol Brady,1950,Canada,62.19,102.5,110,115,115,62.5,67.5,70,70,102.5,110,115,115,300,63,Masters 3,SBD,F,Single-ply
3,Lise Madsen,1953,Denmark,61.89,50,62.5,-65,62.5,40,-42.5,-42.5,40,135,142.5,-150.5,142.5,245,63,Masters 3,SBD,F,Single-ply
1,Hana Takáčová,1954,Czechia,79.49,160,181,,181,-130,130,135.5,135.5,145,-160,-160,145,461.5,84,Masters 3,SBD,F,Single-ply
1,Sue Hollands,1951,UK,85.55,-165,165,175,175,77.5,82.5,85,85,147.5,157.5,165,165,425,84+,Masters 3,SBD,F,Single-ply
1,Eila Kumpuniemi,1942,Finland,49.43,77.5,-80,87.5,87.5,47.5,-55,55,55,-100,112.5,120.5,120.5,263,52,Masters 4,SBD,F,Single-ply
