Division,WeightClassKg,Place,Name,Team,BodyweightKg,Best3SquatKg,Best3BenchKg,Best3DeadliftKg,TotalKg,Equipment,Event,Sex
Boys,51.71,1,Anthony Garcia,Weslaco,48.99,120.2,77.11,145.15,342.46,Single-ply,SBD,M
Boys,51.71,2,Kevin Sierra,PSJA Southwest,51.07,108.86,74.84,142.88,326.59,Single-ply,SBD,M
Boys,51.71,3,Eliezer Lucero,Rio Grande City Grulla,51.26,102.06,79.38,131.54,312.98,Single-ply,SBD,M
Boys,51.71,4,Jaden Trevino,PSJA,44.27,97.52,56.7,102.06,256.28,Single-ply,SBD,M
Boys,51.71,5,Cody Acosta,PSJA,45.09,88.45,47.63,92.99,229.06,Single-ply,SBD,M
Boys,55.79,1,Mauro Vargas,La Joya Juarez-Lincoln,55.07,156.49,95.25,167.83,419.57,Single-ply,SBD,M
Boys,55.79,2,Damien Palomo,Weslaco,53.07,117.93,61.23,149.69,328.85,Single-ply,SBD,M
Boys,55.79,3,Hector Elizondo,Sharyland Pioneer,54.79,129.27,65.77,133.81,328.85,Single-ply,SBD,M
Boys,55.79,4,Juan Dominguez,PSJA North,52.34,111.13,52.16,97.52,260.82,Single-ply,SBD,M
Boys,55.79,DQ,Joe Anthony Tamez,PSJA Memorial,53.07,102.06,,,,Single-ply,SBD,M
Boys,59.87,1,Alex Gonzalez,PSJA North,59.06,124.74,81.65,161.03,367.41,Single-ply,SBD,M
Boys,67.13,2,Matthew Ortiz,Weslaco,60.06,127.01,92.99,145.15,365.14,Single-ply,SBD,M
Boys,59.87,3,Luiz Martinez,PSJA,59.78,99.79,56.7,104.33,260.82,Single-ply,SBD,M
Boys,59.87,DQ,Joel Oyervides,Mission,58.24,108.86,86.18,,,Single-ply,SBD,M
Boys,67.13,1,Joshua Garcia,Weslaco,65.77,190.51,115.67,219.99,526.17,Single-ply,SBD,M
Boys,67.13,2,Allan Cruz,Mission Veterans Memorial,62.87,165.56,111.13,174.63,451.32,Single-ply,SBD,M
Boys,67.13,3,Ronaldo Longoria,Sharyland Pioneer,66.68,147.42,83.91,165.56,396.89,Single-ply,SBD,M
Boys,67.13,4,Kevin Gonzalez,Rio Grande City Grulla,65.68,133.81,92.99,136.08,362.87,Single-ply,SBD,M
Boys,67.13,5,Danny Salinas,PSJA Memorial,61.96,124.74,79.38,136.08,340.19,Single-ply,SBD,M
Boys,74.84,1,Erin Estevanes,Weslaco,73.12,208.65,131.54,231.33,571.53,Single-ply,SBD,M
Boys,74.84,2,Sylverter Cedillo,Mission Veterans Memorial,72.39,206.38,124.74,201.85,532.97,Single-ply,SBD,M
Boys,74.84,3,Alex Santisteban,La Joya,72.57,197.31,115.67,208.65,521.63,Single-ply,SBD,M
Boys,74.84,4,Joseph Segovia,Mission,72.3,183.7,131.54,188.24,503.49,Single-ply,SBD,M
Boys,74.84,5,Jesus Rodriguez,PSJA Memorial,67.86,197.31,127.01,176.9,501.22,Single-ply,SBD,M
Boys,74.84,6,Romeo Lopez,Sharyland Pioneer,74.39,183.7,113.4,181.44,478.54,Single-ply,SBD,M
Boys,74.84,7,Jacob Hernandez,PSJA Memorial,72.98,165.56,120.2,176.9,462.66,Single-ply,SBD,M
Boys,74.84,8,Joe H Rodrigurez,PSJA Southwest,68.86,174.63,111.13,167.83,453.59,Single-ply,SBD,M
Boys,74.84,9,Jon Anthony Saenz,PSJA Memorial,71.12,183.7,122.47,142.88,449.06,Single-ply,SBD,M
Boys,74.84,10,Israel Estrada,PSJA North,74.75,163.29,111.13,170.1,444.52,Single-ply,SBD,M
Boys,74.84,11,Haroldo Ramirez,Rio Grande City Grulla,74.57,158.76,88.45,158.76,405.97,Single-ply,SBD,M
Boys,74.84,12,Scott Barbosa,PSJA Southwest,68.4,142.88,86.18,145.15,374.21,Single-ply,SBD,M
Boys,74.84,DQ,Daniel Dominguez,Rio Grande City Grulla,73.48,158.76,102.06,,,Single-ply,SBD,M
Boys,82.1,1,Robert Hernandez,La Joya Juarez-Lincoln,78.83,215.46,138.35,231.33,585.13,Single-ply,SBD,M
Boys,82.1,2,Jesus Reyna,Weslaco,81.47,210.92,117.93,224.53,553.38,Single-ply,SBD,M
Boys,82.1,3,Salvador Castillo,Mission Sharyland,77.84,210.92,113.4,217.72,542.04,Single-ply,SBD,M
Boys,82.1,4,Desse Zarate,Rio Grande City Grulla,81.19,197.31,131.54,210.92,539.77,Single-ply,SBD,M
Boys,82.1,5,Yonny Villarreal,La Joya,81.47,195.04,99.79,174.63,469.47,Single-ply,SBD,M
Boys,82.1,6,Sal Mendez,PSJA Southwest,81.01,149.69,138.35,174.63,462.66,Single-ply,SBD,M
Boys,82.1,7,Jorge Gutierrez,PSJA Memorial,81.1,183.7,120.2,156.49,460.4,Single-ply,SBD,M
Boys,82.1,8,Danny Torres,PSJA North,77.02,176.9,108.86,165.56,451.32,Single-ply,SBD,M
Boys,82.1,9,Sérgio Silva,La Joya Juarez-Lincoln,80.1,158.76,108.86,181.44,449.06,Single-ply,SBD,M
Boys,82.1,10,Ruben Aguirre,Mission,79.65,172.37,102.06,172.37,446.79,Single-ply,SBD,M
Boys,89.81,11,Lazaro Rodriguez,PSJA Memorial,82.19,165.56,102.06,179.17,446.79,Single-ply,SBD,M
Boys,82.1,12,Carlos Martinez,Sharyland Pioneer,80.29,165.56,102.06,172.37,439.98,Single-ply,SBD,M
Boys,82.1,13,Derek Matamoros,PSJA Memorial,77.38,165.56,83.91,170.1,419.57,Single-ply,SBD,M
Boys,89.81,14,Andrew Cantu,Mission Sharyland,82.28,142.88,95.25,149.69,387.82,Single-ply,SBD,M
Boys,82.1,15,Josue Sanchez,Mission,77.56,151.95,102.06,131.54,385.55,Single-ply,SBD,M
Boys,82.1,DQ,Christian Lara,La Joya Palmview,81.47,142.88,108.86,,,Single-ply,SBD,M
Boys,82.1,DQ,Angel Ortiz,La Joya Palmview,79.11,136.08,,,,Single-ply,SBD,M
Boys,82.1,DQ,Ernesto Cota,Rio Grande City Grulla,79.56,,,,,Single-ply,SBD,M
Boys,89.81,1,Gilbert Trevino,Weslaco,88.9,238.14,158.76,219.99,616.89,Single-ply,SBD,M
Boys,89.81,2,Julio Garcia,La Joya Juarez-Lincoln,87.82,208.65,133.81,215.46,557.92,Single-ply,SBD,M
Boys,89.81,3,Fernando Hernandez,La Joya Juarez-Lincoln,89.45,206.38,124.74,213.19,544.31,Single-ply,SBD,M
Boys,89.81,4,Jose Nicoleau,Sharyland Pioneer,87.54,190.51,147.42,192.78,530.7,Single-ply,SBD,M
Boys,89.81,5,Joseph Rios,Mission,87.27,199.58,136.08,192.78,528.44,Single-ply,SBD,M
Boys,89.81,6,Hugo Cabrerra,Mission Veterans Memorial,87.91,176.9,131.54,213.19,521.63,Single-ply,SBD,M
Boys,89.81,7,Eddie Nunez,La Joya,88.99,163.29,149.69,208.65,521.63,Single-ply,SBD,M
Boys,89.81,8,Rey Villarreal,Mission Veterans Memorial,88.81,188.24,108.86,222.26,519.36,Single-ply,SBD,M
Boys,89.81,9,Justin Leanos,La Joya,83.01,201.85,102.06,204.12,508.02,Single-ply,SBD,M
Boys,89.81,10,Julio Reyna,PSJA Southwest,86.55,183.7,111.13,206.38,501.22,Single-ply,SBD,M
Boys,89.81,11,Javier Elizondo,Mission Sharyland,87.09,183.7,124.74,183.7,492.15,Single-ply,SBD,M
Boys,89.81,12,Thor Hernandez,PSJA North,86.45,183.7,115.67,181.44,480.81,Single-ply,SBD,M
Boys,89.81,13,Quintin Martinez,Rio Grande City,85.28,174.63,83.91,176.9,435.45,Single-ply,SBD,M
Boys,89.81,14,David Cantu,Mission Sharyland,89.36,183.7,92.99,158.76,435.45,Single-ply,SBD,M
Boys,89.81,15,Jonathan Garcia,PSJA Memorial,89.18,151.95,113.4,158.76,424.11,Single-ply,SBD,M
Boys,89.81,16,Carlos Martinez,PSJA,89.18,136.08,117.93,142.88,396.89,Single-ply,SBD,M
Boys,89.81,17,Nick Hinojosa,La Joya,83.91,111.13,111.13,140.61,362.87,Single-ply,SBD,M
Boys,89.81,18,David Garza,PSJA North,86.55,142.88,74.84,142.88,360.61,Single-ply,SBD,M
Boys,89.81,19,Eddie Hernandez,La Joya Juarez-Lincoln,85,174.63,111.13,,285.76,Single-ply,SB,M
Boys,89.81,DQ,Jaime Ybarra,La Joya Palmview,85,136.08,,,,Single-ply,SB,M
Boys,89.81,DQ,Joel Moreno,Mission Sharyland,88.9,149.69,,167.83,,Single-ply,SBD,M
Boys,99.79,1,Jon Vasquez,PSJA Southwest,99.25,215.46,136.08,195.04,546.58,Single-ply,SBD,M
Boys,99.79,2,Ricky Ramirez,PSJA Southwest,92.8,215.46,142.88,188.24,546.58,Single-ply,SBD,M
Boys,99.79,3,Tony Cerda,La Joya,90.45,215.46,124.74,199.58,539.77,Single-ply,SBD,M
Boys,99.79,4,Danny Munguia,Mission Veterans Memorial,99.25,185.97,129.27,188.24,503.49,Single-ply,SBD,M
Boys,99.79,5,Armando Chavero,Rio Grande City,99.34,176.9,131.54,183.7,492.15,Single-ply,SBD,M
Boys,99.79,6,Vicente Palacios,PSJA North,99.61,183.7,113.4,192.78,489.88,Single-ply,SBD,M
Boys,99.79,7,Javier de la Torre,Rio Grande City,95.71,183.7,102.06,195.04,480.81,Single-ply,SBD,M
Boys,99.79,8,Frank Aguilar,La Joya Juarez-Lincoln,99.79,154.22,129.27,197.31,480.81,Single-ply,SBD,M
Boys,99.79,9,Jaime Vera,Rio Grande City,99.79,161.03,95.25,192.78,449.06,Single-ply,SBD,M
Boys,99.79,10,Mike Perez,Mission Veterans Memorial,99.43,163.29,92.99,188.24,444.52,Single-ply,SBD,M
Boys,99.79,11,Danny Villarreal,La Joya,94.8,149.69,106.59,170.1,426.38,Single-ply,SBD,M
Boys,99.79,DQ,Adolfo Trevino,Mission Sharyland,97.43,156.49,,136.08,,Single-ply,SBD,M
Boys,109.77,1,Fernando Gonzalez,La Joya Palmview,105.6,265.35,142.88,226.8,635.03,Single-ply,SBD,M
Boys,109.77,2,Roger Benavidez,Rio Grande City,109.32,247.21,145.15,226.8,619.15,Single-ply,SBD,M
Boys,109.77,3,Andres Enriquez,PSJA,106.41,213.19,129.27,181.44,523.9,Single-ply,SBD,M
Boys,109.77,4,Daniel Gonzalez,La Joya Juarez-Lincoln,103.6,199.58,111.13,208.65,519.36,Single-ply,SBD,M
Boys,109.77,5,Christian Ozuna,La Joya Juarez-Lincoln,100.7,192.78,129.27,185.97,508.02,Single-ply,SBD,M
Boys,109.77,6,Jacob Rodriguez,Weslaco,108.23,183.7,124.74,190.51,498.95,Single-ply,SBD,M
Boys,109.77,7,Daniel Martinez,La Joya Juarez-Lincoln,105.78,192.78,129.27,167.83,489.88,Single-ply,SBD,M
Boys,109.77,8,Jose de Leon,Mission,108.14,188.24,99.79,185.97,474,Single-ply,SBD,M
Boys,109.77,9,Hilton Burleson,La Joya Palmview,107.95,174.63,113.4,183.7,471.74,Single-ply,SBD,M
Boys,109.77,10,Jose Guerrero,Rio Grande City,107.5,151.95,108.86,188.24,449.06,Single-ply,SBD,M
Boys,109.77,11,Andy Zuniga,PSJA North,101.51,163.29,104.33,158.76,426.38,Single-ply,SBD,M
Boys,109.77,12,Saul de la Cruz,La Joya Juarez-Lincoln,102.78,145.15,86.18,154.22,385.55,Single-ply,SBD,M
Boys,109.77,DQ,Juan Resendez,La Joya,100.15,,,,,Single-ply,SBD,M
Boys,124.74,DQ,Humberto Garza,Mission,109.95,163.29,,,,Single-ply,SBD,M
Boys,124.74,1,Nazario Garcia,Rio Grande City Grulla,120.75,226.8,158.76,233.6,619.15,Single-ply,SBD,M
Boys,124.74,2,Shawn Gonzalez,PSJA Southwest,115.21,224.53,133.81,229.06,587.4,Single-ply,SBD,M
Boys,124.74,3,Edgar Rodriguez,Rio Grande City,124.74,247.21,120.2,219.99,587.4,Single-ply,SBD,M
Boys,124.74,4,Arturo Gutierrez,La Joya Palmview,112.58,217.72,111.13,204.12,532.97,Single-ply,SBD,M
Boys,124.74,5,Diego Lopez,PSJA North,110.68,210.92,124.74,188.24,523.9,Single-ply,SBD,M
Boys,124.74,6,David Rodriguez,PSJA Southwest,122.65,210.92,111.13,190.51,512.56,Single-ply,SBD,M
Boys,124.74,7,Alfonso Cerda,Weslaco,123.33,179.17,129.27,195.04,503.49,Single-ply,SBD,M
Boys,124.74,8,John Paul Martinez,Mission Veterans Memorial,122.2,161.03,111.13,195.04,467.2,Single-ply,SBD,M
Boys,124.74,9,Eric Alvarado,PSJA,112.76,181.44,113.4,151.95,446.79,Single-ply,SBD,M
Boys,124.74,10,Jaime Morin,Rio Grande City,124.74,158.76,115.67,158.76,433.18,Single-ply,SBD,M
Boys,124.74,DQ,Ricky Leyva,La Joya,119.84,,,,,Single-ply,SBD,M
Boys,124.74+,1,Zeke Garza,La Joya,144.51,283.5,147.42,272.16,703.07,Single-ply,SBD,M
Boys,124.74+,2,Manuel Mata,PSJA North,128.73,272.16,165.56,233.6,671.32,Single-ply,SBD,M
Boys,124.74+,3,Brandon Perez,Weslaco,149.05,170.1,102.06,192.78,464.93,Single-ply,SBD,M
Boys,124.74+,4,Marcus Ancension,Mission Veterans Memorial,138.35,172.37,99.79,179.17,451.32,Single-ply,SBD,M
