Division,Equipment,Event,WeightClassKg,Name,Sex,Best3SquatKg,Best3BenchKg,Best3DeadliftKg,TotalKg,Age,BodyweightKg,Place
Amateur Masters (65-69),Multi-ply,B,90,Ron Blackmon,M,,226.8,,226.8,66,89.45,1
Amateur Submasters,Raw,B,125,Ryan Alexander,M,,208.65,,208.65,33,117.75,1
Amateur Masters (45-49),Raw,B,90,Billy Fletcher,M,,138.35,,138.35,45,87.36,1
Amateur Masters (50-54),Raw,B,100,Greg Osteen,M,,158.76,,158.76,54,97.34,1
Amateur Masters (65-69),Raw,B,100,Peter Marston,M,,74.84,,74.84,65,96.43,1
Amateur Masters (45-49),Raw,B,110,John Borek,M,,174.63,,174.63,47,108.14,1
Pro Open,Raw,B,100,Carl Stanley,M,,190.51,,190.51,29,98.34,1
Pro Open,Raw,B,125,Wayne Van Nostrand,M,,249.48,,249.48,43,124.01,1
Pro Open,Raw,B,75,Mark Henderson,M,,92.99,,92.99,26,68.31,1
Pro Masters (55-59),Raw,B,110,Bob Gunn,M,,199.58,,199.58,59,109.41,1
Pro Masters (40-44),Raw,B,125,Wayne Van Nostrand,M,,249.48,,249.48,43,124.01,1
Amateur Juniors,Wraps,SBD,60,Crystal Trawick,F,83.91,61.23,120.2,265.35,,,1
Amateur Open,Wraps,SBD,60,Jessica Clohessy,F,111.13,56.7,120.2,288.03,,,1
Amateur Open,Wraps,SBD,75,Jessica Fulmer,F,115.67,68.04,161.03,344.73,,,1
Amateur Open,Wraps,SBD,75,Cali Henrion,F,77.11,58.97,117.93,254.01,,,2
Amateur Open,Wraps,SBD,82.5,Kristie Smith,F,156.49,92.99,172.37,421.84,,,1
Amateur Open,Wraps,SBD,90+,Erika Schultze,F,140.61,70.31,174.63,385.55,,,1
Amateur Masters (50-54),Wraps,SBD,75,Judy Benedict,F,81.65,70.31,104.33,256.28,,,1
Pro Open,Wraps,SBD,56,Jennifer Millican,F,142.88,72.57,136.08,351.53,,,1
Pro Open,Wraps,SBD,75,Jennifer Payne,F,147.42,83.91,136.08,367.41,,,1
Pro Open,Wraps,SD,75,Therese Janc,F,167.83,,199.58,367.41,,,2
Pro Submasters,Wraps,SD,75,Therese Janc,F,167.83,,199.58,367.41,,,1
Pro Masters (40-44),Wraps,SBD,75,Jennifer Payne,F,147.42,83.91,136.08,367.41,,,1
Amateur Teen (16-17),Wraps,SBD,90,Coby Webb,M,136.08,97.52,219.99,453.59,,,1
Amateur Open,Multi-ply,SBD,90,Matt Wilson,M,272.16,201.85,240.4,714.41,,,1
Amateur Open,Multi-ply,SBD,100,Jon Hayes,M,247.21,,,,,,DQ
Amateur Open,Multi-ply,SBD,140,Mathew Linton,M,274.42,136.08,229.06,639.57,,,1
Amateur Masters (40-44),Multi-ply,SBD,110,Donald Grunstra,M,319.78,192.78,242.67,755.23,,,1
Amateur Masters (50-54),Multi-ply,SBD,125,Harry Wotring,M,290.3,276.69,226.8,793.79,,,1
Amateur Juniors,Wraps,SBD,82.5,Mike Bailey,M,174.63,145.15,233.6,553.38,,,1
Amateur Juniors,Wraps,SBD,90,Drake Culbreth,M,208.65,106.59,215.46,530.7,,,1
Amateur Juniors,Wraps,SBD,90,Brendan Riley,M,149.69,79.38,190.51,419.57,,,2
Amateur Open,Wraps,SBD,75,David Whelan,M,136.08,102.06,165.56,403.7,,,1
Amateur Open,Wraps,SBD,90,Alex McDonald,M,206.38,158.76,238.14,603.28,,,1
Amateur Open,Wraps,SBD,100,Steven Schmitter,M,226.8,170.1,294.84,691.73,,,1
Amateur Open,Wraps,SBD,100,Jonathan Szuchy,M,190.51,131.54,188.24,510.29,,,2
Amateur Open,Wraps,SBD,110,Shane Williams,M,219.99,136.08,249.48,605.55,,,1
Amateur Open,Wraps,SBD,125,Jonathan Mathas,M,274.42,167.83,274.42,716.68,,,1
Amateur Open,Wraps,SBD,125,Shane Bushman,M,260.82,170.1,272.16,703.07,,,2
Amateur Open,Wraps,SBD,125,Mark Henrion,M,156.49,111.13,204.12,471.74,,,3
Amateur Open,Wraps,SBD,140,Ike Ford,M,249.48,185.97,226.8,662.24,,,1
Amateur Open,Wraps,SBD,140,Chris Johnston,M,208.65,158.76,238.14,605.55,,,2
Amateur Open,Wraps,SBD,140,Sam Kelly,M,183.7,,,,,,DQ
Amateur Submasters,Wraps,SBD,100,Eddie Washington,M,129.27,115.67,145.15,390.09,,,1
Amateur Masters (45-49),Wraps,SBD,82.5,Scotty Terry,M,136.08,104.33,161.03,401.43,,,1
Amateur Masters (45-49),Wraps,SBD,90,Bill Gruss,M,142.88,113.4,179.17,435.45,,,1
Amateur Masters (40-44),Wraps,SBD,100,Brian Barger,M,226.8,136.08,260.82,623.69,,,1
Amateur Masters (40-44),Wraps,SBD,100,Kevin Ballenger,M,183.7,142.88,210.92,537.51,,,2
Amateur Masters (40-44),Wraps,SBD,110,Wade Meetze,M,210.92,165.56,183.7,560.19,,,1
Amateur Masters (50-54),Wraps,SBD,140,Sam Kelly,M,183.7,,,,,,DQ
Pro Teen (18-19),Multi-ply,SBD,100,Joseph McDougall,M,385.55,242.67,278.96,907.18,,,1
Pro Juniors,Multi-ply,SBD,82.5,Ben Brown,M,256.28,170.1,249.48,675.85,,,1
Pro Open,Multi-ply,SBD,100,Jamison Tinsley,M,265.35,197.31,233.6,696.26,,,1
Pro Open,Multi-ply,SBD,125,Cody Snider,M,390.09,292.57,331.12,1013.78,,,1
Pro Masters (40-44),Multi-ply,SBD,125,Scott Dawson,M,306.17,102.06,251.74,659.98,,,1
Pro Masters (50-54),Multi-ply,SBD,125,Harry Wotring,M,290.3,276.69,226.8,793.79,,,1
Pro Open,Wraps,SBD,90,Greg Crook,M,251.74,158.76,238.14,648.64,,,1
Pro Open,Wraps,SBD,100,Chad Ingle,M,249.48,151.95,244.94,646.37,,,1
Pro Open,Wraps,SBD,110,Mark Ferris,M,319.78,204.12,337.93,861.83,,,1
Pro Open,Wraps,SBD,110,Jordan Smith,M,281.23,158.76,272.16,712.14,,,2
Pro Open,Wraps,SBD,125,Kyle Jenkins,M,294.84,197.31,258.55,750.7,,,1
Pro Open,Wraps,SBD,140+,Michael Schultze,M,351.53,233.6,317.51,902.65,,,1
Pro Submasters,Wraps,SBD,90,Bryan Chaikin,M,242.67,170.1,256.28,669.05,,,1
Pro Submasters,Wraps,SBD,90,Timothy Boyce,M,61.23,142.88,219.99,424.11,,,2
Pro Masters (45-49),Wraps,SBD,110,Mark Ferris,M,319.78,204.12,337.93,861.83,,,1
Pro Masters (40-44),Wraps,SBD,110,Allen Underwood,M,299.37,197.31,294.84,791.52,,,1
Amateur Open,Raw,BD,67.5,Bridget Bacon,F,,56.7,142.88,199.58,,,1
Amateur Juniors,Raw,BD,82.5,Jesse Conner,M,,106.59,183.7,290.3,,,1
Amateur Submasters,Raw,BD,100,Joey Levy,M,,115.67,174.63,290.3,,,1
Pro Open,Raw,BD,110,Josh Hudgins,M,,149.69,229.06,378.75,,,1
