Division,WeightClassKg,Place,Name,Team,BodyweightKg,Best3SquatKg,Best3BenchKg,Best3DeadliftKg,TotalKg,Equipment,Event,Sex
Boys,51.71,1,Taylor Nobles,Yoakum,49.9,120.2,54.43,124.74,299.37,Single-ply,SBD,M
Boys,51.71,2,Dylan Torres,Runge,49.9,111.13,58.97,120.2,290.3,Single-ply,SBD,M
Boys,51.71,DQ,Chris Jones,Hallettsville,51.71,,,,,Single-ply,SBD,M
Boys,55.79,1,Dillon Barrow,Yorktown,54.88,124.74,61.23,127.01,312.98,Single-ply,SBD,M
Boys,55.79,DQ,Travis Campbell,Hallettsville,54.43,111.13,,,,Single-ply,SBD,M
Boys,59.87,1,Chase Dolezal,Hallettsville,59.42,172.37,90.72,167.83,430.91,Single-ply,SBD,M
Boys,59.87,2,Paul Voelkel,Schulenburg,58.51,111.13,90.72,136.08,337.93,Single-ply,SBD,M
Boys,59.87,3,Gabriel Casares,Gonzales,58.97,122.47,74.84,136.08,333.39,Single-ply,SBD,M
Boys,59.87,4,Lucas Alvear,Runge,59.42,122.47,74.84,131.54,328.85,Single-ply,SBD,M
Boys,59.87,DQ,Pete Martinez,Yorktown,58.97,136.08,90.72,,,Single-ply,SBD,M
Boys,67.13,1,Ryan Berkovsky,Yoakum,62.6,174.63,99.79,195.04,469.47,Single-ply,SBD,M
Boys,67.13,2,Randy Solis,Runge,64.41,154.22,86.18,185.97,426.38,Single-ply,SBD,M
Boys,67.13,3,Koby Caka,Yoakum,64.41,158.76,90.72,174.63,424.11,Single-ply,SBD,M
Boys,67.13,4,John Botello,Gonzales,66.68,136.08,95.25,165.56,396.89,Single-ply,SBD,M
Boys,67.13,5,Johnny Toro,Schulenburg,63.5,147.42,88.45,158.76,394.63,Single-ply,SBD,M
Boys,67.13,6,Blake McCracken,Yoakum,61.23,149.69,74.84,156.49,381.02,Single-ply,SBD,M
Boys,67.13,7,Chris Shelton,Gonzales,66.68,115.67,63.5,172.37,351.53,Single-ply,SBD,M
Boys,67.13,8,Eddie Gonzales,Gonzales,66.9,120.2,65.77,117.93,303.91,Single-ply,SBD,M
Boys,67.13,9,Ricky Reeder,Yorktown,65.77,83.91,70.31,124.74,278.96,Single-ply,SBD,M
Boys,67.13,10,Mark Mixon,Yoakum,63.05,90.72,56.7,108.86,256.28,Single-ply,SBD,M
Boys,67.13,DQ,Carlos Rodriguez,Hallettsville,67.13,,,,,Single-ply,SBD,M
Boys,74.84,1,Andrew Jimenez,Yoakum,72.12,199.58,106.59,192.78,498.95,Single-ply,SBD,M
Boys,74.84,2,Tanner Heffner,Schulenburg,72.57,185.97,120.2,185.97,492.15,Single-ply,SBD,M
Boys,74.84,3,Hunter Noack,Gonzales,74.39,181.44,95.25,201.85,478.54,Single-ply,SBD,M
Boys,74.84,4,Cole Stremmel,Yorktown,73.48,183.7,108.86,167.83,460.4,Single-ply,SBD,M
Boys,74.84,5,Rex Kutzer,Yoakum,73.03,154.22,104.33,174.63,433.18,Single-ply,SBD,M
Boys,74.84,6,Derek Franke,Yorktown,73.48,136.08,81.65,145.15,362.87,Single-ply,SBD,M
Boys,74.84,7,Lane Strieber,Yorktown,71.21,129.27,74.84,149.69,353.8,Single-ply,SBD,M
Boys,74.84,8,Cameron Nicholson,Hallettsville,72.57,117.93,79.38,131.54,328.85,Single-ply,SBD,M
Boys,74.84,9,Michael Coffman,Yorktown,72.57,111.13,68.04,136.08,315.25,Single-ply,SBD,M
Boys,82.1,1,Landon Lock,Gonzales,81.65,240.4,117.93,244.94,603.28,Single-ply,SBD,M
Boys,82.1,2,Brandon Strickland,Schulenburg,78.02,163.29,108.86,195.04,467.2,Single-ply,SBD,M
Boys,82.1,3,Adrian Molina,Gonzales,77.56,181.44,102.06,176.9,460.4,Single-ply,SBD,M
Boys,82.1,4,Andrew Syrinek,Schulenburg,78.47,163.29,117.93,158.76,439.98,Single-ply,SBD,M
Boys,82.1,5,Ty Winkler,Schulenburg,77.56,154.22,88.45,154.22,396.89,Single-ply,SBD,M
Boys,82.1,6,Daniel Sánchez,Gonzales,81.87,142.88,79.38,165.56,387.82,Single-ply,SBD,M
Boys,89.81,1,Joel Campos,Gonzales,87.77,231.33,149.69,204.12,585.13,Single-ply,SBD,M
Boys,89.81,2,John Lara,Schulenburg,86.64,170.1,117.93,167.83,455.86,Single-ply,SBD,M
Boys,89.81,3,Ricardo Rivera,Gonzales,82.55,149.69,104.33,185.97,439.98,Single-ply,SBD,M
Boys,89.81,4,Anthony Casares,Gonzales,88.45,142.88,77.11,158.76,378.75,Single-ply,SBD,M
Boys,99.79,1,Dillon Novosad,Yoakum,95.25,244.94,140.61,249.48,635.03,Single-ply,SBD,M
Boys,99.79,2,Dylan Pekar,Yoakum,91.63,226.8,131.54,192.78,551.11,Single-ply,SBD,M
Boys,99.79,3,Korry Huddleston,Yorktown,90.26,208.65,127.01,199.58,535.24,Single-ply,SBD,M
Boys,99.79,4,Kyle Bludau,Schulenburg,95.25,181.44,113.4,195.04,489.88,Single-ply,SBD,M
Boys,99.79,5,Jason Dunning,Schulenburg,90.72,179.17,108.86,188.24,476.27,Single-ply,SBD,M
Boys,99.79,6,Carlos Martinez,Schulenburg,94.8,167.83,104.33,188.24,460.4,Single-ply,SBD,M
Boys,99.79,7,Jesse Ramirez,Gonzales,96.16,158.76,72.57,156.49,387.82,Single-ply,SBD,M
Boys,99.79,8,Joey Wysatta,Hallettsville,96.16,142.88,81.65,142.88,367.41,Single-ply,SBD,M
Boys,109.77,1,Fred Erskin,Gonzales,101.15,208.65,115.67,201.85,526.17,Single-ply,SBD,M
Boys,109.77,2,Jason Martinez,Gonzales,107.5,199.58,120.2,206.38,526.17,Single-ply,SBD,M
Boys,109.77,3,Lance Machicek,Schulenburg,106.59,167.83,127.01,204.12,498.95,Single-ply,SBD,M
Boys,109.77,4,Dillon Johnson,Yorktown,102.97,154.22,113.4,151.95,419.57,Single-ply,SBD,M
Boys,109.77,5,Jacob Castillo,Gonzales,103.42,124.74,65.77,138.35,328.85,Single-ply,SBD,M
Boys,124.74,1,Richie Guerrero,Yoakum,114.31,272.16,170.1,249.48,691.73,Single-ply,SBD,M
Boys,124.74,2,Dustin Catchings,Gonzales,111.58,249.48,147.42,260.82,657.71,Single-ply,SBD,M
Boys,124.74,3,Scott Richter,Yoakum,112.94,238.14,158.76,201.85,598.74,Single-ply,SBD,M
Boys,124.74,4,Guadalupe Cabrera,Gonzales,119.29,167.83,113.4,174.63,455.86,Single-ply,SBD,M
Boys,124.74,5,Chris Sleger,Yorktown,117.03,147.42,95.25,188.24,430.91,Single-ply,SBD,M
Boys,124.74,6,Mathew Gomez,Gonzales,114.76,142.88,97.52,140.61,381.02,Single-ply,SBD,M
Boys,124.74,7,Brian Dolezal,Gonzales,110.68,102.06,72.57,133.81,308.44,Single-ply,SBD,M
Boys,124.74+,1,Josh Kapchinski,Bryan Rudder,163.29,249.48,147.42,215.46,612.35,Single-ply,SBD,M
Boys,124.74+,2,Tyler Egger,Yorktown,125.19,222.26,136.08,199.58,557.92,Single-ply,SBD,M
Boys,124.74+,3,Mathew San Miguel,Gonzales,141.97,170.1,115.67,154.22,439.98,Single-ply,SBD,M
Boys,124.74+,DQ,Cale Furrh,Hallettsville,136.08,,,,,Single-ply,SBD,M
