Division,WeightClassKg,Place,Name,Team,BodyweightKg,Best3SquatKg,Best3BenchKg,Best3DeadliftKg,TotalKg,Equipment,Event,Sex
Boys,51.71,1,Brandon Fernandez,Poteet,49.44,147.42,81.65,147.42,376.48,Single-ply,SBD,M
Boys,55.79,1,Mason Williams,Yorktown,52.25,156.49,86.18,161.03,403.7,Single-ply,SBD,M
Boys,59.87,1,Samuel Moczygemba,Poth,59.83,154.22,115.67,188.24,458.13,Single-ply,SBD,M
Boys,59.87,2,JT Bryce,George West,59.87,136.08,81.65,142.88,360.61,Single-ply,SBD,M
Boys,59.87,3,Cutter Braun,Yoakum,59.78,147.42,61.23,138.35,347,Single-ply,SBD,M
Boys,67.13,1,Adrian Fuentes,George West,67.13,165.56,108.86,199.58,474,Single-ply,SBD,M
Boys,67.13,2,Cooper Conn,Poth,64.55,188.24,97.52,170.1,455.86,Single-ply,SBD,M
Boys,67.13,3,Carlos Alvizo,Poth,63.87,149.69,106.59,181.44,437.72,Single-ply,SBD,M
Boys,67.13,4,Damion Legaspe,San Antonio Cole,63.96,156.49,88.45,151.95,396.89,Single-ply,SBD,M
Boys,67.13,DQ,Nicholas Seth Garcia,San Antonio Southside,67.13,,,,,Single-ply,SBD,M
Boys,67.13,DQ,Jose Ramirez,San Antonio Southside,61.6,,,,,Single-ply,SBD,M
Boys,74.84,1,Kyle Jones,Poth,74.71,204.12,97.52,204.12,505.76,Single-ply,SBD,M
Boys,74.84,2,Marco Burkman-Flaig,San Antonio Cole,71.67,201.85,108.86,188.24,498.95,Single-ply,SBD,M
Boys,74.84,3,Mateo Abrego,Nixon Smiley,72.03,174.63,86.18,181.44,442.25,Single-ply,SBD,M
Boys,74.84,4,Alvin Amador,Kenedy,68.86,140.61,83.91,172.37,396.89,Single-ply,SBD,M
Boys,74.84,5,Ryan Mendoza,Runge,70.67,136.08,58.97,145.15,340.19,Single-ply,SBD,M
Boys,74.84,6,Dez Almond,Universal City Randolph,73.48,127.01,65.77,142.88,335.66,Single-ply,SBD,M
Boys,74.84,7,Christopher Orta,Poteet,74.57,129.27,63.5,142.88,335.66,Single-ply,SBD,M
Boys,74.84,DQ,Jerry Edlin,George West,74.84,,,,,Single-ply,SBD,M
Boys,82.1,1,Nate Duvall,George West,79.74,192.78,111.13,204.12,508.02,Single-ply,SBD,M
Boys,82.1,2,Chris Wilson,George West,80.56,183.7,106.59,197.31,487.61,Single-ply,SBD,M
Boys,82.1,3,Eren Olaode,Nixon Smiley,80.74,165.56,92.99,204.12,462.66,Single-ply,SBD,M
Boys,82.1,4,Brandon Basquez,Yoakum,78.11,176.9,102.06,167.83,446.79,Single-ply,SBD,M
Boys,82.1,5,Miguel Buenostro,Yoakum,80.56,133.81,70.31,151.95,356.07,Single-ply,SBD,M
Boys,82.1,DQ,Robert Garcia,San Antonio Southside,82.1,,,,,Single-ply,SBD,M
Boys,82.1,DQ,Isaiah Forman,San Antonio Southside,82.05,,,,,Single-ply,SBD,M
Boys,89.81,1,Jacob Trujillo,Universal City Randolph,89.18,217.72,138.35,213.19,569.26,Single-ply,SBD,M
Boys,89.81,2,Colby Newman,Nixon Smiley,82.55,181.44,127.01,204.12,512.56,Single-ply,SBD,M
Boys,89.81,3,Bryce Byars,Yoakum,84.91,181.44,106.59,192.78,480.81,Single-ply,SBD,M
Boys,89.81,4,Andrew Quijano,San Antonio Southside,87.36,188.24,102.06,183.7,474,Single-ply,SBD,M
Boys,89.81,DQ,Michael Gomez,Poteet,88.81,176.9,,,,Single-ply,SBD,M
Boys,99.79,1,Patrick Rhodes,San Antonio Cole,97.25,242.67,142.88,229.06,614.62,Single-ply,SBD,M
Boys,99.79,2,Connor Brandt,Yoakum,98.07,249.48,133.81,219.99,603.28,Single-ply,SBD,M
Boys,99.79,3,Sean Allen,Poth,96.25,240.4,149.69,199.58,589.67,Single-ply,SBD,M
Boys,99.79,4,Garret Carver,Devine,99.79,185.97,147.42,190.51,523.9,Single-ply,SBD,M
Boys,99.79,5,Richard Salazar,George West,99.06,199.58,113.4,185.97,498.95,Single-ply,SBD,M
Boys,99.79,6,Miguel Garcia,Yoakum,96.89,192.78,108.86,183.7,485.34,Single-ply,SBD,M
Boys,99.79,7,Michael Cepedes,Universal City Randolph,92.99,201.85,92.99,174.63,469.47,Single-ply,SBD,M
Boys,99.79,8,Garrett Garcia,Universal City Randolph,93.26,154.22,77.11,149.69,381.02,Single-ply,SBD,M
Boys,99.79,9,Justin Ruiz,Poteet,94.71,138.35,90.72,133.81,362.87,Single-ply,SBD,M
Boys,99.79,DQ,Tim Carrasco,Poteet,90.63,,,,,Single-ply,SBD,M
Boys,109.77,1,Ethan Bernal,George West,108.05,260.82,147.42,231.33,639.57,Single-ply,SBD,M
Boys,109.77,2,Richard Villarreal,Kenedy,103.51,233.6,133.81,199.58,566.99,Single-ply,SBD,M
Boys,109.77,3,Omar Gutiérrez,Yoakum,100.15,217.72,97.52,195.04,510.29,Single-ply,SBD,M
Boys,109.77,4,Hijnio Guerrero,George West,104.6,158.76,108.86,156.49,424.11,Single-ply,SBD,M
Boys,109.77,5,Dalton Perry,Poth,106.59,145.15,95.25,149.69,390.09,Single-ply,SBD,M
Boys,109.77,DQ,Deshawn Borders,Universal City Randolph,109.77,,,,,Single-ply,SBD,M
Boys,109.77,DQ,Brandon Glaspie,Universal City Randolph,109.77,,,,,Single-ply,SBD,M
Boys,109.77,DQ,Jonathan Luna,Universal City Randolph,109.77,,,,,Single-ply,SBD,M
Boys,109.77,DQ,Cruz Medina,Yorktown,104.6,185.97,108.86,,,Single-ply,SBD,M
Boys,109.77,DQ,Anthony Alegre,Poteet,109.23,204.12,129.27,,,Single-ply,SBD,M
Boys,124.74,1,Nick Gomez,Yoakum,124.47,256.28,133.81,235.87,625.96,Single-ply,SBD,M
Boys,124.74,2,Anthony Walters,San Antonio Cole,120.56,226.8,136.08,210.92,573.79,Single-ply,SBD,M
Boys,124.74,3,Rudy Orosco,Runge,122.83,242.67,106.59,183.7,532.97,Single-ply,SBD,M
Boys,124.74,DQ,Seth Ritchey,Poteet,124.01,,,,,Single-ply,SBD,M
Boys,124.74+,1,Joey Dominguez,Yoakum,143.15,263.08,149.69,238.14,650.91,Single-ply,SBD,M
Boys,,NS,Eric Ratley,Yoakum,,,,,,Single-ply,SBD,M
Boys,,NS,Austin Rocha,Yoakum,,,,,,Single-ply,SBD,M
Boys,,NS,Trivian Trapp,Universal City Randolph,,,,,,Single-ply,SBD,M
Boys,,NS,Jaden Maturey,Universal City Randolph,,,,,,Single-ply,SBD,M
Boys,,NS,Hason Shakoor,Universal City Randolph,,,,,,Single-ply,SBD,M
Boys,,NS,Colby Clakley,San Antonio Southside,,,,,,Single-ply,SBD,M
Boys,,NS,Daniel Jiminez Guzman,San Antonio Southside,,,,,,Single-ply,SBD,M
Boys,,NS,Adrian Macias,Poteet,,,,,,Single-ply,SBD,M
Boys,,NS,Sam Ritchey,Poteet,,,,,,Single-ply,SBD,M
Boys,,NS,Lupe Rodriguez,Devine,,,,,,Single-ply,SBD,M
Boys,,NS,Shayne Coquat,George West,,,,,,Single-ply,SBD,M
Boys,,NS,Moses Carrasco,Poteet,,,,,,Single-ply,SBD,M
