Name,WeightClassKg,Division,Sex,Best3SquatKg,Squat4Kg,Best3BenchKg,Bench4Kg,Best3DeadliftKg,Deadlift4Kg,TotalKg,Event,Equipment,Age,Place
Vanazz Washington,90+,Submasters,F,,,100,,,,100,B,Multi-ply,,1
Sidney Thoms,90+,Masters 45-49,F,,,127.5,,,,127.5,B,Multi-ply,,1
Richard Driest,60,Teen 13-15,M,,,40,,,,40,B,Multi-ply,,1
Chris Bivans,90,Teen 13-15,M,,,70,,,,70,B,Multi-ply,,1
Brett Koval,67.5,Teen 16-17,M,,,125,,,,125,B,Multi-ply,,1
Jeremiah Troutman,125,Juniors,M,,,187.5,,,,187.5,B,Multi-ply,,1
Norman Gorman,90,Submasters,M,,,190,,,,190,B,Multi-ply,,1
Frank Laraia,100,Submasters,M,,,170,,,,170,B,Multi-ply,,1
Brian Laliberte,100,Submasters,M,,,167.5,,,,167.5,B,Multi-ply,,2
Randy Pietrowski,110,Submasters,M,,,185,,,,185,B,Multi-ply,,1
LeeRoy Banks,82.5,Police/Fire,M,,,190,,,,190,B,Raw,,1
Dale Holt,110,Police/Fire,M,,,200,,,,200,B,Multi-ply,,1
Darrell Kibler,67.5,Masters 40-44,M,,,110,,,,110,B,Multi-ply,,1
Darrell Gaye,82.5,Masters 40-44,M,,,130,,,,130,B,Multi-ply,,1
Duane Burlingame,100,Masters 40-44,M,,,167.5,,,,167.5,B,Multi-ply,,1
Cozy Cozine,125,Masters 40-44,M,,,195,,,,195,B,Multi-ply,,1
Darrell Latch,110,Masters 50-54,M,,,92.5,,,,92.5,B,Multi-ply,,1
Karl Bivans,140+,Masters 50-54,M,,,190,,,,190,B,Multi-ply,,1
Bob Bassman,90,Masters 60-64,M,,,142.5,,,,142.5,B,Multi-ply,,1
Joe Marsala,125,Masters 60-64,M,,,105,,,,105,B,Multi-ply,,1
Glenn Breuhan,82.5,Masters 65-69,M,,,85,,,,85,B,Multi-ply,,1
Sam Gissing,100,Open,M,,,147.5,,,,147.5,B,Multi-ply,,1
Michael Bacher,125,Open,M,,,235,,,,235,B,Multi-ply,,1
Karl Bivans,140+,Open,M,,,190,,,,190,B,Multi-ply,,1
James Carr,140+,Open,M,,,157.5,,,,157.5,B,Multi-ply,,2
Christine Figola,48,Open,F,137.5,,60.5,,120,,318,SBD,Multi-ply,,1
Dana Damiani,56,Open,F,125,,65,,120,,310,SBD,Multi-ply,,1
Dionne Wessels,60,Open,F,155,,57.5,,155,,367.5,SBD,Multi-ply,,1
Bridget Gleeson,67.5,Open,F,170,,80,,145.5,,395.5,SBD,Multi-ply,,1
Kristy Reske,75,Open,F,140,,92.5,,160,167.5,392.5,SBD,Multi-ply,,1
Toni Scopacasa,90+,Open,F,227.5,,115,,157.5,,500,SBD,Multi-ply,,1
Kristy Reske,75,Juniors,F,140,,92.5,,160,167.5,392.5,SBD,Multi-ply,,1
Traci Radmanovich,52,Submasters,F,25,,45,,25,,95,SBD,Multi-ply,,1
Pat Casper,56,Submasters,F,115,,72.5,,132.5,,320,SBD,Multi-ply,,1
Vanazz Washington,90+,Submasters,F,142.5,,100,,137.5,,380,SBD,Multi-ply,,1
Jo Ellen Glitt,90,Masters 50-54,F,140,,70,,137.5,,347.5,SBD,Multi-ply,,1
Tyler Ruzich,52,Teen 13-15,M,80,,45,,105,,230,SBD,Multi-ply,,1
Kenny Goldman,56,Teen 13-15,M,87.5,,47.5,,102.5,105,237.5,SBD,Multi-ply,,1
Richard Driest,60,Teen 13-15,M,70,,40,,100,,210,SBD,Multi-ply,,1
Mark Mendoza,67.5,Teen 13-15,M,147.5,,105,,160,,412.5,SBD,Multi-ply,14,1
Chris Bivans,90,Teen 13-15,M,100,,70,,147.5,,317.5,SBD,Multi-ply,,1
Ryan Foote,110,Teen 13-15,M,250,,142.5,,222.5,,615,SBD,Multi-ply,,1
Fernando Aspuru,125,Teen 13-15,M,160,,120,,200,,480,SBD,Multi-ply,,1
Kyle Kildrow,56,Teen 16-17,M,155,,77.5,,170,,402.5,SBD,Multi-ply,,1
Jeremy Winsor,60,Teen 16-17,M,110,,90,95,137.5,157.5,337.5,SBD,Multi-ply,,1
Max McIntyre,67.5,Teen 16-17,M,115,122.5,82.5,,145,,342.5,SBD,Multi-ply,,1
John Stewart,82.5,Teen 16-17,M,142.5,,132.5,,205,,480,SBD,Multi-ply,,1
Keith Ivers,75,Teen 18-19,M,200,,115,,232.5,,547.5,SBD,Multi-ply,,1
John Ruzich,82.5,Teen 18-19,M,182.5,,125,,230,,537.5,SBD,Multi-ply,,1
Dusty Miller,100,Teen 18-19,M,257.5,,122.5,,300,,680,SBD,Multi-ply,,1
Chad Ruzich,110,Teen 18-19,M,185,,137.5,,240,,562.5,SBD,Multi-ply,,1
Chad Taylor,75,Juniors,M,235,,135,,215,,585,SBD,Multi-ply,,1
Adam Schumaker,82.5,Juniors,M,262.5,,162.5,,252.5,,677.5,SBD,Multi-ply,,1
Brandon Ratajczyk,82.5,Juniors,M,260,,157.5,,245,,662.5,SBD,Multi-ply,,2
Brian Demoff,90,Juniors,M,295,,160,,307.5,,762.5,SBD,Multi-ply,,1
Mark Fanone,90,Juniors,M,265,,172.5,,282.5,,720,SBD,Multi-ply,,2
Jake Bradsher,100,Juniors,M,287.5,,202.5,,315,322.5,805,SBD,Multi-ply,,1
Jeremiah Troutman,125,Juniors,M,252.5,,167.5,,250,,670,SBD,Multi-ply,,1
Jarrod Fry,140,Juniors,M,342.5,,197.5,,272.5,,812.5,SBD,Multi-ply,,1
Shane Williams,140,Juniors,M,282.5,,177.5,,242.5,,702.5,SBD,Multi-ply,,2
Erwin Chang,75,Submasters,M,167.5,,157.5,,180,,505,SBD,Multi-ply,,1
Leo Welch,90,Submasters,M,282.5,,167.5,,282.5,,732.5,SBD,Multi-ply,,1
James Perry,90,Submasters,M,255,,165,,257.5,,677.5,SBD,Multi-ply,,2
Brian Laliberte,100,Submasters,M,245,,167.5,,245,,657.5,SBD,Multi-ply,,1
Paul Craig,100,Submasters,M,247.5,,150,,237.5,,635,SBD,Multi-ply,,2
Bob Scherer,100,Submasters,M,240,,135,,240,,615,SBD,Multi-ply,,3
George Kim,110,Submasters,M,282.5,,165,,250,,697.5,SBD,Multi-ply,,1
John Oelkers,110,Submasters,M,250,,167.5,,210,,627.5,SBD,Multi-ply,,2
Robert Dorash,110,Submasters,M,192.5,,137.5,,182.5,,512.5,SBD,Multi-ply,,3
Fred Rucker,140,Submasters,M,240,,155,,227.5,,622.5,SBD,Multi-ply,,1
Darrell Kibler,67.5,Masters 40-44,M,180,,110,,175,,465,SBD,Multi-ply,,1
Arthur Little,75,Masters 40-44,M,227.5,,152.5,,277.5,,657.5,SBD,Multi-ply,,1
Don Graham,75,Masters 40-44,M,232.5,,140,,235,,607.5,SBD,Multi-ply,,2
Mark Lichtenberger,82.5,Masters 40-44,M,272.5,,182.5,,240,,695,SBD,Multi-ply,,1
Francis Ruettiger,82.5,Masters 40-44,M,252.5,,145,,227.5,,625,SBD,Multi-ply,,2
Ricky Dexter,82.5,Masters 40-44,M,165,,140,,145,,450,SBD,Multi-ply,,3
Dave Newman,90,Masters 40-44,M,237.5,,182.5,,225,,645,SBD,Multi-ply,,1
Jay Craig,100,Masters 40-44,M,267.5,,170,,260,,697.5,SBD,Multi-ply,,1
Duane Burlingame,100,Masters 40-44,M,227.5,,167.5,,295,,690,SBD,Multi-ply,,2
Philip Klee,100,Masters 40-44,M,182.5,,145,,200,,527.5,SBD,Multi-ply,,3
Cozy Cozine,125,Masters 40-44,M,100,,195,,100,,395,SBD,Multi-ply,,1
Dan DeFelice,140,Masters 40-44,M,320,,215,,247.5,,782.5,SBD,Multi-ply,,1
Randy Compton,90,Masters 45-49,M,250,,177.5,,272.5,,700,SBD,Multi-ply,,1
Mario Nigro,90,Masters 45-49,M,252.5,,132.5,,182.5,,567.5,SBD,Multi-ply,,2
Larry Readman,125,Masters 45-49,M,145,,110,,232.5,,487.5,SBD,Multi-ply,,1
Bill Klasner,82.5,Masters 50-54,M,227.5,,152.5,,202.5,,582.5,SBD,Multi-ply,,1
Dave Solan,90,Masters 50-54,M,295,,165,,265,,725,SBD,Multi-ply,,1
Darrell Latch,100,Masters 50-54,M,212.5,,92.5,,217.5,,522.5,SBD,Multi-ply,,1
Steve Binkowski,125,Masters 50-54,M,245,,175,,247.5,,667.5,SBD,Multi-ply,,1
Karl Bivans,140+,Masters 50-54,M,320,,190,,240,,750,SBD,Multi-ply,,1
John Lamboley,75,Masters 55-59,M,212.5,,137.5,,182.5,,532.5,SBD,Multi-ply,,1
Eddie Angstrom,82.5,Masters 55-59,M,175,,147.5,150,197.5,205,520,SBD,Multi-ply,,1
Roy Branes,82.5,Masters 55-59,M,192.5,,117.5,,175,,485,SBD,Multi-ply,,2
Fred Glass,67.5,Masters 60-64,M,182.5,,72.5,,187.5,,442.5,SBD,Multi-ply,,1
Bob Bassman,90,Masters 60-64,M,207.5,,142.5,,212.5,,562.5,SBD,Multi-ply,,1
De Shaw,110,Masters 60-64,M,260,,142.5,,272.5,,675,SBD,Multi-ply,60,1
Glenn Breuhan,82.5,Masters 65-69,M,135,,85,,167.5,,387.5,SBD,Multi-ply,,1
Melvin Huff,100,Masters 70-74,M,197.5,,110,,200,,507.5,SBD,Multi-ply,71,1
Steven Boyd,75,Police/Fire,M,182.5,,155,,195,,532.5,SBD,Multi-ply,,1
Aaron Garcia,82.5,Police/Fire,M,287.5,,147.5,,245,,680,SBD,Multi-ply,,1
Steven Gawtik,82.5,Police/Fire,M,232.5,,140,,225,,597.5,SBD,Multi-ply,,2
Brent Stanley,82.5,Police/Fire,M,175,,120,,227.5,,522.5,SBD,Multi-ply,,3
John Latronica,90,Police/Fire,M,250,,172.5,,272.5,,695,SBD,Multi-ply,,1
Dick Zenzen,100,Police/Fire,M,300,,147.5,,240,,687.5,SBD,Multi-ply,,1
William Nichols,125,Police/Fire,M,420,,232.5,,337.5,,990,SBD,Multi-ply,,1
Andy Rivard,125,Police/Fire,M,245,,165,,247.5,,657.5,SBD,Multi-ply,,2
Zach Zenzen,60,Open,M,112.5,117.5,47.5,,112.5,,272.5,SBD,Multi-ply,,1
John Cuciurean,75,Open,M,227.5,,180,,230,,637.5,SBD,Multi-ply,,1
Steve Beaupre,75,Open,M,212.5,,165,,205,,582.5,SBD,Multi-ply,,2
Tony Corona,75,Open,M,217.5,,137.5,,205,,560,SBD,Multi-ply,,3
Putt Houston,75,Open,M,200,,140,,202.5,,542.5,SBD,Multi-ply,,4
Michael Andrus,82.5,Open,M,272.5,,172.5,,282.5,,727.5,SBD,Multi-ply,,1
Robert Lukitsch,82.5,Open,M,230,,170,,222.5,,622.5,SBD,Multi-ply,,2
Steven Gawlik,82.5,Open,M,232.5,,140,,225,,597.5,SBD,Multi-ply,,3
Scott Chalmers,90,Open,M,257.5,,195,,240,,692.5,SBD,Multi-ply,,1
James Perry,90,Open,M,255,,165,,257.5,,677.5,SBD,Multi-ply,,2
Darby Oelkers,90,Open,M,182.5,,115,,220,,517.5,SBD,Multi-ply,,3
Sam Gissing,100,Open,M,285,,165,,255,,705,SBD,Multi-ply,,1
Dante Fortin,110,Open,M,327.5,,187.5,,297.5,,812.5,SBD,Multi-ply,,1
TC Roesch,110,Open,M,317.5,,182.5,,292.5,,792.5,SBD,Multi-ply,,2
Beau Boyle,110,Open,M,300,,202.5,,257.5,,760,SBD,Multi-ply,,3
Eric Beltran,110,Open,M,280,,165,,255,,700,SBD,Multi-ply,,4
Mike Bacher,125,Open,M,312.5,,235,,302.5,,850,SBD,Multi-ply,,1
Glen Baum,125,Open,M,272.5,,182.5,,257.5,,712.5,SBD,Multi-ply,,2
Mike Wortham,140,Open,M,255,,157.5,,227.5,,640,SBD,Multi-ply,,1
Paul Stratakis,140+,Open,M,352.5,,167.5,,295,,815,SBD,Multi-ply,,1
Karl Bivans,140+,Open,M,320,,190,,240,,750,SBD,Multi-ply,,2
Brent Uhlig,140+,Open,M,307.5,,197.5,,242.5,,747.5,SBD,Multi-ply,,3
James Carr,140+,Open,M,,,,,,,,SBD,Multi-ply,,DQ
