Division,WeightClassKg,Place,Name,Team,BodyweightKg,Best3SquatKg,Best3BenchKg,Best3DeadliftKg,TotalKg,Equipment,Event,Sex
Boys,51.71,1,David Tubig,Burleson,51.71,140.61,74.84,158.76,374.21,Single-ply,SBD,M
Boys,55.79,2,Jeffery Porter,Alvarado,51.8,136.08,72.57,113.4,322.05,Single-ply,SBD,M
Boys,55.79,3,Ethan Johnson,Burleson Centennial,51.8,97.52,38.56,99.79,235.87,Single-ply,SBD,M
Boys,51.71,DQ,Michael Brown,Lancaster,51.71,106.59,61.23,,,Single-ply,SBD,M
Boys,59.87,1,Andrew Wilson,Frisco Wakeland,55.97,154.22,86.18,158.76,399.16,Single-ply,SBD,M
Boys,55.79,2,Christian Castillo,Little Elm,55.57,136.08,81.65,151.95,369.68,Single-ply,SBD,M
Boys,55.79,3,Logan Police,Frisco Wakeland,52.25,140.61,72.57,145.15,358.34,Single-ply,SBD,M
Boys,55.79,4,Raymond Bhikhai,Pilot Point,55.43,140.61,58.97,129.27,328.85,Single-ply,SBD,M
Boys,55.79,5,Sagar Patel,Oakridge School,55.07,108.86,61.23,140.61,310.71,Single-ply,SBD,M
Boys,67.13,1,Jayvier Rigmaiden,Burleson Centennial,60.1,172.37,90.72,190.51,453.59,Single-ply,SBD,M
Boys,67.13,2,Margarito Lozano,Everman,60.06,163.29,102.06,161.03,426.38,Single-ply,SBD,M
Boys,67.13,3,Austin Blalock,Burleson Centennial,60.06,151.95,95.25,170.1,417.3,Single-ply,SBD,M
Boys,67.13,4,Issac Montemayor,Ennis,60.06,154.22,79.38,165.56,399.16,Single-ply,SBD,M
Boys,59.87,5,Jaquay Brown,Milford,56.7,147.42,81.65,154.22,383.29,Single-ply,SBD,M
Boys,67.13,6,Willis Watson,Everman,60.06,147.42,81.65,154.22,383.29,Single-ply,SBD,M
Boys,59.87,7,Preston Stripling,Midlothian,59.15,140.61,88.45,151.95,381.02,Single-ply,SBD,M
Boys,59.87,8,Trey Sowell,Oakridge School,59.42,140.61,72.57,165.56,378.75,Single-ply,SBD,M
Boys,59.87,9,Hayden Dibble,North Crowley,56.25,145.15,68.04,147.42,360.61,Single-ply,SBD,M
Boys,59.87,10,Jordan Mosley,North Crowley,59.65,131.54,70.31,145.15,347,Single-ply,SBD,M
Boys,59.87,11,Edgar Carrera,Ennis,58.24,129.27,77.11,133.81,340.19,Single-ply,SBD,M
Boys,59.87,12,Darion Moffett,Cedar Hill,59.51,122.47,68.04,138.35,328.85,Single-ply,SBD,M
Boys,59.87,DQ,Trent Ohives,Cedar Hill,58.88,,,,,Single-ply,SBD,M
Boys,67.13,1,Michael Robason,Frisco Wakeland,60.51,217.72,92.99,172.37,483.08,Single-ply,SBD,M
Boys,74.84,2,Tommie Martinez,Midlothian,67.22,185.97,117.93,179.17,483.08,Single-ply,SBD,M
Boys,67.13,3,Rueben Gonzalez,Ennis,67.13,165.56,102.06,197.31,464.93,Single-ply,SBD,M
Boys,67.13,4,Stormy Box,Pilot Point,66.95,174.63,102.06,181.44,458.13,Single-ply,SBD,M
Boys,74.84,5,Jayton Manington,Burleson Centennial,67.31,163.29,104.33,172.37,439.98,Single-ply,SBD,M
Boys,67.13,6,Michael Royals,Burleson,66.22,167.83,81.65,176.9,426.38,Single-ply,SBD,M
Boys,67.13,7,Alwin Crawford,Northwest Nelson,63.78,158.76,92.99,163.29,415.04,Single-ply,SBD,M
Boys,74.84,8,Berick McBath,Everman,67.31,145.15,86.18,176.9,408.23,Single-ply,SBD,M
Boys,67.13,9,Mike Owenr,Milford,62.6,145.15,86.18,156.49,387.82,Single-ply,SBD,M
Boys,67.13,10,Chance Holveck,Burleson,66.22,140.61,79.38,151.95,371.95,Single-ply,SBD,M
Boys,67.13,11,Mark Vasquez,Ennis,66.22,124.74,79.38,147.42,351.53,Single-ply,SBD,M
Boys,67.13,12,Kevin Ma,Burleson,65.77,127.01,74.84,147.42,349.27,Single-ply,SBD,M
Boys,67.13,13,John Tillinghast,Burleson,64.41,129.27,77.11,136.08,342.46,Single-ply,SBD,M
Boys,67.13,14,Adrian Ojeda,Milford,66.77,131.54,72.57,131.54,335.66,Single-ply,SBD,M
Boys,67.13,15,Emmanuel England,Lancaster,63.59,113.4,74.84,145.15,333.39,Single-ply,SBD,M
Boys,67.13,DQ,Brennan Coulter,Burleson,64.41,83.91,,,,Single-ply,SBD,M
Boys,74.84,1,Kyle Goss,Cedar Hill,70.67,208.65,111.13,222.26,542.04,Single-ply,SBD,M
Boys,74.84,2,Ben Adams,Cedar Hill,74.66,185.97,127.01,222.26,535.24,Single-ply,SBD,M
Boys,74.84,3,Mylik Greer,Everman,74.84,190.51,113.4,204.12,508.02,Single-ply,SBD,M
Boys,82.1,4,Jarrett Wilson,Pilot Point,75.02,199.58,140.61,158.76,498.95,Single-ply,SBD,M
Boys,82.1,5,Collin Radford,Joshua,75.02,174.63,122.47,199.58,496.68,Single-ply,SBD,M
Boys,74.84,6,Jason Washburn,Ennis,68.86,174.63,104.33,197.31,476.27,Single-ply,SBD,M
Boys,74.84,7,Taylor Luce,Godley,68.67,183.7,99.79,183.7,467.2,Single-ply,SBD,M
Boys,74.84,8,Connor Malone,Midlothian,69.22,174.63,111.13,176.9,462.66,Single-ply,SBD,M
Boys,74.84,9,Nelson Gongora,Everman,68.95,165.56,86.18,170.1,421.84,Single-ply,SBD,M
Boys,74.84,10,Trey Willis,Oakridge School,72.48,145.15,92.99,176.9,415.04,Single-ply,SBD,M
Boys,74.84,11,Blake Echols,Oakridge School,67.68,149.69,90.72,172.37,412.77,Single-ply,SBD,M
Boys,74.84,12,Cory Jones,Crowley,70.31,154.22,83.91,158.76,396.89,Single-ply,SBD,M
Boys,74.84,13,Torrie Whetrell,Everman,70.76,131.54,72.57,149.69,353.8,Single-ply,SBD,M
Boys,74.84,DQ,Michael Burroughs,Lancaster,73.94,,,,,Single-ply,SBD,M
Boys,89.81,1,Blake Dunham,Burleson Centennial,82.19,229.06,133.81,258.55,621.42,Single-ply,SBD,M
Boys,82.1,2,Chanse Alexander,Oakridge School,76.2,219.99,102.06,215.46,537.51,Single-ply,SBD,M
Boys,82.1,3,Michael Tsapos,Northwest Nelson,79.38,226.8,115.67,181.44,523.9,Single-ply,SBD,M
Boys,82.1,4,Andrew Canes,Burleson,81.65,201.85,106.59,206.38,514.83,Single-ply,SBD,M
Boys,89.81,5,Tim Hutchins,Cedar Hill,82.33,192.78,102.06,215.46,510.29,Single-ply,SBD,M
Boys,89.81,6,Sydney Lester,Crowley,82.33,181.44,131.54,190.51,503.49,Single-ply,SBD,M
Boys,89.81,7,Darrius Green,Cedar Hill,82.33,195.04,92.99,206.38,494.42,Single-ply,SBD,M
Boys,89.81,8,Nathan Ferguson,Burleson Centennial,82.19,174.63,106.59,199.58,480.81,Single-ply,SBD,M
Boys,82.1,9,Travis Oyala-Johnson,Arlington Seguin,76.02,197.31,88.45,176.9,462.66,Single-ply,SBD,M
Boys,82.1,10,Cardrea Cauley,Everman,80.83,185.97,102.06,170.1,458.13,Single-ply,SBD,M
Boys,82.1,11,Tanner Teske,Burleson,81.65,151.95,108.86,197.31,458.13,Single-ply,SBD,M
Boys,82.1,12,Andrew Lee,North Crowley,81.01,181.44,106.59,167.83,455.86,Single-ply,SBD,M
Boys,82.1,13,Darrein Davis,Everman,78.38,154.22,92.99,192.78,439.98,Single-ply,SBD,M
Boys,82.1,14,Alexeev Dismuke,Lancaster,75.84,165.56,92.99,165.56,424.11,Single-ply,SBD,M
Boys,82.1,15,Darrell Pinkston,Everman,79.47,163.29,88.45,158.76,410.5,Single-ply,SBD,M
Boys,82.1,16,Issac Salazer,Arlington Seguin,75.75,158.76,81.65,167.83,408.23,Single-ply,SBD,M
Boys,82.1,17,Jordan Johnson,Arlington Seguin,75.93,161.03,81.65,163.29,405.97,Single-ply,SBD,M
Boys,89.81,18,Robin Agir,Oakridge School,82.19,158.76,79.38,167.83,405.97,Single-ply,SBD,M
Boys,82.1,19,Gage Snider,Burleson,81.65,142.88,88.45,145.15,376.48,Single-ply,SBD,M
Boys,82.1,20,Austin Schaffer,Oakridge School,79.29,136.08,72.57,165.56,374.21,Single-ply,SBD,M
Boys,82.1,21,Khaemon Edwards,Everman,78.24,124.74,92.99,142.88,360.61,Single-ply,SBD,M
Boys,82.1,22,Andrew White,Oakridge School,77.11,113.4,65.77,138.35,317.51,Single-ply,SBD,M
Boys,82.1,DQ,Alex Blessing,Lewisville Flower Mound,76.11,,,,,Single-ply,SBD,M
Boys,99.79,1,David Portillo,Carrollton Turner,90.04,249.48,154.22,206.38,610.08,Single-ply,SBD,M
Boys,89.81,2,Keith Ngondo,Little Elm,88.81,249.48,113.4,240.4,603.28,Single-ply,SBD,M
Boys,99.79,3,Kendall Adams,Cedar Hill,90.04,224.53,120.2,235.87,580.6,Single-ply,SBD,M
Boys,89.81,4,Joel Kabongo,Northwest Nelson,84.37,208.65,113.4,249.48,571.53,Single-ply,SBD,M
Boys,89.81,5,Kyle Ko,Lewisville Marcus,89.36,231.33,136.08,199.58,566.99,Single-ply,SBD,M
Boys,89.81,6,Zach Fusilier,Everman,85.73,240.4,120.2,206.38,566.99,Single-ply,SBD,M
Boys,89.81,7,Chase Wingo,Midlothian,87.54,215.46,136.08,213.19,564.72,Single-ply,SBD,M
Boys,89.81,8,Noah Simmons,Everman,86.09,233.6,120.2,197.31,551.11,Single-ply,SBD,M
Boys,89.81,9,Mason Ferguson,Lewisville Flower Mound,88.54,206.38,122.47,208.65,537.51,Single-ply,SBD,M
Boys,99.79,10,Kelton Moore,Arlington Seguin,89.99,183.7,111.13,238.14,532.97,Single-ply,SBD,M
Boys,89.81,11,Jordan Ortiz,Northwest Nelson,82.64,219.99,115.67,195.04,530.7,Single-ply,SBD,M
Boys,89.81,12,Kevin Kanzaki,Argyle,89.27,208.65,117.93,199.58,526.17,Single-ply,SBD,M
Boys,89.81,13,Johnathan Ibanez,Everman,86.82,206.38,122.47,190.51,519.36,Single-ply,SBD,M
Boys,89.81,14,Jalon Shade,Cedar Hill,84.64,170.1,131.54,206.38,508.02,Single-ply,SBD,M
Boys,89.81,15,Nick Delgado,Burleson,89.81,181.44,122.47,199.58,503.49,Single-ply,SBD,M
Boys,89.81,16,Gabriel Harrison,Lancaster,86.64,192.78,124.74,181.44,498.95,Single-ply,SBD,M
Boys,89.81,17,John Carter,Burleson,89.36,181.44,117.93,195.04,494.42,Single-ply,SBD,M
Boys,89.81,18,Cody Russey,Burleson,89.36,183.7,104.33,204.12,492.15,Single-ply,SBD,M
Boys,89.81,19,Hayden Sanders,Northwest Nelson,86.41,172.37,136.08,179.17,487.61,Single-ply,SBD,M
Boys,99.79,20,Dalton Scott,Pilot Point,89.99,199.58,113.4,174.63,487.61,Single-ply,SBD,M
Boys,89.81,21,Kris Smith,Burleson Centennial,88.36,174.63,113.4,197.31,485.34,Single-ply,SBD,M
Boys,89.81,22,Barron Wortham,Oakridge School,88.72,183.7,79.38,208.65,471.74,Single-ply,SBD,M
Boys,89.81,23,Nick Tran,Oakridge School,88.18,102.06,52.16,131.54,285.76,Single-ply,SBD,M
Boys,89.81,DQ,Kyle Griffith,Northwest Nelson,88.9,176.9,108.86,,,Single-ply,SBD,M
Boys,99.79,1,Josh Whitworth,Joshua,99.34,226.8,154.22,233.6,614.62,Single-ply,SBD,M
Boys,109.77,2,Landon Hallmark,Little Elm,99.88,231.33,108.86,233.6,573.79,Single-ply,SBD,M
Boys,109.77,3,Mike McMillan,Lewisville Marcus,99.97,204.12,138.35,229.06,571.53,Single-ply,SBD,M
Boys,99.79,4,Joel Dunn,Royse City,91.53,249.48,133.81,185.97,569.26,Single-ply,SBD,M
Boys,99.79,5,Sid Irwin,Burleson Centennial,93.08,201.85,129.27,222.26,553.38,Single-ply,SBD,M
Boys,99.79,6,Caleb Shaw,Midlothian,90.63,204.12,124.74,215.46,544.31,Single-ply,SBD,M
Boys,99.79,7,Dairon Houston,Cedar Hill,98.25,226.8,113.4,201.85,542.04,Single-ply,SBD,M
Boys,99.79,8,Kelly Rhodes,Burleson,98.88,208.65,122.47,204.12,535.24,Single-ply,SBD,M
Boys,99.79,9,Christian Hernandez,Everman,99.61,204.12,129.27,201.85,535.24,Single-ply,SBD,M
Boys,99.79,10,Daniel Ambriz,Everman,99.7,206.38,115.67,190.51,512.56,Single-ply,SBD,M
Boys,99.79,11,Vincent Ajaegbu,North Crowley,93.89,199.58,115.67,195.04,510.29,Single-ply,SBD,M
Boys,99.79,12,Andrew Young,Joshua,94.26,199.58,115.67,192.78,508.02,Single-ply,SBD,M
Boys,99.79,13,Grant Lanza,Northwest Nelson,97.89,190.51,127.01,190.51,508.02,Single-ply,SBD,M
Boys,99.79,14,Josh Brown,North Crowley,96.52,188.24,92.99,172.37,453.59,Single-ply,SBD,M
Boys,99.79,15,Daniel McCarley,Burleson,97.52,151.95,90.72,167.83,410.5,Single-ply,SBD,M
Boys,99.79,16,Noor Wafayee,Oakridge School,92.76,117.93,95.25,174.63,387.82,Single-ply,SBD,M
Boys,99.79,17,Austin Gonzales,Alvarado,92.53,151.95,86.18,145.15,383.29,Single-ply,SBD,M
Boys,99.79,18,Carlos Venagas,Milford,96.52,124.74,77.11,147.42,349.27,Single-ply,SBD,M
Boys,109.77,DQ,Brian Taylor,Lancaster,99.97,,,,,Single-ply,SBD,M
Boys,109.77,1,Gerald Hatch,Burleson,108.86,258.55,154.22,242.67,655.44,Single-ply,SBD,M
Boys,109.77,2,Cruz Marquez,Joshua,106.5,258.55,142.88,249.48,650.91,Single-ply,SBD,M
Boys,109.77,3,Seth White,Alvarado,109.68,263.08,136.08,235.87,635.03,Single-ply,SBD,M
Boys,109.77,4,Andrew Hughes,Royse City,106.87,229.06,183.7,190.51,603.28,Single-ply,SBD,M
Boys,109.77,5,Xavier Washington,Cedar Hill,106.32,210.92,151.95,231.33,594.21,Single-ply,SBD,M
Boys,109.77,6,LaRance Shaw,Crowley,102.87,238.14,136.08,215.46,589.67,Single-ply,SBD,M
Boys,109.77,7,Skyler Reneau,Northwest Nelson,105.87,226.8,124.74,226.8,578.33,Single-ply,SBD,M
Boys,109.77,8,Fritz Hull,Prosper,104.51,219.99,142.88,204.12,566.99,Single-ply,SBD,M
Boys,109.77,9,Nathaniel Hoover,Burleson,105.23,231.33,124.74,208.65,564.72,Single-ply,SBD,M
Boys,109.77,10,Omar Alonso,Prosper,104.33,226.8,142.88,192.78,562.45,Single-ply,SBD,M
Boys,109.77,11,Hayden Mahone,Ennis,106.41,226.8,120.2,210.92,557.92,Single-ply,SBD,M
Boys,109.77,12,Julian Shade,Cedar Hill,101.7,222.26,122.47,208.65,553.38,Single-ply,SBD,M
Boys,109.77,13,Quionte Jones,Cedar Hill,104.96,226.8,117.93,192.78,537.51,Single-ply,SBD,M
Boys,109.77,14,Kevin Salas,Prosper,104.33,192.78,156.49,181.44,530.7,Single-ply,SBD,M
Boys,109.77,15,Bamba Diop,Arlington Seguin,102.42,204.12,95.25,195.04,494.42,Single-ply,SBD,M
Boys,109.77,16,Mark Martinez,Arlington Seguin,103.06,192.78,95.25,204.12,492.15,Single-ply,SBD,M
Boys,109.77,17,Thai Ly,Crowley,103.51,170.1,108.86,167.83,446.79,Single-ply,SBD,M
Boys,109.77,18,George Roam,Everman,103.96,113.4,90.72,158.76,362.87,Single-ply,SBD,M
Boys,109.77,DQ,Tyler Carver,Frisco Wakeland,100.79,249.48,,231.33,,Single-ply,SBD,M
Boys,109.77,DQ,Shannon Simpson,Lancaster,109.59,244.94,111.13,,,Single-ply,SBD,M
Boys,124.74,DQ,Ben Liberto,Lewisville Flower Mound,109.86,,,,,Single-ply,SBD,M
Boys,109.77,DQ,Tc Quintana,Burleson Centennial,105.23,208.65,,219.99,,Single-ply,SBD,M
Boys,124.74,1,Ivan Garciduenas,Burleson Centennial,123.56,272.16,165.56,238.14,675.85,Single-ply,SBD,M
Boys,124.74+,2,Jaleil Davis,Cedar Hill,124.96,269.89,170.1,226.8,666.78,Single-ply,SBD,M
Boys,124.74,3,Colton Hostetler,Burleson Centennial,122.56,256.28,154.22,249.48,659.98,Single-ply,SBD,M
Boys,124.74,4,James Lockhart,Ennis,115.03,249.48,147.42,254.01,650.91,Single-ply,SBD,M
Boys,124.74,5,Korliss Johnson,Cedar Hill,115.58,254.01,129.27,256.28,639.57,Single-ply,SBD,M
Boys,124.74,6,Anthony Zapata,Everman,120.29,260.82,138.35,240.4,639.57,Single-ply,SBD,M
Boys,124.74,7,Geno Whitt,Burleson Centennial,123.83,263.08,131.54,206.38,601.01,Single-ply,SBD,M
Boys,124.74,8,Isaiah Suazo,Burleson Centennial,115.76,238.14,120.2,213.19,571.53,Single-ply,SBD,M
Boys,124.74,9,Jeremi Robinson,Lewisville Flower Mound,117.93,222.26,154.22,195.04,571.53,Single-ply,SBD,M
Boys,124.74,10,Max Driscoll,Godley,116.57,204.12,149.69,188.24,542.04,Single-ply,SBD,M
Boys,124.74,11,Norlin Anderson,North Crowley,114.31,195.04,113.4,226.8,535.24,Single-ply,SBD,M
Boys,124.74,12,Tyler Gallegos,Lewisville Flower Mound,119.66,195.04,140.61,185.97,521.63,Single-ply,SBD,M
Boys,124.74,13,Connor O'Neil,Northwest Nelson,113.17,185.97,115.67,204.12,505.76,Single-ply,SBD,M
Boys,124.74,14,Mason Reedom,Arlington Seguin,119.02,201.85,95.25,204.12,501.22,Single-ply,SBD,M
Boys,124.74,15,Jermaine Fields,Arlington Seguin,123.65,185.97,120.2,192.78,498.95,Single-ply,SBD,M
Boys,124.74,16,Michael Diaz,Crowley,118.21,176.9,83.91,181.44,442.25,Single-ply,SBD,M
Boys,124.74,17,Asante Slater,Everman,118.66,147.42,97.52,181.44,426.38,Single-ply,SBD,M
Boys,124.74,18,Elias Williams,Burleson,118.39,149.69,86.18,161.03,396.89,Single-ply,SBD,M
Boys,124.74,DQ,Josh Collins,Burleson,124.74,240.4,,,,Single-ply,SBD,M
Boys,124.74,DQ,Ryan Craven,Arlington Seguin,117.48,172.37,81.65,,,Single-ply,SBD,M
Boys,124.74,DQ,Jordan Augustus,Arlington Seguin,115.12,204.12,99.79,,,Single-ply,SBD,M
Boys,124.74,DQ,Eric Booker,Everman,118.02,170.1,106.59,,,Single-ply,SBD,M
Boys,124.74,DQ,Markeist Scott,Lancaster,123.47,,,,,Single-ply,SBD,M
Boys,124.74,DQ,Ahmon Matas,Prosper,114.31,,,,,Single-ply,SBD,M
Boys,124.74+,1,Dominic Cabrera,Frisco Wakeland,134.26,306.17,147.42,244.94,698.53,Single-ply,SBD,M
Boys,124.74+,2,Reggie Williams,Burleson Centennial,133.36,265.35,129.27,274.42,669.05,Single-ply,SBD,M
Boys,124.74+,3,Montrel Newson,Ennis,174.18,294.84,140.61,226.8,662.24,Single-ply,SBD,M
Boys,124.74+,4,Caleb Riley,Joshua,136.98,263.08,154.22,226.8,644.1,Single-ply,SBD,M
Boys,124.74+,5,Trey Marks,Little Elm,137.98,265.35,142.88,233.6,641.83,Single-ply,SBD,M
Boys,124.74+,6,Joey Stephens,Everman,139.53,249.48,127.01,204.12,580.6,Single-ply,SBD,M
Boys,124.74+,7,Anders Huizenga,Northwest Nelson,138.98,192.78,154.22,231.33,578.33,Single-ply,SBD,M
Boys,124.74+,8,Logan Russell,Lewisville Flower Mound,139.53,244.94,142.88,183.7,571.53,Single-ply,SBD,M
Boys,124.74+,9,Rig Benavidez,Pilot Point,146.96,226.8,156.49,174.63,557.92,Single-ply,SBD,M
Boys,124.74+,10,Brice Tekell,Ennis,128.55,224.53,131.54,199.58,555.65,Single-ply,SBD,M
Boys,124.74+,11,Brandon Cross,Alvarado,132.9,195.04,113.4,167.83,476.27,Single-ply,SBD,M
Boys,124.74+,12,Justice Powers,Cedar Hill,136.35,156.49,95.25,199.58,451.32,Single-ply,SBD,M
Boys,124.74+,13,Raiquan Bennett,Lancaster,131.09,161.03,106.59,142.88,410.5,Single-ply,SBD,M
Boys,124.74+,14,Rae Winters,Burleson,131.54,151.95,83.91,158.76,394.63,Single-ply,SBD,M
Boys,124.74+,DQ,Chase Foster,Crowley,126.64,204.12,124.74,,,Single-ply,SBD,M
Boys,124.74+,DQ,John Witt,Everman,132.99,226.8,,,,Single-ply,SBD,M
Boys,124.74+,DQ,Malik Martin,Lewisville Flower Mound,170.55,,,,,Single-ply,SBD,M
Boys,124.74+,DQ,Dylan Russell,Lewisville Flower Mound,133.99,208.65,,,,Single-ply,SBD,M
Boys,124.74+,DQ,Duke Smith,Northwest Nelson,135.35,,111.13,206.38,,Single-ply,SBD,M
