Division,WeightClassKg,Place,Name,Team,BodyweightKg,Best3SquatKg,Best3BenchKg,Best3DeadliftKg,TotalKg,Equipment,Event,Sex
Boys,51.71,1,Kyler Snell,Grapeland,50.8,90.72,54.43,99.79,244.94,Single-ply,SBD,M
Boys,51.71,2,Jacob Brown,Livingston,49.9,74.84,36.29,106.59,217.72,Single-ply,SBD,M
Boys,51.71,3,Quivion Horton,Livingston,46.27,74.84,43.09,83.91,201.85,Single-ply,SBD,M
Boys,51.71,DQ,Carter Allen,Elkhart,51.62,99.79,52.16,,,Single-ply,SBD,M
Boys,55.79,1,Michael Hill,Normangee,55.79,136.08,88.45,167.83,392.36,Single-ply,SBD,M
Boys,55.79,2,Ryan Hammack,Elkhart,55.66,117.93,70.31,142.88,331.12,Single-ply,SBD,M
Boys,55.79,3,Chris Bradley,Mexia,53.07,102.06,52.16,124.74,278.96,Single-ply,SBD,M
Boys,55.79,4,Ariel Pimienta,Mexia,55.34,102.06,52.16,106.59,260.82,Single-ply,SBD,M
Boys,55.79,5,Jeran Schaedler,Centerville,53.52,79.38,61.23,99.79,240.4,Single-ply,SBD,M
Boys,55.79,DQ,Carson Sifford,Teague,55.79,108.86,,,,Single-ply,SBD,M
Boys,59.87,1,Zachary Kreg,Livingston,59.87,183.7,97.52,165.56,446.79,Single-ply,SBD,M
Boys,59.87,2,Haydon Isbell,Teague,58.97,158.76,86.18,158.76,403.7,Single-ply,SBD,M
Boys,59.87,3,Cannon Churchman,Palestine Westwood,59.87,163.29,83.91,136.08,383.29,Single-ply,SBD,M
Boys,59.87,4,Hunter Dudley,Normangee,57.61,136.08,88.45,136.08,360.61,Single-ply,SBD,M
Boys,59.87,5,Zander Williams,Elkhart,59.65,117.93,65.77,129.27,312.98,Single-ply,SBD,M
Boys,59.87,6,Mark Hanna,Grapeland,57.15,122.47,61.23,124.74,308.44,Single-ply,SBD,M
Boys,59.87,7,Brady Minter,Centerville,58.97,90.72,70.31,102.06,263.08,Single-ply,SBD,M
Boys,59.87,8,Colton LaPrairie,Elkhart,59.01,106.59,45.36,111.13,263.08,Single-ply,SBD,M
Boys,67.13,1,Justin Legg,Livingston,66.68,192.78,97.52,192.78,483.08,Single-ply,SBD,M
Boys,67.13,2,JJ Beckfield,Frankston,64.41,174.63,88.45,179.17,442.25,Single-ply,SBD,M
Boys,67.13,3,Noble Giles,Frankston,60.78,140.61,92.99,172.37,405.97,Single-ply,SBD,M
Boys,67.13,4,Eli Parker,Centerville,63.05,136.08,92.99,163.29,392.36,Single-ply,SBD,M
Boys,67.13,5,Christian Clark,Mexia,62.14,136.08,86.18,158.76,381.02,Single-ply,SBD,M
Boys,67.13,6,Chris Lawson,Rusk,61.23,149.69,81.65,147.42,378.75,Single-ply,SBD,M
Boys,67.13,7,Brent Hubbell,Centerville,63.96,136.08,70.31,136.08,342.46,Single-ply,SBD,M
Boys,67.13,8,Daniel Villareal,Centerville,61.23,113.4,77.11,136.08,326.59,Single-ply,SBD,M
Boys,67.13,9,Angel Garcia,Mexia,63.05,113.4,70.31,127.01,310.71,Single-ply,SBD,M
Boys,67.13,10,John Davis,Elkhart,64.41,108.86,61.23,133.81,303.91,Single-ply,SBD,M
Boys,67.13,11,Coleman Gilbreath,Palestine Westwood,62.6,90.72,49.9,102.06,242.67,Single-ply,SBD,M
Boys,67.13,DQ,Scotty Eldridge,Elkhart,63.41,124.74,,,,Single-ply,SBD,M
Boys,74.84,1,Isaak Sandoval,Mexia,71.67,181.44,90.72,167.83,439.98,Single-ply,SBD,M
Boys,74.84,2,Fabian Marquez,Elkhart,74.39,161.03,79.38,161.03,401.43,Single-ply,SBD,M
Boys,74.84,3,Jacob Shuler,Normangee,72.57,142.88,90.72,161.03,394.63,Single-ply,SBD,M
Boys,74.84,4,Aaron Johnson,Mexia,74.39,142.88,77.11,165.56,385.55,Single-ply,SBD,M
Boys,74.84,5,Tanner Dannahoe,Normangee,68.49,115.67,77.11,165.56,358.34,Single-ply,SBD,M
Boys,74.84,6,Richard Brooks,Livingston,73.48,138.35,70.31,147.42,356.07,Single-ply,SBD,M
Boys,74.84,7,James Riley,Malakoff Cross Roads,72.12,111.13,68.04,142.88,322.05,Single-ply,SBD,M
Boys,74.84,DQ,Gavin French,Grapeland,73.03,167.83,,,,Single-ply,SBD,M
Boys,74.84,DQ,Coy Elton,Frankston,68.04,174.63,,,,Single-ply,SBD,M
Boys,82.1,1,Byron Johnson #1,Rusk,80.29,199.58,117.93,195.04,512.56,Single-ply,SBD,M
Boys,82.1,2,Duke Atwell,Livingston,75.75,195.04,104.33,185.97,485.34,Single-ply,SBD,M
Boys,82.1,3,Justin Bowen,Centerville,81.19,174.63,124.74,183.7,483.08,Single-ply,SBD,M
Boys,82.1,4,Sean Rogers,Rusk,79.83,172.37,113.4,183.7,469.47,Single-ply,SBD,M
Boys,82.1,5,Kobi Lee,Normangee,81.19,158.76,102.06,192.78,453.59,Single-ply,SBD,M
Boys,82.1,6,Gage Gosse,Frankston,76.66,156.49,104.33,183.7,444.52,Single-ply,SBD,M
Boys,82.1,7,Johnathan Hernandez,Trinidad,78.02,136.08,104.33,161.03,401.43,Single-ply,SBD,M
Boys,82.1,8,Tremelle Rhodes,Palestine Westwood,75.75,133.81,74.84,142.88,351.53,Single-ply,SBD,M
Boys,82.1,9,Zach Johnson,Elkhart,76.97,111.13,74.84,127.01,312.98,Single-ply,SBD,M
Boys,82.1,10,Quade Leach,Palestine Westwood,76.2,104.33,63.5,136.08,303.91,Single-ply,SBD,M
Boys,82.1,DQ,Blaine Hendry,Malakoff Cross Roads,80.74,154.22,,,,Single-ply,SBD,M
Boys,89.81,1,Ryan Lindsay,Elkhart,85.59,244.94,142.88,265.35,653.17,Single-ply,SBD,M
Boys,89.81,2,Jackson Rogers,Rusk,89.81,188.24,102.06,172.37,462.66,Single-ply,SBD,M
Boys,89.81,3,Dawson Scott,Mexia,88,151.95,86.18,167.83,405.97,Single-ply,SBD,M
Boys,89.81,4,Hunter McDonald,Malakoff Cross Roads,85.28,142.88,83.91,167.83,394.63,Single-ply,SBD,M
Boys,89.81,5,Jaden Crutcher,Palestine Westwood,88.9,129.27,106.59,156.49,392.36,Single-ply,SBD,M
Boys,89.81,6,Jakob Brown,Palestine Westwood,89.81,142.88,90.72,142.88,376.48,Single-ply,SBD,M
Boys,89.81,7,Jt Herndon,Palestine Westwood,83.01,147.42,70.31,147.42,365.14,Single-ply,SBD,M
Boys,89.81,8,Kamran Savage,Palestine Westwood,83.01,115.67,65.77,133.81,315.25,Single-ply,SBD,M
Boys,89.81,9,Tylar Autery,Palestine Westwood,87.54,113.4,58.97,92.99,265.35,Single-ply,SBD,M
Boys,89.81,DQ,Kaden Anderson,Trinidad,89.36,129.27,,,,Single-ply,SBD,M
Boys,99.79,1,Mikey Agan,Elkhart,99.7,226.8,138.35,188.24,553.38,Single-ply,SBD,M
Boys,99.79,2,Kaden Mattingly,Malakoff Cross Roads,94.8,185.97,113.4,190.51,489.88,Single-ply,SBD,M
Boys,99.79,3,Bryan Luna,Mexia,97.07,183.7,113.4,190.51,487.61,Single-ply,SBD,M
Boys,99.79,4,Preston Turner,Malakoff Cross Roads,99.79,170.1,108.86,163.29,442.25,Single-ply,SBD,M
Boys,99.79,5,Raul Cazares,Elkhart,99.7,147.42,88.45,167.83,403.7,Single-ply,SBD,M
Boys,99.79,6,Collin Edwards,Elkhart,96.07,138.35,83.91,158.76,381.02,Single-ply,SBD,M
Boys,99.79,7,Isaiah Oldham,Livingston,96.62,151.95,61.23,154.22,367.41,Single-ply,SBD,M
Boys,99.79,DQ,Jermaryon Lane,Palestine Westwood,99.34,,,,,Single-ply,SBD,M
Boys,109.77,1,Nick Acker,Rusk,106.14,235.87,124.74,210.92,571.53,Single-ply,SBD,M
Boys,109.77,2,Konnor McNeil,Mexia,103.42,215.46,131.54,206.38,553.38,Single-ply,SBD,M
Boys,109.77,3,Lane Dreher,Grapeland,109.77,183.7,102.06,170.1,455.86,Single-ply,SBD,M
Boys,109.77,4,Brent Garcia,Trinidad,106.14,147.42,83.91,142.88,374.21,Single-ply,SBD,M
Boys,109.77,DQ,Devin Preston,Malakoff Cross Roads,102.51,158.76,,,,Single-ply,SBD,M
Boys,124.74,1,Korey Grisham,Centerville,118.84,265.35,156.49,247.21,669.05,Single-ply,SBD,M
Boys,124.74,2,Weldon Brooks,Elkhart,123.79,226.8,142.88,204.12,573.79,Single-ply,SBD,M
Boys,124.74,3,Terry Reel,Teague,121.11,183.7,111.13,172.37,467.2,Single-ply,SBD,M
Boys,124.74,4,Trevor Marquez,Malakoff Cross Roads,111.13,188.24,102.06,170.1,460.4,Single-ply,SBD,M
Boys,124.74,5,Jaimie Escobedo,Mexia,122.02,183.7,102.06,174.63,460.4,Single-ply,SBD,M
Boys,124.74,6,Bryce Sweeny,Elkhart,115.21,136.08,70.31,163.29,369.68,Single-ply,SBD,M
Boys,124.74,DQ,Jason DeCluette,Grapeland,124.28,136.08,,,,Single-ply,SBD,M
Boys,124.74+,1,Jermaine Lewis,Rusk,130.18,263.08,138.35,254.01,655.44,Single-ply,SBD,M
Boys,124.74+,2,Garrett Blaylock,Rusk,132.45,233.6,120.2,244.94,598.74,Single-ply,SBD,M
Boys,124.74+,3,Chris Kortes,Trinidad,163.75,265.35,108.86,222.26,596.47,Single-ply,SBD,M
Boys,124.74+,4,Cameron Morris,Livingston,140.61,192.78,142.88,183.7,519.36,Single-ply,SBD,M
Boys,124.74+,5,Jacob Kyle,Mexia,141.07,165.56,113.4,183.7,462.66,Single-ply,SBD,M
Boys,124.74+,6,Dillon Brent,Centerville,130.63,142.88,124.74,185.97,453.59,Single-ply,SBD,M
Boys,124.74+,DQ,Orlando Vasquez,Livingston,141.52,188.24,,,,Single-ply,SBD,M
