Division,WeightClassKg,Place,Name,Team,BodyweightKg,Best3SquatKg,Best3BenchKg,Best3DeadliftKg,TotalKg,Equipment,Event,Sex
Boys,51.71,1,Adrian Herrera,Yoakum,51.44,154.22,77.11,147.42,378.75,Single-ply,SBD,M
Boys,51.71,2,Benny Lara,Victoria West,51.3,142.88,68.04,138.35,349.27,Single-ply,SBD,M
Boys,51.71,3,Aspen Whitstine,Port Lavaca Calhoun,51.35,124.74,70.31,127.01,322.05,Single-ply,SBD,M
Boys,51.71,4,Christian Gutierrez,Runge,49.99,90.72,43.09,83.91,217.72,Single-ply,SBD,M
Boys,55.79,5,Dylan Tarver,Edna,51.94,54.43,40.82,102.06,197.31,Single-ply,SBD,M
Boys,59.87,1,Moc Moo,Port Lavaca Calhoun,55.84,176.9,106.59,167.83,451.32,Single-ply,SBD,M
Boys,55.79,2,Lamar Turner,Edna,55.61,138.35,74.84,165.56,378.75,Single-ply,SBD,M
Boys,55.79,3,Cody Faust,Yoakum,54.39,124.74,83.91,140.61,349.27,Single-ply,SBD,M
Boys,55.79,4,Christian Thompson,Bloomington,52.03,115.67,61.23,124.74,301.64,Single-ply,SBD,M
Boys,55.79,5,Zachary Baker,Hallettsville,55.7,115.67,56.7,124.74,297.1,Single-ply,SBD,M
Boys,55.79,DQ,Humberto Cabrera,Bloomington,55.79,,,,,Single-ply,SBD,M
Boys,59.87,DQ,Martin Rocha,Bloomington,55.97,,,,,Single-ply,SBD,M
Boys,67.13,1,Jarrett Burford,Port Lavaca Calhoun,59.96,217.72,127.01,208.65,553.38,Single-ply,SBD,M
Boys,59.87,2,Alex Navas-Gonzales,Hallettsville,58.24,156.49,106.59,154.22,417.3,Single-ply,SBD,M
Boys,59.87,3,Tyrese Martinez,Stockdale,56.93,138.35,86.18,170.1,394.63,Single-ply,SBD,M
Boys,67.13,4,Denver Evans,Yoakum,60.06,138.35,77.11,149.69,365.14,Single-ply,SBD,M
Boys,59.87,5,Diego Martinez,Stockdale,59.6,120.2,79.38,131.54,331.12,Single-ply,SBD,M
Boys,59.87,6,Dakota Moreno,Vanderbilt Industrial,59.51,120.2,70.31,136.08,326.59,Single-ply,SBD,M
Boys,59.87,7,Gabriel García,Yoakum,57.92,115.67,74.84,129.27,319.78,Single-ply,SBD,M
Boys,59.87,8,Drew Powell,Hallettsville,59.65,115.67,79.38,120.2,315.25,Single-ply,SBD,M
Boys,59.87,9,Modesto Macias,Edna,56.11,81.65,54.43,99.79,235.87,Single-ply,SBD,M
Boys,67.13,1,Joseph Garza,Port Lavaca Calhoun,66.09,204.12,97.52,199.58,501.22,Single-ply,SBD,M
Boys,67.13,2,Beau Burns,Victoria West,66.72,192.78,108.86,192.78,494.42,Single-ply,SBD,M
Boys,74.84,3,Jose Cumpean,Port Lavaca Calhoun,67.36,181.44,115.67,176.9,474,Single-ply,SBD,M
Boys,74.84,4,Eric Callaway,Victoria West,67.36,181.44,106.59,174.63,462.66,Single-ply,SBD,M
Boys,67.13,5,Abraham Ruiz,Victoria East,66.5,174.63,108.86,156.49,439.98,Single-ply,SBD,M
Boys,67.13,6,Michael Chomout,Yoakum,64.36,161.03,102.06,163.29,426.38,Single-ply,SBD,M
Boys,67.13,7,Samuel Bonorden,Victoria St. Joseph,65.5,167.83,83.91,170.1,421.84,Single-ply,SBD,M
Boys,67.13,8,Esai Gonzales,Port Lavaca Calhoun,65.91,161.03,97.52,158.76,417.3,Single-ply,SBD,M
Boys,67.13,9,Erick Cruz,Victoria St. Joseph,65.95,158.76,102.06,151.95,412.77,Single-ply,SBD,M
Boys,67.13,10,Marcos Almeida,Stockdale,65.45,142.88,88.45,147.42,378.75,Single-ply,SBD,M
Boys,67.13,11,Chris Eastwood,Goliad,63.23,133.81,74.84,158.76,367.41,Single-ply,SBD,M
Boys,67.13,12,Dalton Dieringer,Hallettsville,66.36,142.88,81.65,133.81,358.34,Single-ply,SBD,M
Boys,67.13,13,Aaron Hill,Victoria West,66.13,124.74,86.18,142.88,353.8,Single-ply,SBD,M
Boys,67.13,14,DJ Taylor,Goliad,63.87,127.01,77.11,138.35,342.46,Single-ply,SBD,M
Boys,67.13,15,Zane Diaz,Stockdale,62.6,111.13,56.7,111.13,278.96,Single-ply,SBD,M
Boys,67.13,16,Gareson Conkel,Stockdale,66,97.52,49.9,102.06,249.48,Single-ply,SBD,M
Boys,67.13,DQ,Michael VanHouton,Edna,67.13,,,,,Single-ply,SBD,M
Boys,67.13,DQ,Eli Ramirez,Runge,67.13,,,,,Single-ply,SBD,M
Boys,67.13,DQ,Kobi Hernandez,Runge,67.13,,,,,Single-ply,SBD,M
Boys,67.13,DQ,Daniel Martinez,Port Lavaca Calhoun,66.68,,,,,Single-ply,SBD,M
Boys,67.13,DQ,Grant Baker,Victoria East,63.59,117.93,,,,Single-ply,SBD,M
Boys,74.84,1,Hunter Dollery,Victoria West,74.8,197.31,115.67,217.72,530.7,Single-ply,SBD,M
Boys,74.84,2,Chance Grevey,Victoria West,72.67,195.04,117.93,204.12,517.1,Single-ply,SBD,M
Boys,74.84,3,Logan Muehlstein,Goliad,72.67,179.17,106.59,213.19,498.95,Single-ply,SBD,M
Boys,74.84,4,Davantee Herron,Victoria East,72.76,181.44,117.93,197.31,496.68,Single-ply,SBD,M
Boys,74.84,5,Aj Carter,Victoria West,72.03,183.7,108.86,188.24,480.81,Single-ply,SBD,M
Boys,74.84,6,Carson Berger,Vanderbilt Industrial,72.89,176.9,113.4,188.24,478.54,Single-ply,SBD,M
Boys,74.84,7,Isaiah Herring,Hallettsville,73.94,172.37,113.4,174.63,460.4,Single-ply,SBD,M
Boys,74.84,8,Tony Renfro,Stockdale,74.12,174.63,102.06,181.44,458.13,Single-ply,SBD,M
Boys,74.84,9,Tre'vion Green,Victoria West,67.45,170.1,97.52,181.44,449.06,Single-ply,SBD,M
Boys,74.84,10,Kory Taylor,Victoria West,73.66,156.49,95.25,192.78,444.52,Single-ply,SBD,M
Boys,74.84,11,José Pérez,Port Lavaca Calhoun,68.67,165.56,102.06,170.1,437.72,Single-ply,SBD,M
Boys,82.1,12,Logan Shows,Yoakum,74.93,154.22,102.06,158.76,415.04,Single-ply,SBD,M
Boys,74.84,13,Sergio Cervantes,Victoria West,73.89,151.95,102.06,154.22,408.23,Single-ply,SBD,M
Boys,74.84,14,Corban Ramos,Victoria East,67.59,133.81,86.18,181.44,401.43,Single-ply,SBD,M
Boys,74.84,15,Jaxon Reeves,Hallettsville,72.08,151.95,81.65,145.15,378.75,Single-ply,SBD,M
Boys,74.84,16,Michael Barraza,Refugio,69.17,122.47,86.18,165.56,374.21,Single-ply,SBD,M
Boys,74.84,17,Brandon Turner,Victoria West,73.98,142.88,90.72,136.08,369.68,Single-ply,SBD,M
Boys,74.84,18,Liam Porr,Victoria St. Joseph,71.62,142.88,65.77,151.95,360.61,Single-ply,SBD,M
Boys,74.84,19,Trey Ingram,Goliad,71.62,129.27,77.11,154.22,360.61,Single-ply,SBD,M
Boys,74.84,20,Dalton Dornburg,Goliad,71.67,133.81,74.84,142.88,351.53,Single-ply,SBD,M
Boys,74.84,DQ,Hector Andres,Edna,74.84,,,,,Single-ply,SBD,M
Boys,74.84,DQ,Ruben Perez,Bloomington,74.84,,,,,Single-ply,SBD,M
Boys,74.84,DQ,Manny Salazar,Refugio,74.84,,,,,Single-ply,SBD,M
Boys,74.84,DQ,Seth Grasshoff,Hallettsville,74.84,,,,,Single-ply,SBD,M
Boys,74.84,DQ,Sampson Holt,Victoria St. Joseph,74.84,,,,,Single-ply,SBD,M
Boys,74.84,DQ,Tyler Talley,Stockdale,74.84,,,,,Single-ply,SBD,M
Boys,74.84,DQ,Austin Fouch,Stockdale,74.84,,,,,Single-ply,SBD,M
Boys,74.84,DQ,Steven Brandt,Victoria West,74.84,,,,,Single-ply,SBD,M
Boys,82.1,1,Oziel Rios,Palacios,81.92,242.67,174.63,258.55,675.85,Single-ply,SBD,M
Boys,82.1,2,Travis Dibble,Victoria West,80.6,217.72,136.08,224.53,578.33,Single-ply,SBD,M
Boys,82.1,3,Edward Rubio,Goliad,80.78,215.46,106.59,240.4,562.45,Single-ply,SBD,M
Boys,82.1,4,Anthony McGuill,Refugio,79.7,199.58,115.67,217.72,532.97,Single-ply,SBD,M
Boys,82.1,5,Ethan Brown,Vanderbilt Industrial,79.24,208.65,131.54,188.24,528.44,Single-ply,SBD,M
Boys,82.1,6,Dylan Tomek,Hallettsville,75.84,192.78,120.2,197.31,510.29,Single-ply,SBD,M
Boys,82.1,7,Ken'twaun Freeman,Victoria West,77.97,195.04,108.86,199.58,503.49,Single-ply,SBD,M
Boys,82.1,8,Payton Sanchez,Port Lavaca Calhoun,80.97,190.51,111.13,197.31,498.95,Single-ply,SBD,M
Boys,82.1,9,Daniel Guillen,Victoria East,81.42,190.51,97.52,174.63,462.66,Single-ply,SBD,M
Boys,82.1,10,Kyler McBlane,Stockdale,80.1,167.83,99.79,176.9,444.52,Single-ply,SBD,M
Boys,89.81,11,Seth Garrett,Victoria West,82.33,149.69,97.52,190.51,437.72,Single-ply,SBD,M
Boys,82.1,12,Hayden Schlamb,Victoria West,79.61,147.42,70.31,156.49,374.21,Single-ply,SBD,M
Boys,82.1,13,Kaleb Henning,Refugio,79.29,127.01,90.72,136.08,353.8,Single-ply,SBD,M
Boys,89.81,14,Matthew Leal,Runge,82.28,115.67,61.23,140.61,317.51,Single-ply,SBD,M
Boys,82.1,DQ,Nick Hinojosa,Bloomington,82.1,,,,,Single-ply,SBD,M
Boys,82.1,DQ,Carlos Romero,Edna,82.1,,,,,Single-ply,SBD,M
Boys,82.1,DQ,Qashaun Bryant,Victoria East,82.1,,,,,Single-ply,SBD,M
Boys,82.1,DQ,Dominic Busby,Vanderbilt Industrial,82.1,,,,,Single-ply,SBD,M
Boys,89.81,1,Dylan Esquivel,Victoria West,89.58,219.99,142.88,247.21,610.08,Single-ply,SBD,M
Boys,89.81,2,Ricardo Camarillo,Yoakum,88.77,222.26,138.35,190.51,551.11,Single-ply,SBD,M
Boys,89.81,3,David Garza,Palacios,86.05,210.92,120.2,217.72,548.85,Single-ply,SBD,M
Boys,99.79,4,Eric Luck,Victoria East,89.86,204.12,136.08,185.97,526.17,Single-ply,SBD,M
Boys,89.81,5,Hayden Henry,Hallettsville,88.13,210.92,113.4,188.24,512.56,Single-ply,SBD,M
Boys,89.81,6,Connor McLaughlin,Stockdale,83.32,188.24,127.01,192.78,508.02,Single-ply,SBD,M
Boys,89.81,7,Dylan Moeller,Victoria East,84.59,181.44,99.79,204.12,485.34,Single-ply,SBD,M
Boys,89.81,8,Dre Littles,Victoria West,85.82,183.7,106.59,181.44,471.74,Single-ply,SBD,M
Boys,89.81,9,Gus Muller,Edna,83.1,138.35,102.06,136.08,376.48,Single-ply,SBD,M
Boys,89.81,10,Diego Salazar,Bloomington,85.05,138.35,88.45,142.88,369.68,Single-ply,SBD,M
Boys,89.81,11,Frankie Aranda,Bloomington,83.87,127.01,83.91,136.08,347,Single-ply,SBD,M
Boys,89.81,12,Shannon Tesch,Vanderbilt Industrial,87.54,115.67,58.97,136.08,310.71,Single-ply,SBD,M
Boys,89.81,13,Johnny Reyez,Edna,82.87,86.18,68.04,81.65,235.87,Single-ply,SBD,M
Boys,89.81,DQ,Eli Milner,Vanderbilt Industrial,89.81,,,,,Single-ply,SBD,M
Boys,89.81,DQ,Trey Martinez,Victoria East,89.81,,,,,Single-ply,SBD,M
Boys,89.81,DQ,Ryan Gasch,Yoakum,83.87,,,,,Single-ply,SBD,M
Boys,89.81,DQ,Rene Orsonia,Port Lavaca Calhoun,84.55,238.14,131.54,,,Single-ply,SBD,M
Boys,99.79,1,Bobby Morris,Victoria East,93.03,249.48,138.35,247.21,635.03,Single-ply,SBD,M
Boys,99.79,2,Kaden Hardt,Hallettsville,95.35,242.67,158.76,233.6,635.03,Single-ply,SBD,M
Boys,99.79,3,Sean Bastian,Vanderbilt Industrial,96.16,240.4,142.88,213.19,596.47,Single-ply,SBD,M
Boys,99.79,4,Curtis Nix,Victoria East,91.94,219.99,124.74,249.48,594.21,Single-ply,SBD,M
Boys,99.79,5,Shawn Martinez,Victoria West,99.11,265.35,124.74,199.58,589.67,Single-ply,SBD,M
Boys,99.79,6,Tristan Caballero,Yoakum,98.43,226.8,151.95,181.44,560.19,Single-ply,SBD,M
Boys,99.79,7,Lain Hermes,Goliad,98.88,217.72,129.27,201.85,548.85,Single-ply,SBD,M
Boys,99.79,8,Jade Pena,Victoria St. Joseph,96.43,192.78,140.61,199.58,532.97,Single-ply,SBD,M
Boys,99.79,9,Keve Franklin,Goliad,94.44,183.7,106.59,158.76,449.06,Single-ply,SBD,M
Boys,99.79,10,Josh Garcia,Runge,98.02,165.56,92.99,183.7,442.25,Single-ply,SBD,M
Boys,99.79,11,Colton Irwin,Stockdale,94.62,156.49,102.06,167.83,426.38,Single-ply,SBD,M
Boys,99.79,12,Caleb Gloor,Victoria St. Joseph,96.93,147.42,90.72,170.1,408.23,Single-ply,SBD,M
Boys,99.79,DQ,Andy Rojas,Bloomington,99.79,,,,,Single-ply,SBD,M
Boys,99.79,DQ,Malakye Adams,Victoria East,96.71,181.44,111.13,,,Single-ply,SBD,M
Boys,109.77,1,Eddie Garcia,Port Lavaca Calhoun,106.46,306.17,147.42,251.74,705.34,Single-ply,SBD,M
Boys,109.77,2,Cody Park,Goliad,102.65,260.82,122.47,213.19,596.47,Single-ply,SBD,M
Boys,124.74,3,Eddie Ordonez,Luling,109.86,251.74,138.35,206.38,596.47,Single-ply,SBD,M
Boys,109.77,4,Devin Tagle,Refugio,108.82,210.92,167.83,210.92,589.67,Single-ply,SBD,M
Boys,109.77,5,Brent Karnowski,Victoria East,106.46,217.72,129.27,226.8,573.79,Single-ply,SBD,M
Boys,109.77,6,Ricky Canseco,Yoakum,104.05,244.94,122.47,190.51,557.92,Single-ply,SBD,M
Boys,109.77,7,Will Dowell,Hallettsville,104.87,226.8,120.2,181.44,528.44,Single-ply,SBD,M
Boys,109.77,8,Brennan Schimcek,Hallettsville,109.59,204.12,136.08,181.44,521.63,Single-ply,SBD,M
Boys,109.77,9,Isaih Cardenas,Victoria West,103.65,206.38,106.59,195.04,508.02,Single-ply,SBD,M
Boys,124.74,10,Robert Reyes,Runge,109.91,172.37,108.86,181.44,462.66,Single-ply,SBD,M
Boys,109.77,11,Colton Aleman,Luling,108.09,185.97,117.93,154.22,458.13,Single-ply,SBD,M
Boys,109.77,12,Louie Lopez,Victoria St. Joseph,103.46,181.44,88.45,181.44,451.32,Single-ply,SBD,M
Boys,109.77,13,Kenneth Densman,Vanderbilt Industrial,105.19,170.1,74.84,158.76,403.7,Single-ply,SBD,M
Boys,109.77,DQ,Brandon Nunez,Runge,109.77,,,,,Single-ply,SBD,M
Boys,109.77,DQ,Fabian Vargas,Goliad,109.77,,,,,Single-ply,SBD,M
Boys,109.77,DQ,Logan Drozd,Hallettsville,109.77,,,,,Single-ply,SBD,M
Boys,109.77,DQ,Efrain Guerra,Edna,109.77,,,,,Single-ply,SBD,M
Boys,124.74,1,Brady Vickery,Vanderbilt Industrial,115.03,283.5,183.7,215.46,682.66,Single-ply,SBD,M
Boys,124.74,2,Roger Miles,Luling,115.12,192.78,158.76,226.8,578.33,Single-ply,SBD,M
Boys,124.74,3,Steven Rankin,Goliad,116.44,206.38,97.52,170.1,474,Single-ply,SBD,M
Boys,124.74,4,Emilio Vargas,Goliad,116.3,158.76,99.79,151.95,410.5,Single-ply,SBD,M
Boys,124.74,5,Trevor Gloor,Victoria St. Joseph,114.85,156.49,92.99,149.69,399.16,Single-ply,SBD,M
Boys,124.74,6,Jordan King-Williams,Edna,112.4,113.4,102.06,158.76,374.21,Single-ply,SBD,M
Boys,124.74+,1,Bryan Swift,Luling,141.84,231.33,156.49,233.6,621.42,Single-ply,SBD,M
Boys,124.74+,2,Joel Sanchez,Luling,159.85,226.8,136.08,204.12,566.99,Single-ply,SBD,M
Boys,124.74+,3,Drew Hathaway,Victoria West,125.33,210.92,124.74,199.58,535.24,Single-ply,SBD,M
Boys,124.74+,4,Keenan Harrison,Victoria West,126.46,181.44,102.06,163.29,446.79,Single-ply,SBD,M
Boys,124.74+,5,Brandon Winters,Runge,126.55,154.22,74.84,167.83,396.89,Single-ply,SBD,M
Boys,124.74+,6,Trevor Reyna,Victoria St. Joseph,139.48,142.88,74.84,147.42,365.14,Single-ply,SBD,M
Boys,124.74+,DQ,Daniel Gutierrez,Victoria West,136.08,,,,,Single-ply,SBD,M
Boys,124.74+,DQ,Malik Brown,Refugio,125.19,,,,,Single-ply,SBD,M
Boys,124.74+,DQ,Wyatt Neuman,Edna,125.19,,,,,Single-ply,SBD,M
