Division,WeightClassKg,Place,Name,Team,BodyweightKg,Best3SquatKg,Best3BenchKg,Best3DeadliftKg,TotalKg,Equipment,Event,Sex
Junior Varsity,51.71,1,Paul Arocha,Devine,51.53,88.45,65.77,106.59,260.82,Single-ply,SBD,M
Junior Varsity,55.79,DQ,Cody Brown,George West,51.89,,,,,Single-ply,SBD,M
Junior Varsity,55.79,1,Jake Gamez,Beeville Jones,55.61,113.4,65.77,142.88,322.05,Single-ply,SBD,M
Junior Varsity,55.79,2,Mickey Bradley,Gregory-Portland,55.07,97.52,63.5,136.08,297.1,Single-ply,SBD,M
Junior Varsity,59.87,3,Colin Moore,Rockport-Fulton,55.97,74.84,52.16,97.52,224.53,Single-ply,SBD,M
Junior Varsity,55.79,DQ,Jd Rodriquez,Ingleside,54.16,,,,,Single-ply,SBD,M
Junior Varsity,55.79,DQ,Fabian Tijernia,Mathis,55.7,,,,,Single-ply,SBD,M
Junior Varsity,67.13,1,Jonathon Calzada,Gregory-Portland,60.06,83.91,52.16,104.33,240.4,Single-ply,SBD,M
Junior Varsity,59.87,2,Sam Day,Rockport-Fulton,57.88,92.99,56.7,72.57,222.26,Single-ply,SBD,M
Junior Varsity,59.87,DQ,Jonathan Soto,Ingleside,58.69,,,,,Single-ply,SBD,M
Junior Varsity,67.13,1,Baltazar Ramirez,San Diego,65.32,108.86,63.5,136.08,308.44,Single-ply,SBD,M
Junior Varsity,67.13,2,Alex Farenthold,Rockport-Fulton,66.95,106.59,70.31,124.74,301.64,Single-ply,SBD,M
Junior Varsity,67.13,3,Christian Reyna,Gregory-Portland,61.87,92.99,54.43,108.86,256.28,Single-ply,SBD,M
Junior Varsity,67.13,4,Daniel Green,Gregory-Portland,62.05,77.11,58.97,104.33,240.4,Single-ply,SBD,M
Junior Varsity,67.13,DQ,Michael Isaacks,Gregory-Portland,63.78,,,,,Single-ply,SBD,M
Junior Varsity,67.13,DQ,Patrick Torres,Ingleside,62.96,74.84,,,,Single-ply,SBD,M
Junior Varsity,67.13,DQ,Bobby Torres,George West,64.59,161.03,,,,Single-ply,SBD,M
Junior Varsity,74.84,1,Lorenzo Landin,Gregory-Portland,73.57,154.22,102.06,179.17,435.45,Single-ply,SBD,M
Junior Varsity,74.84,2,Will Caraker,Gregory-Portland,69.76,131.54,99.79,151.95,383.29,Single-ply,SBD,M
Junior Varsity,74.84,3,Steve Garza,Ingleside,74.39,142.88,97.52,124.74,365.14,Single-ply,SBD,M
Junior Varsity,74.84,4,Jarratt Partick,Three Rivers,74.66,142.88,58.97,161.03,362.87,Single-ply,SBD,M
Junior Varsity,82.1,5,Jacob Flores,Beeville Jones,75.02,149.69,81.65,131.54,362.87,Single-ply,SBD,M
Junior Varsity,74.84,6,Eddie Garza,San Diego,72.48,97.52,74.84,149.69,322.05,Single-ply,SBD,M
Junior Varsity,74.84,7,Keller Hughes,Three Rivers,72.85,124.74,70.31,124.74,319.78,Single-ply,SBD,M
Junior Varsity,74.84,8,Ricky de la Paz,San Diego,73.21,99.79,63.5,117.93,281.23,Single-ply,SBD,M
Junior Varsity,74.84,DQ,Micheal Chavez,Devine,70.58,111.13,,,,Single-ply,SBD,M
Junior Varsity,74.84,DQ,Phillip Alvarez,George West,74.03,,,,,Single-ply,SBD,M
Junior Varsity,82.1,1,Pablo Garza,Gregory-Portland,77.11,151.95,92.99,154.22,399.16,Single-ply,SBD,M
Junior Varsity,82.1,2,Gabriel Jimenez,Gregory-Portland,76.38,142.88,86.18,154.22,383.29,Single-ply,SBD,M
Junior Varsity,82.1,3,Justin Cote,Rockport-Fulton,78.2,111.13,70.31,142.88,324.32,Single-ply,SBD,M
Junior Varsity,82.1,4,Matthew Cantu,San Diego,81.74,115.67,54.43,127.01,297.1,Single-ply,SBD,M
Junior Varsity,89.81,DQ,Yair Iglesias,Devine,82.19,,68.04,113.4,,Single-ply,SBD,M
Junior Varsity,82.1,DQ,Aaron Meinecke,Three Rivers,78.29,106.59,,120.2,,Single-ply,SBD,M
Junior Varsity,89.81,1,Westin Carrol,Three Rivers,88.9,163.29,102.06,154.22,419.57,Single-ply,SBD,M
Junior Varsity,89.81,2,Kalli Escamilla,Three Rivers,89.63,158.76,77.11,183.7,419.57,Single-ply,SBD,M
Junior Varsity,89.81,3,Riley Richardson,Gregory-Portland,87.09,142.88,99.79,167.83,410.5,Single-ply,SBD,M
Junior Varsity,89.81,4,Robert Moctezuma,San Diego,82.46,158.76,90.72,158.76,408.23,Single-ply,SBD,M
Junior Varsity,89.81,5,Chris Izaguirre,Gregory-Portland,86.91,140.61,79.38,176.9,396.89,Single-ply,SBD,M
Junior Varsity,89.81,6,Bobby Salinas,Ingleside,84.64,138.35,74.84,149.69,362.87,Single-ply,SBD,M
Junior Varsity,89.81,7,Zac Gilkerson,Rockport-Fulton,83.28,129.27,92.99,120.2,342.46,Single-ply,SBD,M
Junior Varsity,99.79,1,Walter Altamirano,Beeville Jones,95.07,149.69,102.06,136.08,387.82,Single-ply,SBD,M
Junior Varsity,99.79,DQ,Bryan Chesser,George West,97.52,197.31,,151.95,,Single-ply,SBD,M
Junior Varsity,99.79,DQ,Andy Ochoa,Mathis,99.7,,83.91,142.88,,Single-ply,SBD,M
Junior Varsity,109.77,1,Tj Rodriguez,Three Rivers,100.52,170.1,102.06,165.56,437.72,Single-ply,SBD,M
Junior Varsity,124.74,2,Diego Diaz,Beeville Jones,109.95,145.15,106.59,142.88,394.63,Single-ply,SBD,M
Junior Varsity,109.77,3,Leo Perez,Devine,101.06,127.01,79.38,170.1,376.48,Single-ply,SBD,M
Junior Varsity,109.77,4,Ralph Soto,Devine,104.42,104.33,74.84,176.9,356.07,Single-ply,SBD,M
Junior Varsity,124.74,DQ,Cameron Elerbee,Beeville Jones,109.95,,95.25,133.81,,Single-ply,SBD,M
Junior Varsity,124.74+,1,James Flanigan,Ingleside,127.19,147.42,86.18,147.42,381.02,Single-ply,SBD,M
Varsity,51.71,1,Robert Chapa,Gregory-Portland,51.62,161.03,90.72,181.44,433.18,Single-ply,SBD,M
Varsity,51.71,2,Mauro Garcia,Port Lavaca Calhoun,49.99,104.33,58.97,117.93,281.23,Single-ply,SBD,M
Varsity,51.71,3,Pete Olivarez,Orange Grove,44.54,90.72,47.63,92.99,231.33,Single-ply,SBD,M
Varsity,51.71,4,Tomas Guzman,Taft,47.45,92.99,47.63,88.45,229.06,Single-ply,SBD,M
Varsity,51.71,5,Nikkio Arellano,Taft,45.36,65.77,52.16,88.45,206.38,Single-ply,SBD,M
Varsity,51.71,DQ,Shane Stehle,Orange Grove,44.63,,,,,Single-ply,SBD,M
Varsity,55.79,1,Daniel Chapa,Gregory-Portland,54.61,167.83,99.79,185.97,453.59,Single-ply,SBD,M
Varsity,55.79,2,Ryan Yanez,Gregory-Portland,55.79,142.88,97.52,161.03,401.43,Single-ply,SBD,M
Varsity,55.79,3,Dustin Thomas,Three Rivers,55.43,106.59,56.7,133.81,297.1,Single-ply,SBD,M
Varsity,55.79,DQ,Andy Torres,Gregory-Portland,52.44,83.91,,,,Single-ply,SBD,M
Varsity,59.87,DQ,Jacob Alamguer,George West,55.97,170.1,,147.42,,Single-ply,SBD,M
Varsity,55.79,DQ,Daniel Porras,Orange Grove,52.53,104.33,,,,Single-ply,SBD,M
Varsity,59.87,1,Marquis Barrolle,Ingleside,59.51,174.63,113.4,165.56,453.59,Single-ply,SBD,M
Varsity,59.87,2,Michael Casarez,Three Rivers,57.97,179.17,83.91,179.17,442.25,Single-ply,SBD,M
Varsity,59.87,3,Rico Rodriguez,San Diego,59.78,149.69,90.72,185.97,426.38,Single-ply,SBD,M
Varsity,59.87,4,Jeff Kerns,Gregory-Portland,59.78,158.76,90.72,174.63,424.11,Single-ply,SBD,M
Varsity,59.87,5,Richard Brown,Orange Grove,59.87,142.88,83.91,158.76,385.55,Single-ply,SBD,M
Varsity,67.13,6,Michael Rosas,Beeville Jones,59.96,129.27,83.91,167.83,381.02,Single-ply,SBD,M
Varsity,59.87,7,Stevie Garcia,Odem,59.87,124.74,65.77,131.54,322.05,Single-ply,SBD,M
Varsity,59.87,DQ,Dallas de la Cruz,Mathis,58.69,,,,,Single-ply,SBD,M
Varsity,67.13,1,JJ Gonzales,Gregory-Portland,66.5,242.67,145.15,210.92,598.74,Single-ply,SBD,M
Varsity,67.13,2,Phong Tran,Rockport-Fulton,65.86,192.78,115.67,201.85,510.29,Single-ply,SBD,M
Varsity,67.13,3,Josh Munoz,Beeville Jones,65.5,172.37,115.67,179.17,467.2,Single-ply,SBD,M
Varsity,67.13,4,Benji Gomez,Beeville Jones,65.5,170.1,92.99,174.63,437.72,Single-ply,SBD,M
Varsity,67.13,5,Ray Valdez,Orange Grove,64.59,170.1,83.91,158.76,412.77,Single-ply,SBD,M
Varsity,67.13,DQ,Gomez Jonah,Odem,65.77,,,,,Single-ply,SBD,M
Varsity,67.13,DQ,Jacob Asevado,Odem,66.32,,,,,Single-ply,SBD,M
Varsity,67.13,DQ,Ralph Martinez,Mathis,66.59,,,,,Single-ply,SBD,M
Varsity,67.13,DQ,Christian Diaz,Ingleside,62.87,,,,,Single-ply,SBD,M
Varsity,74.84,DQ,Joe Garcia,Odem,67.31,154.22,111.13,149.69,,Single-ply,SBD,M
Varsity,74.84,1,Adam Guerrero,George West,68.76,226.8,115.67,199.58,542.04,Single-ply,SBD,M
Varsity,74.84,2,Darrell DuBose,Devine,72.48,190.51,102.06,204.12,496.68,Single-ply,SBD,M
Varsity,74.84,3,Moses Rios,Mathis,73.94,167.83,99.79,181.44,449.06,Single-ply,SBD,M
Varsity,74.84,4,Julian Salas,Orange Grove,71.85,161.03,106.59,176.9,444.52,Single-ply,SBD,M
Varsity,74.84,5,Nathan McRae,Ingleside,74.48,149.69,120.2,170.1,439.98,Single-ply,SBD,M
Varsity,74.84,6,Victor Ta,Port Lavaca Calhoun,70.49,181.44,90.72,163.29,435.45,Single-ply,SBD,M
Varsity,74.84,7,Christian Sala,Odem,68.76,142.88,97.52,181.44,421.84,Single-ply,SBD,M
Varsity,74.84,8,Adam Villareal,Odem,70.13,138.35,129.27,154.22,421.84,Single-ply,SBD,M
Varsity,74.84,9,Drew Ortiz,Port Lavaca Calhoun,72.85,151.95,99.79,165.56,417.3,Single-ply,SBD,M
Varsity,74.84,10,Jacob Adame,Ingleside,67.49,158.76,102.06,142.88,403.7,Single-ply,SBD,M
Varsity,74.84,11,Phillip Valadez,Gregory-Portland,71.3,147.42,102.06,154.22,403.7,Single-ply,SBD,M
Varsity,74.84,DQ,Andrew Kyrisch,Ingleside,73.75,151.95,,,,Single-ply,SBD,M
Varsity,74.84,DQ,Tim Martin,Taft,69.31,,,,,Single-ply,SBD,M
Varsity,82.1,1,Marty Saenz,San Diego,79.65,249.48,140.61,247.21,637.3,Single-ply,SBD,M
Varsity,82.1,2,Ryan Torres,Gregory-Portland,79.56,244.94,145.15,229.06,619.15,Single-ply,SBD,M
Varsity,89.81,3,Reno Perez,San Diego,82.28,217.72,108.86,208.65,535.24,Single-ply,SBD,M
Varsity,82.1,4,Marcus Klamm,Port Lavaca Calhoun,75.84,181.44,108.86,201.85,492.15,Single-ply,SBD,M
Varsity,82.1,5,Joseph Sadler,Devine,76.2,167.83,95.25,185.97,449.06,Single-ply,SBD,M
Varsity,82.1,6,Dominique Cantu,Three Rivers,75.93,158.76,83.91,174.63,417.3,Single-ply,SBD,M
Varsity,82.1,7,Sartuche Steven,Devine,80.56,124.74,95.25,142.88,362.87,Single-ply,SBD,M
Varsity,89.81,1,Jose Saucedo,Port Lavaca Calhoun,88.54,258.55,172.37,213.19,644.1,Single-ply,SBD,M
Varsity,89.81,2,Enrique Olachia,Port Lavaca Calhoun,88.63,217.72,131.54,222.26,571.53,Single-ply,SBD,M
Varsity,89.81,3,Andrew Reyes,Rockport-Fulton,84.73,197.31,124.74,190.51,512.56,Single-ply,SBD,M
Varsity,89.81,4,Levi Mair,Mathis,88.81,185.97,99.79,199.58,485.34,Single-ply,SBD,M
Varsity,89.81,5,Adam Serda,Odem,88.99,154.22,120.2,161.03,435.45,Single-ply,SBD,M
Varsity,89.81,6,Sammy Jasso,Odem,87.27,158.76,99.79,158.76,417.3,Single-ply,SBD,M
Varsity,99.79,1,Brandon Griffith,Port Lavaca Calhoun,92.9,249.48,172.37,254.01,675.85,Single-ply,SBD,M
Varsity,99.79,2,Luis Lopez,San Diego,93.98,278.96,147.42,240.4,666.78,Single-ply,SBD,M
Varsity,99.79,3,Zane Sanchez,Devine,98.16,208.65,136.08,197.31,542.04,Single-ply,SBD,M
Varsity,99.79,4,Thomas Olvalle,Port Lavaca Calhoun,93.08,199.58,113.4,181.44,494.42,Single-ply,SBD,M
Varsity,99.79,5,Jon Chavana,Port Lavaca Calhoun,96.16,192.78,122.47,172.37,487.61,Single-ply,SBD,M
Varsity,99.79,6,Daniel Diaz,Three Rivers,95.53,181.44,127.01,172.37,480.81,Single-ply,SBD,M
Varsity,99.79,7,Cody Reeves,Agua Dulce,95.35,174.63,129.27,167.83,471.74,Single-ply,SBD,M
Varsity,99.79,DQ,Josh Pina,Odem,99.79,,,,,Single-ply,SBD,M
Varsity,99.79,DQ,Gunner New,Orange Grove,92.44,,,,,Single-ply,SBD,M
Varsity,99.79,DQ,Nathan Morin,Three Rivers,94.08,,,,,Single-ply,SBD,M
Varsity,109.77,1,Ram Montalvo,Orange Grove,108.95,226.8,145.15,219.99,591.94,Single-ply,SBD,M
Varsity,124.74,2,Brody DeForest,Beeville Jones,109.95,208.65,124.74,210.92,544.31,Single-ply,SBD,M
Varsity,109.77,3,Scout Betz,Gregory-Portland,108.32,224.53,120.2,195.04,539.77,Single-ply,SBD,M
Varsity,109.77,4,Patrick Rodriguez,Devine,106.5,190.51,117.93,181.44,489.88,Single-ply,SBD,M
Varsity,109.77,5,Matt Ferral,Rockport-Fulton,105.78,215.46,106.59,165.56,487.61,Single-ply,SBD,M
Varsity,109.77,6,Truman Jenkins,Rockport-Fulton,107.14,163.29,111.13,165.56,439.98,Single-ply,SBD,M
Varsity,109.77,7,Ryan Arriaga,Port Lavaca Calhoun,101.24,183.7,102.06,142.88,428.64,Single-ply,SBD,M
Varsity,109.77,8,Alex Garcia,San Diego,105.23,145.15,90.72,192.78,428.64,Single-ply,SBD,M
Varsity,109.77,DQ,Richard Huettel,Rockport-Fulton,101.24,,,,,Single-ply,SBD,M
Varsity,109.77,DQ,Tyler Guerrero,Devine,109.41,195.04,111.13,,,Single-ply,SBD,M
Varsity,109.77,DQ,Eric Viafranco,Mathis,100.97,167.83,95.25,,,Single-ply,SBD,M
Varsity,124.74,1,Blake Dahlberg,Gregory-Portland,110.77,229.06,129.27,206.38,564.72,Single-ply,SBD,M
Varsity,124.74,2,Morgan Molina,Port Lavaca Calhoun,124.1,183.7,113.4,154.22,451.32,Single-ply,SBD,M
Varsity,124.74,3,Dillon Garcia,Orange Grove,119.66,115.67,56.7,104.33,276.69,Single-ply,SBD,M
Varsity,124.74,DQ,Conner Bearden,Ingleside,122.2,,,,,Single-ply,SBD,M
Varsity,124.74,DQ,Nick Hinjosa,Taft,123.74,,,,,Single-ply,SBD,M
Varsity,124.74+,1,Oscar Ortiz,Orange Grove,139.8,274.42,163.29,240.4,678.12,Single-ply,SBD,M
Varsity,124.74+,2,Ruden Delbosque,Mathis,148.96,308.44,117.93,226.8,653.17,Single-ply,SBD,M
Varsity,124.74+,3,Adam Aleman,Beeville Jones,154.86,267.62,145.15,226.8,639.57,Single-ply,SBD,M
Varsity,124.74+,4,Mario Alaniz,San Diego,126.82,233.6,117.93,222.26,573.79,Single-ply,SBD,M
Varsity,124.74+,5,Bryan Tschatschula,Port Lavaca Calhoun,140.25,206.38,142.88,183.7,532.97,Single-ply,SBD,M
Varsity,124.74+,6,Victor Quiroga,Beeville Jones,137.35,226.8,124.74,176.9,528.44,Single-ply,SBD,M
Varsity,124.74+,7,Dj Carlson,Devine,127.1,238.14,111.13,174.63,523.9,Single-ply,SBD,M
Varsity,124.74+,8,Christian Zuniga,Rockport-Fulton,135.17,190.51,120.2,181.44,492.15,Single-ply,SBD,M
Varsity,124.74+,9,Jacob Ortiz,Agua Dulce,129.82,181.44,97.52,172.37,451.32,Single-ply,SBD,M
Varsity,124.74+,DQ,Ryan Guttierez,Rockport-Fulton,126.19,,,,,Single-ply,SBD,M
Varsity,124.74+,DQ,Jacob Zuniga,Rockport-Fulton,131.18,142.88,,,,Single-ply,SBD,M
