Division,WeightClassKg,Place,Name,Team,BodyweightKg,Best3SquatKg,Best3BenchKg,Best3DeadliftKg,TotalKg,Equipment,Event,Sex
Boys,59.87,1,Koby Johnston,Keller Fossil Ridge,55.84,102.06,52.16,97.52,251.74,Single-ply,SBD,M
Boys,59.87,1,Koji Mendoza,Keller Timber Creek,59.42,102.06,83.91,142.88,328.85,Single-ply,SBD,M
Boys,59.87,2,Carlos Davila,Keller Central,58.97,120.2,72.57,122.47,315.25,Single-ply,SBD,M
Boys,67.13,1,Daniel Sorensen,Keller,63.5,102.06,86.18,147.42,335.66,Single-ply,SBD,M
Boys,74.84,2,Eric Goodman,Keller Fossil Ridge,67.22,124.74,90.72,106.59,322.05,Single-ply,SBD,M
Boys,74.84,1,Max Patton,Keller Timber Creek,73.48,142.88,92.99,142.88,378.75,Single-ply,SBD,M
Boys,74.84,2,Logan Lebrun,Keller Timber Creek,72.57,156.49,56.7,142.88,356.07,Single-ply,SBD,M
Boys,74.84,3,Chris Fant,Keller Timber Creek,73.94,113.4,83.91,142.88,340.19,Single-ply,SBD,M
Boys,74.84,4,Jett Ertle,Keller,71.21,106.59,79.38,147.42,333.39,Single-ply,SBD,M
Boys,74.84,DQ,Marcus Seignon,Keller Fossil Ridge,70.31,,,,,Single-ply,SBD,M
Boys,82.1,DQ,Bradley Bowen,Keller Fossil Ridge,74.89,,,,,Single-ply,SBD,M
Boys,82.1,1,Matthew Soihl,Keller,80.29,156.49,106.59,156.49,419.57,Single-ply,SBD,M
Boys,82.1,2,Jayson Gonzales,Keller Fossil Ridge,77.29,142.88,97.52,158.76,399.16,Single-ply,SBD,M
Boys,82.1,3,Dante Blackshear,Keller Central,77.11,136.08,79.38,136.08,351.53,Single-ply,SBD,M
Boys,82.1,4,Shane Harris,Keller Central,81.65,142.88,83.91,111.13,337.93,Single-ply,SBD,M
Boys,89.81,1,Cameron Williams,Keller,87.23,206.38,133.81,204.12,544.31,Single-ply,SBD,M
Boys,89.81,2,Hunter Tole,Keller Timber Creek,88.9,176.9,92.99,165.56,435.45,Single-ply,SBD,M
Boys,89.81,3,Christian Worthy,Keller Central,88.9,158.76,108.86,161.03,428.64,Single-ply,SBD,M
Boys,89.81,9,Josh Jordan,Keller Fossil Ridge,84.82,142.88,102.06,156.49,401.43,Single-ply,SBD,M
Boys,99.79,1,Houston Miller,Keller,99.79,222.26,117.93,244.94,585.13,Single-ply,SBD,M
Boys,99.79,2,Elivr Nurkic,Keller Fossil Ridge,91.63,158.76,108.86,183.7,451.32,Single-ply,SBD,M
Boys,99.79,3,David Leimbacher,Keller,99.79,142.88,115.67,192.78,451.32,Single-ply,SBD,M
Boys,99.79,4,Jacob Goodsell,Keller Central,94.35,142.88,102.06,183.7,428.64,Single-ply,SBD,M
Boys,99.79,5,Jacob Knowlton,Keller,98.88,151.95,106.59,165.56,424.11,Single-ply,SBD,M
Boys,99.79,6,Christopher Trejo,Keller Central,92.08,142.88,102.06,165.56,410.5,Single-ply,SBD,M
Boys,99.79,7,Alex Alavardo,Keller Fossil Ridge,97.07,147.42,104.33,156.49,408.23,Single-ply,SBD,M
Boys,99.79,8,Grant Rawls,Keller Fossil Ridge,99.34,170.1,90.72,147.42,408.23,Single-ply,SBD,M
Boys,99.79,10,Jarreet Pettigrew,Keller Fossil Ridge,90.31,142.88,102.06,142.88,387.82,Single-ply,SBD,M
Boys,99.79,11,Aaron Mitchell,Keller Timber Creek,98.88,102.06,74.84,145.15,322.05,Single-ply,SBD,M
Boys,109.77,1,Marshall Parks,Keller Central,104.33,210.92,142.88,229.06,582.87,Single-ply,SBD,M
Boys,109.77,2,Patrick O'Connell,Keller Central,107.05,190.51,108.86,190.51,489.88,Single-ply,SBD,M
Boys,109.77,3,Reece Portugal,Keller,101.15,176.9,111.13,188.24,476.27,Single-ply,SBD,M
Boys,109.77,4,Alan Ali,Keller Timber Creek,108.86,124.74,106.59,172.37,403.7,Single-ply,SBD,M
Boys,124.74,1,Skylyr Rodriguez,Keller,115.67,219.99,151.95,210.92,582.87,Single-ply,SBD,M
Boys,124.74,2,Joey Kammerer,Keller Central,117.03,192.78,127.01,226.8,546.58,Single-ply,SBD,M
Boys,124.74,3,Robert Rae,Keller Timber Creek,122.47,183.7,151.95,195.04,530.7,Single-ply,SBD,M
Boys,124.74,4,Tyler Long,Keller Fossil Ridge,121.56,204.12,102.06,158.76,464.93,Single-ply,SBD,M
Boys,124.74,5,Josh Brown,Keller Central,118.39,165.56,129.27,165.56,460.4,Single-ply,SBD,M
Boys,124.74+,1,Ricky Medrano,Keller Fossil Ridge,127.46,233.6,115.67,188.24,537.51,Single-ply,SBD,M
Boys,124.74+,2,Aaron MacArthur,Keller Fossil Ridge,127.01,188.24,120.2,183.7,492.15,Single-ply,SBD,M
