Division,WeightClassKg,Place,Name,Team,BodyweightKg,Best3SquatKg,Best3BenchKg,Best3DeadliftKg,TotalKg,Equipment,Event,Sex
Boys,55.79,1,Bernardo Cruz,Eldorado,51.89,99.79,56.7,113.4,269.89,Single-ply,SBD,M
Boys,51.71,2,Henry Ramos,Sonora,49.62,95.25,54.43,95.25,244.94,Single-ply,SBD,M
Boys,55.79,3,Xavier Estrada,Andrews,51.89,90.72,56.7,97.52,244.94,Single-ply,SBD,M
Boys,51.71,4,Chris Ortiz,Pecos,45,77.11,58.97,102.06,238.14,Single-ply,SBD,M
Boys,51.71,5,Zach Alvarez,Fort Stockton,45.9,83.91,49.9,97.52,231.33,Single-ply,SBD,M
Boys,51.71,6,Josh Chavarria,Floydada,49.71,92.99,54.43,83.91,231.33,Single-ply,SBD,M
Boys,51.71,7,Rafael Corralez,Fort Stockton,43,74.84,47.63,83.91,206.38,Single-ply,SBD,M
Boys,51.71,DQ,Preston McCutcheon,Ozona,47.17,92.99,47.63,,,Single-ply,SBD,M
Boys,55.79,1,Daniel Sánchez,Midland Greenwood,55.07,113.4,72.57,133.81,319.78,Single-ply,SBD,M
Boys,55.79,2,Nick Gomez,McCamey,53.43,113.4,72.57,102.06,288.03,Single-ply,SBD,M
Boys,55.79,3,Jacob Zepeda,Sterling City,54.7,104.33,61.23,120.2,285.76,Single-ply,SBD,M
Boys,55.79,4,Alfonzo Mendoza,Floydada,55.79,102.06,63.5,120.2,285.76,Single-ply,SBD,M
Boys,55.79,5,Gabriel Rodriquez,McCamey,54.88,102.06,56.7,92.99,251.74,Single-ply,SBD,M
Boys,55.79,6,Michael Montez,Monahans,55.25,95.25,54.43,83.91,233.6,Single-ply,SBD,M
Boys,55.79,DQ,Garrett Tarpley,Crane,54.16,106.59,,,,Single-ply,SBD,M
Boys,59.87,1,Keele Valenzuela,Kermit,57.88,183.7,106.59,167.83,458.13,Single-ply,SBD,M
Boys,59.87,2,Reid Clanton,Midland Greenwood,59.24,181.44,102.06,174.63,458.13,Single-ply,SBD,M
Boys,67.13,3,Daniel Valenzuela,Pecos,60.06,149.69,74.84,174.63,399.16,Single-ply,SBD,M
Boys,59.87,4,Oscar Salgado,Alpine,59.6,142.88,86.18,147.42,376.48,Single-ply,SBD,M
Boys,59.87,5,Dillon Hughes,Sterling City,59.42,136.08,79.38,136.08,351.53,Single-ply,SBD,M
Boys,59.87,6,Nathaniel Garcia,Fort Stockton,56.88,127.01,79.38,138.35,344.73,Single-ply,SBD,M
Boys,59.87,7,Isiah Petralba,Fort Stockton,59.42,120.2,90.72,124.74,335.66,Single-ply,SBD,M
Boys,59.87,8,Noel Ybarra,Pecos,57.24,115.67,63.5,117.93,297.1,Single-ply,SBD,M
Boys,59.87,9,Christian Flores,Crane,57.15,102.06,65.77,117.93,285.76,Single-ply,SBD,M
Boys,59.87,10,Daniel Hernandez,Pecos,57.24,90.72,61.23,124.74,276.69,Single-ply,SBD,M
Boys,59.87,11,Jared Everett,Sterling City,58.97,106.59,52.16,102.06,260.82,Single-ply,SBD,M
Boys,59.87,DQ,Kody Collins,Monahans,56.79,106.59,58.97,,,Single-ply,SBD,M
Boys,67.13,1,Michael Vargas,Ozona,66.59,235.87,127.01,219.99,582.87,Single-ply,SBD,M
Boys,67.13,2,John Jurado,Ozona,66.59,199.58,99.79,185.97,485.34,Single-ply,SBD,M
Boys,67.13,3,Adrian Gonzalez,Floydada,66.04,167.83,83.91,181.44,433.18,Single-ply,SBD,M
Boys,74.84,4,Juan Gonzalez,Fort Stockton,67.36,163.29,88.45,176.9,428.64,Single-ply,SBD,M
Boys,67.13,5,Jose Hernandez,Midland Greenwood,66.22,151.95,95.25,167.83,415.04,Single-ply,SBD,M
Boys,67.13,6,Tercel Tabarez,Alpine,63.68,154.22,92.99,156.49,403.7,Single-ply,SBD,M
Boys,67.13,7,Jon Naylor,Midland Greenwood,62.69,172.37,90.72,136.08,399.16,Single-ply,SBD,M
Boys,74.84,8,Armando Garcia,Fort Stockton,67.22,142.88,83.91,158.76,385.55,Single-ply,SBD,M
Boys,67.13,9,Brandon Fader,Midland Greenwood,66.5,147.42,81.65,136.08,365.14,Single-ply,SBD,M
Boys,67.13,10,Stace Bell,Midland Greenwood,63.68,138.35,79.38,142.88,360.61,Single-ply,SBD,M
Boys,67.13,11,Felix Guerra,Sonora,64.77,140.61,83.91,136.08,360.61,Single-ply,SBD,M
Boys,67.13,12,Garett Stille,Andrews,65.95,122.47,83.91,145.15,351.53,Single-ply,SBD,M
Boys,67.13,13,Gian Cruz,Monahans,61.05,129.27,74.84,145.15,349.27,Single-ply,SBD,M
Boys,67.13,14,Jacob Vargas,Crane,64.41,115.67,83.91,142.88,342.46,Single-ply,SBD,M
Boys,67.13,15,Raul Vasquez,Andrews,62.41,127.01,74.84,136.08,337.93,Single-ply,SBD,M
Boys,67.13,16,Zeke Torres,Floydada,60.42,111.13,74.84,122.47,308.44,Single-ply,SBD,M
Boys,67.13,17,Victor Castro,Eldorado,61.51,111.13,56.7,136.08,303.91,Single-ply,SBD,M
Boys,67.13,18,Alex Rivas,Alpine,60.51,113.4,63.5,115.67,292.57,Single-ply,SBD,M
Boys,67.13,19,Shay Smith,McCamey,64.23,102.06,52.16,102.06,256.28,Single-ply,SBD,M
Boys,67.13,DQ,Oscar Soliz,Pecos,63.78,99.79,,,,Single-ply,SBD,M
Boys,67.13,DQ,Daniel Gonzales,Ozona,63.59,,,,,Single-ply,SBD,M
Boys,67.13,DQ,Alberto Rodriguez,Ozona,63.68,90.72,,,,Single-ply,SBD,M
Boys,67.13,DQ,James Bradley,Ozona,64.68,136.08,,,,Single-ply,SBD,M
Boys,67.13,DQ,Kade Warren,Sterling City,65.14,,,,,Single-ply,SBD,M
Boys,67.13,DQ,Mitchell McGuire,Sterling City,65.5,,,,,Single-ply,SBD,M
Boys,82.1,1,Aaron Castillo,Rankin,74.93,190.51,140.61,208.65,539.77,Single-ply,SBD,M
Boys,74.84,2,Cole Hunt,Alpine,73.21,163.29,104.33,206.38,474,Single-ply,SBD,M
Boys,74.84,3,Joe Macias,Andrews,74.84,156.49,120.2,190.51,467.2,Single-ply,SBD,M
Boys,74.84,4,Cody Ortiz,Big Lake Reagan County,69.76,192.78,90.72,181.44,464.93,Single-ply,SBD,M
Boys,74.84,5,Juan Marquez,Big Lake Reagan County,70.85,158.76,99.79,181.44,439.98,Single-ply,SBD,M
Boys,74.84,6,Jacob Rodriguez,Fort Stockton,71.49,172.37,83.91,156.49,412.77,Single-ply,SBD,M
Boys,74.84,7,Logan Kilpatrick,Sterling City,73.57,163.29,83.91,165.56,412.77,Single-ply,SBD,M
Boys,74.84,8,Ethan Jones,Midland Greenwood,71.58,129.27,79.38,133.81,342.46,Single-ply,SBD,M
Boys,82.1,9,Jacob Mettlen,Eldorado,74.93,72.57,90.72,145.15,308.44,Single-ply,SBD,M
Boys,74.84,DQ,Brandon King,Crane,68.95,136.08,,,,Single-ply,SBD,M
Boys,74.84,DQ,Jonathon Focha,Ozona,72.03,145.15,,,,Single-ply,SBD,M
Boys,82.1,1,Federico Carmona,Floydada,80.83,229.06,131.54,226.8,587.4,Single-ply,SBD,M
Boys,82.1,2,Cristopher Stallings,Kermit,81.01,204.12,151.95,217.72,573.79,Single-ply,SBD,M
Boys,89.81,3,Aliq DeLeon,McCamey,82.19,190.51,113.4,199.58,503.49,Single-ply,SBD,M
Boys,82.1,4,Richard Valenzuela,Andrews,77.11,181.44,117.93,199.58,498.95,Single-ply,SBD,M
Boys,82.1,5,Justice Andrews,Monahans,75.75,181.44,115.67,181.44,478.54,Single-ply,SBD,M
Boys,82.1,6,Blake Osborn,Midland Greenwood,81.37,181.44,120.2,163.29,464.93,Single-ply,SBD,M
Boys,82.1,7,Jose Cornejo,Andrews,77.2,165.56,106.59,190.51,462.66,Single-ply,SBD,M
Boys,82.1,8,Jake Strickland,Monahans,80.83,176.9,102.06,167.83,446.79,Single-ply,SBD,M
Boys,82.1,9,Tate Richards,Rankin,78.56,133.81,102.06,158.76,394.63,Single-ply,SBD,M
Boys,89.81,10,Tyler Curtis,Alpine,82.28,136.08,92.99,165.56,394.63,Single-ply,SBD,M
Boys,82.1,11,Casey Huertas,Monahans,82.1,154.22,81.65,145.15,381.02,Single-ply,SBD,M
Boys,82.1,12,Adan Marmolejo,Monahans,79.47,161.03,88.45,127.01,376.48,Single-ply,SBD,M
Boys,82.1,13,Cody Fuentes,Monahans,80.65,140.61,88.45,145.15,374.21,Single-ply,SBD,M
Boys,82.1,14,Nick Miller,Alpine,80.01,142.88,83.91,142.88,369.68,Single-ply,SBD,M
Boys,82.1,15,Trace Hariman,Eldorado,80.2,127.01,92.99,149.69,369.68,Single-ply,SBD,M
Boys,82.1,16,Juan Lopez,Andrews,77.47,124.74,88.45,149.69,362.87,Single-ply,SBD,M
Boys,82.1,17,Brandon Propst,Fort Stockton,76.75,138.35,83.91,133.81,356.07,Single-ply,SBD,M
Boys,82.1,18,Carson Turner,Floydada,81.28,133.81,86.18,129.27,349.27,Single-ply,SBD,M
Boys,82.1,19,Hugo Sandoval,Fort Stockton,76.29,88.45,86.18,147.42,322.05,Single-ply,SBD,M
Boys,82.1,20,Lagen Smith,Crane,80.65,142.88,61.23,95.25,299.37,Single-ply,SBD,M
Boys,82.1,21,Hunter Maynard,McCamey,76.29,102.06,70.31,124.74,297.1,Single-ply,SBD,M
Boys,82.1,22,Jonathan Keene,McCamey,78.56,90.72,61.23,113.4,265.35,Single-ply,SBD,M
Boys,82.1,DQ,Elias Terrazes,Alpine,77.56,147.42,,,,Single-ply,SBD,M
Boys,82.1,DQ,Alexis Armendarez,Alpine,79.02,145.15,,,,Single-ply,SBD,M
Boys,82.1,DQ,Kobe Roberson,Big Lake Reagan County,78.2,,,,,Single-ply,SBD,M
Boys,82.1,DQ,Alex Vedoy,Crane,78.74,124.74,,,,Single-ply,SBD,M
Boys,89.81,1,Aaron Chavarria,Floydada,84.41,267.62,156.49,238.14,662.24,Single-ply,SBD,M
Boys,99.79,2,Angel Aguilera,Big Lake Reagan County,89.99,249.48,106.59,217.72,573.79,Single-ply,SBD,M
Boys,89.81,3,Abraham Flores,Pecos,88.99,181.44,122.47,213.19,517.1,Single-ply,SBD,M
Boys,89.81,4,Trenton Gardner,Big Lake Reagan County,85.37,199.58,104.33,195.04,498.95,Single-ply,SBD,M
Boys,89.81,5,Sean Strickland,Midland Greenwood,89.18,174.63,115.67,185.97,476.27,Single-ply,SBD,M
Boys,89.81,6,Nathan Tone,Monahans,86.73,181.44,108.86,181.44,471.74,Single-ply,SBD,M
Boys,89.81,7,Zach Denny,Kermit,85.28,172.37,104.33,176.9,453.59,Single-ply,SBD,M
Boys,89.81,8,Arnulfo Leyva,Kermit,88.81,147.42,86.18,156.49,390.09,Single-ply,SBD,M
Boys,89.81,9,Josh Caldwell,Monahans,84.37,158.76,74.84,147.42,381.02,Single-ply,SBD,M
Boys,89.81,10,Cody Phillips,Rankin,86,133.81,90.72,147.42,371.95,Single-ply,SBD,M
Boys,89.81,11,Josh Galindo,Sonora,88.72,151.95,83.91,124.74,360.61,Single-ply,SBD,M
Boys,99.79,1,Azel Alvidrez,Andrews,96.98,208.65,147.42,242.67,598.74,Single-ply,SBD,M
Boys,99.79,2,Cody Stephens,Crane,96.71,204.12,142.88,190.51,537.51,Single-ply,SBD,M
Boys,99.79,3,Daniel Cooper,Kermit,98.7,199.58,115.67,217.72,532.97,Single-ply,SBD,M
Boys,99.79,4,Matthew Seibert,Pecos,93.71,181.44,113.4,213.19,508.02,Single-ply,SBD,M
Boys,99.79,5,Ethan Patlan,Sonora,99.61,142.88,133.81,190.51,467.2,Single-ply,SBD,M
Boys,99.79,6,Natanael Ramirez,Fort Stockton,97.34,163.29,97.52,188.24,449.06,Single-ply,SBD,M
Boys,99.79,7,Duston Vargas,Andrews,92.71,151.95,102.06,174.63,428.64,Single-ply,SBD,M
Boys,99.79,8,Isaiah Marquez,Kermit,96.43,138.35,95.25,156.49,390.09,Single-ply,SBD,M
Boys,99.79,9,Ivan Pena,Fort Stockton,91.9,145.15,74.84,149.69,369.68,Single-ply,SBD,M
Boys,99.79,10,Sammy Villarreal,Alpine,90.81,111.13,90.72,151.95,353.8,Single-ply,SBD,M
Boys,99.79,11,Matthew Leyva,Kermit,96.16,154.22,68.04,131.54,353.8,Single-ply,SBD,M
Boys,99.79,DQ,Joey Acevez,Andrews,95.98,170.1,,,,Single-ply,SBD,M
Boys,99.79,DQ,Micah Melton,Andrews,97.16,163.29,,,,Single-ply,SBD,M
Boys,109.77,1,Josue Damian,Ozona,106.59,272.16,127.01,247.21,646.37,Single-ply,SBD,M
Boys,109.77,2,Damian Rodriguez,Kermit,107.5,195.04,127.01,208.65,530.7,Single-ply,SBD,M
Boys,109.77,3,Juan Valenzuela,Kermit,102.42,181.44,124.74,208.65,514.83,Single-ply,SBD,M
Boys,109.77,4,Ben Madrid,Pecos,100.24,181.44,136.08,181.44,498.95,Single-ply,SBD,M
Boys,109.77,5,Oscar Gutierrez,Monahans,109.5,204.12,108.86,179.17,492.15,Single-ply,SBD,M
Boys,109.77,6,Angel DeLuna,Sonora,105.05,192.78,102.06,195.04,489.88,Single-ply,SBD,M
Boys,109.77,7,Ramon Flores,Crane,103.33,183.7,102.06,183.7,469.47,Single-ply,SBD,M
Boys,109.77,8,James Phillips,Crane,102.24,170.1,122.47,170.1,462.66,Single-ply,SBD,M
Boys,109.77,9,Shayne Compton,Midland Greenwood,105.69,181.44,104.33,170.1,455.86,Single-ply,SBD,M
Boys,124.74,10,Dakota Short,Big Lake Reagan County,109.86,199.58,95.25,154.22,449.06,Single-ply,SBD,M
Boys,109.77,11,Justin Johnson,Pecos,100.52,158.76,113.4,167.83,439.98,Single-ply,SBD,M
Boys,109.77,12,Chris LeBeouf,Pecos,108.91,149.69,113.4,163.29,426.38,Single-ply,SBD,M
Boys,109.77,13,Ben Lujan,Fort Stockton,107.86,156.49,104.33,158.76,419.57,Single-ply,SBD,M
Boys,109.77,14,Bryson Calixto,Monahans,109.5,176.9,97.52,142.88,417.3,Single-ply,SBD,M
Boys,109.77,15,Bryndon Robles,Sonora,105.78,165.56,106.59,124.74,396.89,Single-ply,SBD,M
Boys,109.77,16,Daniel Bragg,Alpine,105.32,142.88,81.65,122.47,347,Single-ply,SBD,M
Boys,109.77,17,Sam Prewit,Pecos,100.43,127.01,83.91,133.81,344.73,Single-ply,SBD,M
Boys,124.74,1,Boston Alvarado,Fort Stockton,119.02,240.4,138.35,213.19,591.94,Single-ply,SBD,M
Boys,124.74,2,Eldon Niblett,Midland Greenwood,116.3,235.87,131.54,195.04,562.45,Single-ply,SBD,M
Boys,124.74,3,Cristian Aguirre,Fort Stockton,114.12,195.04,122.47,201.85,519.36,Single-ply,SBD,M
Boys,124.74,4,Zack Taylor,Ozona,116.21,204.12,102.06,183.7,489.88,Single-ply,SBD,M
Boys,124.74,5,Isaac Martinez,Kermit,121.02,183.7,117.93,181.44,483.08,Single-ply,SBD,M
Boys,124.74,6,Alex Holguin,Monahans,117.48,172.37,99.79,165.56,437.72,Single-ply,SBD,M
Boys,124.74,7,Derek Leyva,Fort Stockton,114.85,154.22,108.86,165.56,428.64,Single-ply,SBD,M
Boys,124.74,8,Nathan Quiroz,Monahans,111.77,179.17,74.84,151.95,405.97,Single-ply,SBD,M
Boys,124.74,DQ,Anibar Barrera,Crane,117.57,183.7,,,,Single-ply,SBD,M
Boys,124.74,DQ,Jacob Peddicord,Big Lake Reagan County,114.67,,,,,Single-ply,SBD,M
Boys,124.74+,1,Nicolas Franco,Pecos,162.02,249.48,172.37,192.78,614.62,Single-ply,SBD,M
Boys,124.74+,2,Ernie Veloz,Big Lake Reagan County,129.46,249.48,106.59,181.44,537.51,Single-ply,SBD,M
Boys,124.74+,3,Branden Marriott,Fort Stockton,154.31,181.44,102.06,147.42,430.91,Single-ply,SBD,M
Boys,124.74+,4,Robert McKee,McCamey,126.64,124.74,70.31,136.08,331.12,Single-ply,SBD,M
