Place,Sex,Name,Event,Division,WeightClassKg,Equipment,State,BodyweightKg,Squat1Kg,Squat2Kg,Squat3Kg,Best3SquatKg,Bench1Kg,Bench2Kg,Bench3Kg,Best3BenchKg,Deadlift1Kg,Deadlift2Kg,Deadlift3Kg,Best3DeadliftKg,TotalKg,BirthYear
1,M,Darrell Allen,B,MR-M2,93,Raw,GA,91.1,,,,,140,145,-152.5,145.0,,,,,145,1961
1,M,Darrell Allen,B,MR-O,93,Raw,GA,91.1,,,,,140,145,-152.5,145.0,,,,,145,1961
1,M,Abram Gainey,B,MR-O,105,Raw,GA,104.4,,,,,100,-107.5,107.5,107.5,,,,,107.5,1998
1,M,Michael Cowan,B,MR-O,120,Raw,GA,116.8,,,,,172.5,185,-187.5,185.0,,,,,185,1983
1,M,Ben Laseter,SBD,MR-Jr,93,Raw,GA,86.8,190,205,215,215.0,110,120,127.5,127.5,250,262.5,272.5,272.5,615,1996
2,M,Joseph Prince,SBD,MR-Jr,93,Raw,GA,90.5,210,217.5,227.5,227.5,120,125,127.5,127.5,185,195,205,205.0,560,1995
1,M,Keith King,SBD,MR-M1,74,Raw,GA,73.9,140,152.5,165,165.0,85,90,95,95.0,182.5,192.5,-200,192.5,452.5,1972
1,M,Chad Braden,SBD,MR-M1,93,Raw,GA,92.5,115,127.5,140,140.0,115,-125,-125,115.0,185,205,220,220.0,475,1972
1,M,Darrell Allen,SBD,MR-M2,93,Raw,GA,91.1,170,190,-195,190.0,140,145,-152.5,145.0,170,190,-195,190.0,525,1961
1,M,Gregory Luu,SBD,MR-O,66,Raw,GA,65.9,142.5,147.5,152.5,152.5,87.5,95,97.5,97.5,175,182.5,187.5,187.5,437.5,1992
2,M,Anderson Bui,SBD,MR-O,66,Raw,GA,61.3,120,125,127.5,127.5,77.5,82.5,-85,82.5,162.5,167.5,170,170.0,380,1997
1,M,James Miller,SBD,MR-O,74,Raw,GA,72.4,140,185,200,200.0,115,135,142.5,142.5,210,240,260,260.0,602.5,1995
2,M,Andy Ni,SBD,MR-O,74,Raw,GA,73.4,175,185,187.5,187.5,110,115,120,120.0,185,195,-215,195.0,502.5,1996
3,M,Clinton Womack,SBD,MR-O,74,Raw,GA,73.4,130,140,145,145.0,92.5,97.5,-102.5,97.5,215,222.5,227.5,227.5,470,1987
1,M,Felipe Sousa,SBD,MR-O,83,Raw,GA,80.8,180,-185,185,185.0,125,130,-135,130.0,230,240,-245,240.0,555,1977
1,M,Tony Schwebach,SBD,MR-O,93,Raw,GA,88.6,215,227.5,232.5,232.5,147.5,-157.5,-157.5,147.5,-260,260,-272.5,260.0,640,1990
2,M,Ryan Kirby,SBD,MR-O,93,Raw,GA,91.3,210,220,227.5,227.5,122.5,132.5,-135,132.5,232.5,250,-272.5,250.0,610,1989
3,M,Charles Le,SBD,MR-O,93,Raw,GA,90.6,195,-205,205,205.0,117.5,125,-130,125.0,227.5,237.5,242.5,242.5,572.5,1987
4,M,Joseph Prince,SBD,MR-O,93,Raw,GA,90.5,210,217.5,227.5,227.5,120,125,127.5,127.5,185,195,205,205.0,560,1995
5,M,James Calway,SBD,MR-O,93,Raw,TN,92.2,195,202.5,210,210.0,105,107.5,-112.5,107.5,220,227.5,235,235.0,552.5,1985
DQ,M,Gregory Hentz,SBD,MR-O,93,Raw,GA,89.2,-155,-165,-165,,107.5,-110,-110,107.5,,,,,,1996
1,M,Mike Braga-Penha,SBD,MR-O,105,Raw,GA,97.8,120,135,145,145.0,110,-120,-120,110.0,185,-195,-195,185.0,440,1988
DQ,M,Alex Campbell #2,SBD,MR-O,105,Raw,TN,105,-205,-205,-205,,125,-137.5,-137.5,125.0,205,222.5,-232.5,222.5,,1978
1,M,Jimmy Wilson,SBD,MR-O,120+,Raw,GA,130.3,215,230,240,240.0,150,165,175,175.0,255,275,290,290.0,705,1985
1,M,Clayton Walczuk,SBD,MR-T1,120,Raw,GA,106.2,135,142.5,150,150.0,77.5,82.5,87.5,87.5,145,157.5,170,170.0,407.5,2001
1,M,Carter Schell,SBD,MR-T2,59,Raw,GA,58.6,125,135,142.5,142.5,75,82.5,-90,82.5,175,182.5,197.5,197.5,422.5,1999
1,M,Will McKenzie,SBD,MR-T2,83,Raw,GA,81.8,137.5,145,157.5,157.5,95,102.5,110,110.0,182.5,195,205,205.0,472.5,1999
1,M,Abram Gainey,SBD,MR-T2,105,Raw,GA,104.4,140,147.5,160,160.0,100,-107.5,107.5,107.5,150,165,-180,165.0,432.5,1998
1,M,Anderson Bui,SBD,MR-T3,66,Raw,GA,61.3,120,125,127.5,127.5,77.5,82.5,-85,82.5,162.5,167.5,170,170.0,380,1997
1,M,Andy Ni,SBD,MR-T3,74,Raw,GA,73.4,175,185,187.5,187.5,110,115,120,120.0,185,195,-215,195.0,502.5,1996
DQ,M,Gregory Hentz,SBD,MR-T3,93,Raw,GA,89.2,-155,-165,-165,,107.5,-110,-110,107.5,,,,,,1996
1,F,Felicia Williams,SBD,FR-Jr,52,Raw,TN,50.8,67.5,82.5,-87.5,82.5,47.5,52.5,-57.5,52.5,107.5,115,-125,115.0,250,1993
1,F,Jordan Weaver,SBD,FR-Jr,84+,Raw,AL,84.1,97.5,102.5,-107.5,102.5,60,65,-72.5,65.0,105,110,-117.5,110.0,277.5,1994
1,F,Penny Danner,SBD,FR-M1,72,Raw,GA,69.1,90,97.5,102.5,102.5,45,47.5,-50,47.5,112.5,117.5,-122.5,117.5,267.5,1968
2,F,Jennifer King,SBD,FR-M1,72,Raw,GA,70.1,82.5,87.5,-92.5,87.5,-42.5,45,-47.5,45.0,92.5,100,107.5,107.5,240,1974
DQ,F,Tina Bush,SBD,FR-M1,72,Raw,NC,71.7,-85,-85,-85,,50,-55,-55,50.0,115,120,-125,120.0,,1968
1,F,Robyn Lupica,SBD,FR-M2,57,Raw,GA,55.7,70,-75,-75,70.0,52.5,57.5,-60,57.5,85,92.5,-102.5,92.5,220,1964
1,F,Robyn Lupica,SBD,FR-O,57,Raw,GA,55.7,70,-75,-75,70.0,52.5,57.5,-60,57.5,85,92.5,-102.5,92.5,220,1964
1,F,Jennifer Wilson,SBD,FR-O,63,Raw,GA,59.3,55,62.5,67.5,67.5,40,45,-47.5,45.0,72.5,82.5,90,90.0,202.5,1979
1,F,MaSovaida Morgan,SBD,FR-O,84+,Raw,TN,91.7,130,145,150,150.0,57.5,62.5,67.5,67.5,165,175,182.5,182.5,400,1983
2,F,Charquita Arnold,SBD,FR-O,84+,Raw,GA,104.1,-102.5,110,-127.5,110.0,65,75,80,80.0,145,172.5,185,185.0,375,1988
3,F,Jordan Weaver,SBD,FR-O,84+,Raw,AL,84.1,97.5,102.5,-107.5,102.5,60,65,-72.5,65.0,105,110,-117.5,110.0,277.5,1994
1,M,Keanu Sanchez,BD,MR-T1,93,Raw,GA,86,,,,,30,35,-37.5,35.0,70,77.5,82.5,82.5,117.5,2001
