Division,WeightClassKg,Place,Name,Team,BodyweightKg,Best3SquatKg,Best3BenchKg,Best3DeadliftKg,TotalKg,Equipment,Event,Sex
Boys,51.71,1,LA Gonzalez,Alice,51.71,172.37,92.99,167.83,433.18,Single-ply,SBD,M
Boys,55.79,2,Joey Heard,Orange Grove,51.8,122.47,79.38,147.42,349.27,Single-ply,SBD,M
Boys,51.71,3,Eloy Garza,Corpus Christi West Oso,51.62,142.88,61.23,142.88,347,Single-ply,SBD,M
Boys,55.79,4,Blake Suarez,Corpus Christi Tuloso-Midway,51.94,136.08,74.84,136.08,347,Single-ply,SBD,M
Boys,51.71,5,Cody Juarez,Alice,47.26,129.27,77.11,133.81,340.19,Single-ply,SBD,M
Boys,51.71,6,Carlos Rodriguez,Ingleside,50.71,90.72,65.77,136.08,292.57,Single-ply,SBD,M
Boys,51.71,7,Marcus Gaza,Alice,47.26,104.33,49.9,92.99,247.21,Single-ply,SBD,M
Boys,55.79,DQ,Aspen Whitstine,Port Lavaca Calhoun,51.8,,,,,Single-ply,SBD,M
Boys,59.87,1,Moc Moo,Port Lavaca Calhoun,55.97,185.97,108.86,172.37,467.2,Single-ply,SBD,M
Boys,55.79,2,Joe Castillo,Gregory-Portland,54.52,172.37,99.79,188.24,460.4,Single-ply,SBD,M
Boys,55.79,3,Jesus Trevino,Zapata,55.07,158.76,95.25,190.51,444.52,Single-ply,SBD,M
Boys,55.79,4,Mike Nunez,Corpus Christi West Oso,55.79,142.88,65.77,140.61,349.27,Single-ply,SBD,M
Boys,55.79,5,Joel Garza,Corpus Christi Calallen,55.34,122.47,65.77,138.35,326.59,Single-ply,SBD,M
Boys,59.87,6,Miguel Ramirez,Agua Dulce,55.88,127.01,63.5,131.54,322.05,Single-ply,SBD,M
Boys,55.79,7,Marcus Schuessler,Freer,54.07,90.72,52.16,97.52,240.4,Single-ply,SBD,M
Boys,59.87,1,Cody Hartman,Corpus Christi West Oso,59.69,183.7,108.86,183.7,476.27,Single-ply,SBD,M
Boys,59.87,2,Maclovio Gomez,Zapata,59.33,181.44,92.99,188.24,462.66,Single-ply,SBD,M
Boys,59.87,3,Rodney Garcia,Carrizo Springs,59.42,172.37,92.99,183.7,449.06,Single-ply,SBD,M
Boys,67.13,4,Jonathan Galvan,Corpus Christi Tuloso-Midway,60.06,170.1,102.06,174.63,446.79,Single-ply,SBD,M
Boys,59.87,5,Daniel Tortu,Corpus Christi West Oso,59.69,174.63,90.72,179.17,444.52,Single-ply,SBD,M
Boys,59.87,6,Joseph Reyes,Alice,59.51,176.9,79.38,163.29,419.57,Single-ply,SBD,M
Boys,59.87,7,Arturo Reyna,Bishop,59.65,151.95,90.72,163.29,405.97,Single-ply,SBD,M
Boys,59.87,8,Shawn Charles,Corpus Christi Calallen,57.42,102.06,63.5,142.88,308.44,Single-ply,SBD,M
Boys,59.87,DQ,Erasmo Aguilar,Alice,59.69,,,,,Single-ply,SBD,M
Boys,67.13,DQ,Jarrett Burford,Port Lavaca Calhoun,60.06,,,,,Single-ply,SBD,M
Boys,67.13,1,Daniel Martinez,Port Lavaca Calhoun,66.77,208.65,106.59,213.19,528.44,Single-ply,SBD,M
Boys,67.13,2,Alonzo Moya,Corpus Christi West Oso,64.77,204.12,102.06,195.04,501.22,Single-ply,SBD,M
Boys,74.84,3,Oscar Camarillo,Alice,67.31,188.24,129.27,183.7,501.22,Single-ply,SBD,M
Boys,67.13,4,JP Ruth,Gregory-Portland,65.77,181.44,113.4,199.58,494.42,Single-ply,SBD,M
Boys,67.13,5,Jose Cumpean,Port Lavaca Calhoun,66.41,185.97,115.67,185.97,487.61,Single-ply,SBD,M
Boys,67.13,6,Luis Perales,Carrizo Springs,66.32,174.63,102.06,192.78,469.47,Single-ply,SBD,M
Boys,67.13,7,José Pérez,Port Lavaca Calhoun,66.32,188.24,111.13,161.03,460.4,Single-ply,SBD,M
Boys,67.13,8,Nathaniel McRae,Hebbronville,65.23,163.29,92.99,201.85,458.13,Single-ply,SBD,M
Boys,74.84,9,Jesus Martinez,Freer,67.22,170.1,111.13,161.03,442.25,Single-ply,SBD,M
Boys,67.13,10,Alex Gonzalez,Alice,65.14,172.37,92.99,172.37,437.72,Single-ply,SBD,M
Boys,67.13,11,Esai Gonzalez,Port Lavaca Calhoun,66.59,161.03,102.06,161.03,424.11,Single-ply,SBD,M
Boys,67.13,12,Daniel Valenzuela,Ingleside,63.05,163.29,104.33,151.95,419.57,Single-ply,SBD,M
Boys,67.13,13,Brandon Charles,Corpus Christi Calallen,66.77,147.42,88.45,170.1,405.97,Single-ply,SBD,M
Boys,67.13,14,Christian Acosta,Ingleside,65.32,147.42,92.99,151.95,392.36,Single-ply,SBD,M
Boys,67.13,DQ,Aaron Garcia,Alice,64.86,195.04,115.67,,,Single-ply,SBD,M
Boys,74.84,DQ,Kyle Castenada,Banquete,67.22,142.88,102.06,,,Single-ply,SBD,M
Boys,67.13,DQ,Rene Luna,Alice,66.5,,,,,Single-ply,SBD,M
Boys,67.13,DQ,Isaac Bueno,Alice,66.41,,,,,Single-ply,SBD,M
Boys,82.1,1,Jonathan Gonzalez,San Diego,75.02,233.6,158.76,222.26,614.62,Single-ply,SBD,M
Boys,74.84,2,Javier Rodriguez,San Diego,72.3,226.8,147.42,219.99,594.21,Single-ply,SBD,M
Boys,74.84,3,Aaron Serrato,Freer,71.21,213.19,136.08,231.33,580.6,Single-ply,SBD,M
Boys,74.84,4,Leonel Salinas,San Diego,74.84,204.12,124.74,208.65,537.51,Single-ply,SBD,M
Boys,74.84,5,Tristen Taylor,Rockport-Fulton,73.39,204.12,113.4,206.38,523.9,Single-ply,SBD,M
Boys,74.84,6,Dante Pizana,Odem,73.71,190.51,131.54,190.51,512.56,Single-ply,SBD,M
Boys,74.84,7,Jaaziel Buenrostro,Carrizo Springs,73.84,183.7,113.4,204.12,501.22,Single-ply,SBD,M
Boys,74.84,8,Chris Lopez,Corpus Christi Calallen,72.94,181.44,122.47,195.04,498.95,Single-ply,SBD,M
Boys,74.84,9,Rey Borjon,Santa Gertrudis Academy,73.57,145.15,111.13,192.78,449.06,Single-ply,SBD,M
Boys,74.84,10,Rudy Perez,Ingleside,70.03,154.22,106.59,163.29,424.11,Single-ply,SBD,M
Boys,74.84,11,Chris Alvarado,Corpus Christi Calallen,69.85,158.76,74.84,183.7,417.3,Single-ply,SBD,M
Boys,74.84,12,Eric Gonzalez,Carrizo Springs,72.57,115.67,65.77,165.56,347,Single-ply,SBD,M
Boys,74.84,13,Miguel Salas,Bishop,68.67,113.4,77.11,127.01,317.51,Single-ply,SBD,M
Boys,74.84,DQ,Josef Garza,Mathis,72.94,183.7,,,,Single-ply,SBD,M
Boys,74.84,DQ,Alex Rocha,Skidmore-Tynan,72.03,224.53,140.61,,,Single-ply,SBD,M
Boys,74.84,DQ,Taylor Nguyen,Rockport-Fulton,73.12,,,,,Single-ply,SBD,M
Boys,82.1,1,Carlos Charles,Bishop,80.51,278.96,172.37,249.48,700.8,Single-ply,SBD,M
Boys,82.1,2,Sean Gonzales,Corpus Christi Calallen,78.93,222.26,136.08,219.99,578.33,Single-ply,SBD,M
Boys,89.81,3,Angel Casas,Corpus Christi Tuloso-Midway,82.28,226.8,145.15,204.12,576.06,Single-ply,SBD,M
Boys,82.1,4,Jacob Garza,Hebbronville,81.83,233.6,129.27,188.24,551.11,Single-ply,SBD,M
Boys,82.1,5,Marc Garcia,Alice,80.2,204.12,127.01,210.92,542.04,Single-ply,SBD,M
Boys,82.1,6,Elijah Valencia,Orange Grove,78.56,195.04,106.59,183.7,485.34,Single-ply,SBD,M
Boys,82.1,7,Alec Lara,Mathis,81.83,176.9,138.35,170.1,485.34,Single-ply,SBD,M
Boys,82.1,8,Allan Medrano,Bishop,80.74,172.37,106.59,181.44,460.4,Single-ply,SBD,M
Boys,82.1,9,Louie Salazar,Carrizo Springs,76.02,167.83,97.52,181.44,446.79,Single-ply,SBD,M
Boys,89.81,DQ,Abel Rodriguez,Corpus Christi Tuloso-Midway,82.28,,,,,Single-ply,SBD,M
Boys,82.1,DQ,Blake Galvan,Odem,75.98,,,,,Single-ply,SBD,M
Boys,82.1,DQ,Rene Orsonia,Port Lavaca Calhoun,80.01,,,,,Single-ply,SBD,M
Boys,89.81,1,Rolly Torres,San Diego,87.63,235.87,145.15,219.99,601.01,Single-ply,SBD,M
Boys,89.81,2,Jon Andrew Villarreal,Corpus Christi West Oso,89.36,226.8,136.08,231.33,594.21,Single-ply,SBD,M
Boys,89.81,3,Martin Fonseca,Mathis,85.64,233.6,131.54,219.99,585.13,Single-ply,SBD,M
Boys,89.81,4,JD Zapata,Rockport-Fulton,89.72,210.92,122.47,229.06,562.45,Single-ply,SBD,M
Boys,89.81,5,Albert Salazar,Hebbronville,85.09,226.8,127.01,201.85,555.65,Single-ply,SBD,M
Boys,89.81,6,Michael Vasquez,Carrizo Springs,87,172.37,133.81,219.99,526.17,Single-ply,SBD,M
Boys,89.81,7,Juan Oyervides,Carrizo Springs,86,106.59,56.7,136.08,299.37,Single-ply,SBD,M
Boys,89.81,8,Jonas De La Garza,Corpus Christi Calallen,88.09,106.59,61.23,120.2,288.03,Single-ply,SBD,M
Boys,89.81,DQ,Hugo Campos,Port Lavaca Calhoun,88,,,,,Single-ply,SBD,M
Boys,99.79,1,John Rivera,Alice,99.16,281.23,181.44,238.14,700.8,Single-ply,SBD,M
Boys,99.79,2,Frankie Lopez,Corpus Christi Tuloso-Midway,98.61,281.23,167.83,217.72,666.78,Single-ply,SBD,M
Boys,99.79,3,Bobby Morris,Victoria East,93.8,256.28,145.15,249.48,650.91,Single-ply,SBD,M
Boys,109.77,4,Vince Gutierrez,Corpus Christi Tuloso-Midway,99.88,240.4,158.76,210.92,610.08,Single-ply,SBD,M
Boys,99.79,5,Curtis Nix,Victoria East,91.81,219.99,136.08,249.48,605.55,Single-ply,SBD,M
Boys,99.79,6,Aaron Hinojosa,San Diego,97.98,235.87,145.15,190.51,571.53,Single-ply,SBD,M
Boys,99.79,7,Frank Rossi,Hebbronville,97.7,219.99,113.4,215.46,548.85,Single-ply,SBD,M
Boys,99.79,8,Eric Gutierrez,Robstown,95.53,215.46,117.93,199.58,532.97,Single-ply,SBD,M
Boys,99.79,9,Elias Cantu,Hebbronville,93.62,181.44,113.4,190.51,485.34,Single-ply,SBD,M
Boys,99.79,10,Marvin Barton,Ingleside,99.34,147.42,108.86,149.69,405.97,Single-ply,SBD,M
Boys,99.79,DQ,Zach Kwiatowski,Corpus Christi West Oso,99.06,,,,,Single-ply,SBD,M
Boys,109.77,1,Andres Arizu,Alice,108.59,310.71,183.7,278.96,773.37,Single-ply,SBD,M
Boys,109.77,2,Jose Soliz,Orange Grove,105.78,274.42,170.1,215.46,659.98,Single-ply,SBD,M
Boys,109.77,3,Ricardo Perez,Santa Gertrudis Academy,106.96,254.01,167.83,204.12,625.96,Single-ply,SBD,M
Boys,109.77,4,Andrew Pena,Robstown,107.14,242.67,154.22,219.99,616.89,Single-ply,SBD,M
Boys,109.77,5,Oscar Cantu,Sinton,101.7,235.87,136.08,231.33,603.28,Single-ply,SBD,M
Boys,109.77,6,Richard Lichtenberger,Freer,108.95,251.74,149.69,190.51,591.94,Single-ply,SBD,M
Boys,109.77,7,Billy Singleton,Orange Grove,105.05,235.87,136.08,215.46,587.4,Single-ply,SBD,M
Boys,109.77,8,Jose Marquez,Hebbronville,109.59,244.94,106.59,233.6,585.13,Single-ply,SBD,M
Boys,109.77,9,Jeremy Trevino,Gregory-Portland,108.23,210.92,117.93,201.85,530.7,Single-ply,SBD,M
Boys,109.77,10,Jose Chavera,Banquete,106.14,208.65,90.72,210.92,510.29,Single-ply,SBD,M
Boys,109.77,11,Steve Covarrubias,Robstown,102.06,188.24,108.86,192.78,489.88,Single-ply,SBD,M
Boys,109.77,DQ,Joel Garcia,Bishop,102.06,,,,,Single-ply,SBD,M
Boys,124.74,DQ,Robert Vargas,Hebbronville,109.86,231.33,142.88,,,Single-ply,SBD,M
Boys,109.77,DQ,Eddie Garcia,Port Lavaca Calhoun,106.14,,,,,Single-ply,SBD,M
Boys,124.74,1,Isaac Salinas,Gregory-Portland,119.39,285.76,174.63,242.67,703.07,Single-ply,SBD,M
Boys,124.74,2,Jacob Rodriguez,Corpus Christi Tuloso-Midway,119.98,290.3,163.29,244.94,698.53,Single-ply,SBD,M
Boys,124.74,3,Nicholas Zapata,Bishop,122.92,272.16,149.69,244.94,666.78,Single-ply,SBD,M
Boys,124.74,4,Hugo Martinez,Zapata,124.01,274.42,133.81,249.48,657.71,Single-ply,SBD,M
Boys,124.74+,1,Alexander Acosta,Skidmore-Tynan,127.64,283.5,170.1,267.62,721.21,Single-ply,SBD,M
Boys,124.74+,2,Mario Chavez,Carrizo Springs,187.06,229.06,172.37,233.6,635.03,Single-ply,SBD,M
Boys,124.74+,3,Joe Rodriguez,Kingsville King,128,254.01,136.08,240.4,630.49,Single-ply,SBD,M
Boys,124.74+,4,Angel Salinas,Orange Grove,155.85,235.87,165.56,226.8,628.23,Single-ply,SBD,M
Boys,124.74+,5,David Ramirez,Robstown,138.16,190.51,124.74,181.44,496.68,Single-ply,SBD,M
Boys,124.74+,DQ,David Arciniega,Odem,146.74,283.5,156.49,,,Single-ply,SBD,M
Boys,124.74+,DQ,John Lazo,Alice,161.48,,,,,Single-ply,SBD,M
Boys,124.74+,DQ,Jesse James Saldivar,Alice,158.49,,,,,Single-ply,SBD,M
