Division,WeightClassKg,Place,Name,Team,BodyweightKg,Best3SquatKg,Best3BenchKg,Best3DeadliftKg,TotalKg,Equipment,Event,Sex
Boys,51.71,1,Justin Sitz,Weatherford,49.71,97.52,61.23,111.13,269.89,Single-ply,SBD,M
Boys,55.79,1,Camden Richards,Mineral Wells,55.79,92.99,52.16,88.45,233.6,Single-ply,SBD,M
Boys,55.79,DQ,Garrett Upshaw,Decatur,53.34,102.06,,127.01,,Single-ply,SBD,M
Boys,59.87,1,Jahlian Tate,Graham,59.24,127.01,79.38,149.69,356.07,Single-ply,SBD,M
Boys,59.87,2,Manuel Rodriguez,Decatur,57.88,102.06,63.5,113.4,278.96,Single-ply,SBD,M
Boys,59.87,3,Esteban Segura,Decatur,56.97,61.23,34.02,77.11,172.37,Single-ply,SBD,M
Boys,74.84,1,Nick Brown,Weatherford,72.39,131.54,86.18,104.33,322.05,Single-ply,SBD,M
Boys,74.84,2,Cesar Najera,Decatur,72.67,111.13,65.77,117.93,294.84,Single-ply,SBD,M
Boys,74.84,3,Toby Nichols,Decatur,73.66,97.52,74.84,117.93,290.3,Single-ply,SBD,M
Boys,74.84,4,Devon Salazar,Mineral Wells,69.58,83.91,70.31,104.33,258.55,Single-ply,SBD,M
Boys,74.84,DQ,Joshua Lee,Graham,72.67,140.61,,127.01,,Single-ply,SBD,M
Boys,82.1,1,Christian Medina,Weatherford,79.74,145.15,108.86,163.29,417.3,Single-ply,SBD,M
Boys,82.1,2,Michael Anderson,Weatherford,76.38,142.88,90.72,154.22,387.82,Single-ply,SBD,M
Boys,82.1,3,Alan McCall,Graham,79.11,133.81,92.99,127.01,353.8,Single-ply,SBD,M
Boys,82.1,4,Isaac Galvan,Mineral Wells,77.47,124.74,72.57,124.74,322.05,Single-ply,SBD,M
Boys,82.1,5,Gage Barrett,Decatur,77.47,122.47,72.57,108.86,303.91,Single-ply,SBD,M
Boys,82.1,DQ,Ezra Glover,Decatur,81.47,111.13,58.97,,,Single-ply,SBD,M
Boys,89.81,1,Joshua Kerfoot,Weatherford,82.46,147.42,90.72,158.76,396.89,Single-ply,SBD,M
Boys,89.81,2,Jw Ethridge,Mineral Wells,85.09,136.08,72.57,136.08,344.73,Single-ply,SBD,M
Boys,89.81,3,Gabriel Lopez,Decatur,88,102.06,61.23,104.33,267.62,Single-ply,SBD,M
Boys,89.81,DQ,Saul Nigoche,Graham,83.01,136.08,,,,Single-ply,SBD,M
Boys,89.81,DQ,Josh Burg,Weatherford,89.54,,65.77,92.99,,Single-ply,SBD,M
Boys,99.79,1,Dylan Choates,Weatherford,94.26,138.35,79.38,158.76,376.48,Single-ply,SBD,M
Boys,99.79,DQ,Jayden Conner,Weatherford,96.62,,97.52,154.22,,Single-ply,SBD,M
Boys,109.77,1,Joseph Aguilar,Graham,107.32,208.65,117.93,226.8,553.38,Single-ply,SBD,M
Boys,109.77,2,Ayden Mast,Decatur,108.5,154.22,88.45,147.42,390.09,Single-ply,SBD,M
Boys,109.77,3,Sebastian Gallegos,Graham,107.77,131.54,86.18,133.81,351.53,Single-ply,SBD,M
Boys,109.77,4,Caden Markus,Weatherford,106.23,117.93,92.99,138.35,349.27,Single-ply,SBD,M
Boys,109.77,5,Sebastian Benavidez,Decatur,106.87,106.59,74.84,111.13,292.57,Single-ply,SBD,M
Boys,109.77,6,Cameron Beard,Weatherford,103.24,90.72,63.5,72.57,226.8,Single-ply,SBD,M
Boys,109.77,DQ,Ian Sanchez,Mineral Wells,104.69,,,,,Single-ply,SBD,M
Boys,124.74,DQ,Quinton Pearson,Weatherford,121.02,,102.06,151.95,,Single-ply,SBD,M
Boys,124.74,DQ,Jake O'Harra,Weatherford,115.21,136.08,99.79,,,Single-ply,SBD,M
Boys,,NS,Aldo Cereceres,Graham,,,,,,Single-ply,SBD,M
Boys,,NS,Daniel Lindley,Mineral Wells,,,,,,Single-ply,SBD,M
