Division,WeightClassKg,Place,Name,Team,BodyweightKg,Best3SquatKg,Best3BenchKg,Best3DeadliftKg,TotalKg,Equipment,Event,Sex
Boys,51.71,1,Jeremy Charles,Willis,51.17,108.86,70.31,122.47,301.64,Single-ply,SBD,M
Boys,51.71,2,Josh Courvelle,Shepherd,42.64,68.04,40.82,90.72,199.58,Single-ply,SBD,M
Boys,51.71,3,Corey Fuller,Shepherd,51.12,68.04,45.36,81.65,195.04,Single-ply,SBD,M
Boys,51.71,DQ,Deravian Stenson,Shepherd,51.35,,,,,Single-ply,SBD,M
Boys,55.79,DQ,Harley Hnatek,Splendora,51.85,86.18,,,,Single-ply,SBD,M
Boys,59.87,1,Rayford Ellis,Cleveland,56.02,172.37,122.47,158.76,453.59,Single-ply,SBD,M
Boys,55.79,2,Dominique Singletary,Cleveland,54.79,149.69,72.57,154.22,376.48,Single-ply,SBD,M
Boys,55.79,3,Nate Jones,Shepherd,55.16,120.2,70.31,136.08,326.59,Single-ply,SBD,M
Boys,55.79,4,M Baughman,Groveton,53.61,97.52,61.23,83.91,242.67,Single-ply,SBD,M
Boys,59.87,DQ,Chad Alaniz,Shepherd,55.84,,,,,Single-ply,SBD,M
Boys,67.13,1,Trevor Banaszak,Shepherd,59.92,181.44,108.86,181.44,471.74,Single-ply,SBD,M
Boys,59.87,2,Austin Alexander,Conroe Caney Creek,58.38,165.56,86.18,151.95,403.7,Single-ply,SBD,M
Boys,59.87,3,Justin Marion,Huntsville,57.61,149.69,92.99,154.22,396.89,Single-ply,SBD,M
Boys,59.87,4,Josh Vasquez,Cleveland,56.29,145.15,58.97,158.76,362.87,Single-ply,SBD,M
Boys,59.87,5,Doug Waters,Diboll,58.69,129.27,72.57,136.08,337.93,Single-ply,SBD,M
Boys,59.87,6,Dillon Blackwell,Conroe Woodlands College Park,56.11,90.72,40.82,97.52,229.06,Single-ply,SBD,M
Boys,67.13,1,Dominique Wilson,Willis,63.32,154.22,104.33,161.03,419.57,Single-ply,SBD,M
Boys,67.13,2,Alex Jones,Shepherd,65.32,138.35,97.52,170.1,405.97,Single-ply,SBD,M
Boys,74.84,3,Robert Skellion,Conroe Caney Creek,67.31,138.35,102.06,165.56,405.97,Single-ply,SBD,M
Boys,67.13,4,Evarado Castillo,Diboll,67.09,138.35,90.72,163.29,392.36,Single-ply,SBD,M
Boys,67.13,5,Zach Randolph,Willis,66.68,133.81,79.38,170.1,383.29,Single-ply,SBD,M
Boys,67.13,6,Chris Carolan,Huntsville,64.64,140.61,88.45,145.15,374.21,Single-ply,SBD,M
Boys,74.84,7,David Muñoz,Shepherd,67.22,104.33,99.79,165.56,369.68,Single-ply,SBD,M
Boys,67.13,8,Abraham Caballero,Conroe Caney Creek,67.04,133.81,74.84,142.88,351.53,Single-ply,SBD,M
Boys,67.13,9,Chase Patterson,Splendora,65.77,124.74,77.11,140.61,342.46,Single-ply,SBD,M
Boys,67.13,10,Aaron Valadez,Huntsville,64.55,102.06,83.91,115.67,301.64,Single-ply,SBD,M
Boys,74.84,11,Ryan Wilgers,Willis,67.31,111.13,65.77,124.74,301.64,Single-ply,SBD,M
Boys,67.13,12,T Seale,Groveton,63.91,95.25,61.23,102.06,258.55,Single-ply,SBD,M
Boys,67.13,DQ,Ivan Alvarez,Diboll,66.63,147.42,,,,Single-ply,SBD,M
Boys,67.13,DQ,Robert Kielman,Shepherd,67.13,,,,,Single-ply,SBD,M
Boys,74.84,1,Hunter Clift,Splendora,71.67,199.58,111.13,213.19,523.9,Single-ply,SBD,M
Boys,74.84,2,Justin Eberly,Conroe Caney Creek,73.53,197.31,92.99,217.72,508.02,Single-ply,SBD,M
Boys,74.84,3,Brett Boswell,Conroe Woodlands College Park,72.8,172.37,106.59,204.12,483.08,Single-ply,SBD,M
Boys,82.1,4,Darnell Washington,Conroe Woodlands College Park,74.98,174.63,83.91,204.12,462.66,Single-ply,SBD,M
Boys,74.84,5,Chris Salisbury,Conroe Caney Creek,74.75,181.44,92.99,185.97,460.4,Single-ply,SBD,M
Boys,74.84,6,Aaron Hodges,Huntsville,73.71,167.83,99.79,192.78,460.4,Single-ply,SBD,M
Boys,74.84,7,Josh Whittleman,Shepherd,74.25,149.69,95.25,199.58,444.52,Single-ply,SBD,M
Boys,74.84,8,Evan Ossey,Cleveland,71.53,170.1,102.06,170.1,442.25,Single-ply,SBD,M
Boys,74.84,9,Luis Moreno,Shepherd,72.8,138.35,81.65,140.61,360.61,Single-ply,SBD,M
Boys,82.1,DQ,Justin Courvelle,Shepherd,74.89,181.44,,,,Single-ply,SBD,M
Boys,74.84,DQ,B Beecher,Groveton,70.62,99.79,,,,Single-ply,SBD,M
Boys,82.1,1,Sebastion Riley,Conroe Caney Creek,79.11,204.12,117.93,179.17,501.22,Single-ply,SBD,M
Boys,82.1,2,Jacob Little,Splendora,80.42,185.97,97.52,199.58,483.08,Single-ply,SBD,M
Boys,82.1,3,Tyrell Franks,Cleveland,78.24,199.58,108.86,158.76,467.2,Single-ply,SBD,M
Boys,82.1,4,Dustin Meadows,Cleveland,78.88,170.1,102.06,170.1,442.25,Single-ply,SBD,M
Boys,82.1,5,J Wars,Groveton,80.38,136.08,92.99,172.37,401.43,Single-ply,SBD,M
Boys,89.81,6,Carlos Perez #3,Willis,82.28,131.54,102.06,156.49,390.09,Single-ply,SBD,M
Boys,82.1,7,Daniel Wooten,Conroe Caney Creek,79.65,138.35,113.4,115.67,367.41,Single-ply,SBD,M
Boys,82.1,DQ,T Horace,Groveton,78.02,,,,,Single-ply,SBD,M
Boys,89.81,1,Chris Smith,Conroe Woodlands College Park,85.64,215.46,127.01,219.99,562.45,Single-ply,SBD,M
Boys,89.81,2,Nathan Brantner,Splendora,88.59,195.04,149.69,208.65,553.38,Single-ply,SBD,M
Boys,89.81,3,Trey Annonson,Cleveland,86.5,195.04,127.01,190.51,512.56,Single-ply,SBD,M
Boys,89.81,4,Johnathan Culp,Willis,85.77,190.51,111.13,190.51,492.15,Single-ply,SBD,M
Boys,89.81,5,Brandon Holmes,Conroe Caney Creek,86.82,192.78,99.79,183.7,476.27,Single-ply,SBD,M
Boys,89.81,6,J Folds,Groveton,89.81,165.56,120.2,163.29,449.06,Single-ply,SBD,M
Boys,89.81,7,Micheal Swearingen,Cleveland,88.72,167.83,124.74,154.22,446.79,Single-ply,SBD,M
Boys,89.81,8,John Murphy,Huntsville,85.96,138.35,86.18,149.69,374.21,Single-ply,SBD,M
Boys,89.81,9,David Harris,Huntsville,84.69,124.74,77.11,145.15,347,Single-ply,SBD,M
Boys,89.81,10,Zak Adams,Splendora,85.87,122.47,81.65,142.88,347,Single-ply,SBD,M
Boys,89.81,DQ,Dalton Ramon,Huntsville,87.32,,,,,Single-ply,SBD,M
Boys,89.81,DQ,W. Washington,Groveton,87.09,,,,,Single-ply,SBD,M
Boys,89.81,DQ,Collin Robertson,Conroe Woodlands College Park,89.81,,,,,Single-ply,SBD,M
Boys,89.81,DQ,Eduardo Miranda,Diboll,89.36,151.95,99.79,,,Single-ply,SBD,M
Boys,99.79,1,Darren Stewart,Splendora,92.9,249.48,142.88,233.6,625.96,Single-ply,SBD,M
Boys,99.79,2,Jacob Courvelle,Shepherd,99.34,215.46,115.67,213.19,544.31,Single-ply,SBD,M
Boys,99.79,3,Sam Heaton,Conroe Woodlands College Park,99.25,208.65,92.99,195.04,496.68,Single-ply,SBD,M
Boys,99.79,4,Clint Riddle,Shepherd,96.98,183.7,106.59,181.44,471.74,Single-ply,SBD,M
Boys,99.79,5,Frankie Garcia,Conroe Woodlands College Park,98.47,176.9,95.25,190.51,462.66,Single-ply,SBD,M
Boys,99.79,6,Jacob Perry,Conroe Caney Creek,99.16,185.97,102.06,170.1,458.13,Single-ply,SBD,M
Boys,109.77,7,Brian Morgan,Cleveland,99.97,204.12,95.25,158.76,458.13,Single-ply,SBD,M
Boys,99.79,DQ,Matt Hannan,Conroe Woodlands College Park,99.79,,,,,Single-ply,SBD,M
Boys,99.79,DQ,Michael Rottger,Huntsville,91.31,170.1,108.86,,,Single-ply,SBD,M
Boys,99.79,DQ,S. Raines,Groveton,90.72,,,,,Single-ply,SBD,M
Boys,99.79,DQ,L Hoffman,Groveton,98.88,,,,,Single-ply,SBD,M
Boys,109.77,1,Bridge Blount,Huntsville,107.37,258.55,138.35,260.82,657.71,Single-ply,SBD,M
Boys,109.77,2,Kevin Crew,Splendora,105.69,249.48,167.83,226.8,644.1,Single-ply,SBD,M
Boys,109.77,3,D. Leonard,Groveton,100.74,158.76,147.42,199.58,505.76,Single-ply,SBD,M
Boys,124.74,4,Cody Hecker,Shepherd,110,204.12,106.59,172.37,483.08,Single-ply,SBD,M
Boys,109.77,5,D. Dial,Groveton,106.64,151.95,111.13,145.15,408.23,Single-ply,SBD,M
Boys,109.77,DQ,Joaquin Trevino,Splendora,101.33,233.6,,,,Single-ply,SBD,M
Boys,124.74,1,Charlie Courvelle,Shepherd,118.93,260.82,163.29,199.58,623.69,Single-ply,SBD,M
Boys,124.74,2,Glen Salisbury,Conroe Caney Creek,113.94,238.14,145.15,219.99,603.28,Single-ply,SBD,M
Boys,124.74,3,Miguel Banda,Cleveland,112.04,192.78,122.47,158.76,474,Single-ply,SBD,M
Boys,124.74,4,Ivan Meistchovich,Conroe Woodlands College Park,113.49,172.37,86.18,172.37,430.91,Single-ply,SBD,M
Boys,124.74,DQ,Josh Weingrad,Conroe Woodlands College Park,110.59,,,,,Single-ply,SBD,M
Boys,124.74,DQ,Levi Lunsford,Splendora,121.38,238.14,,,,Single-ply,SBD,M
Boys,124.74,DQ,Aaron West,Splendora,120.34,158.76,,,,Single-ply,SBD,M
Boys,124.74+,1,Cullen Burch,Cleveland,137.21,254.01,176.9,181.44,612.35,Single-ply,SBD,M
Boys,124.74+,2,Cody Britton,Conroe Caney Creek,138.57,226.8,136.08,204.12,566.99,Single-ply,SBD,M
Boys,124.74+,3,Ben Townes,Conroe Caney Creek,159.66,199.58,120.2,195.04,514.83,Single-ply,SBD,M
Boys,124.74+,4,Seth Johnson #4,Diboll,135.85,163.29,97.52,151.95,412.77,Single-ply,SBD,M
Boys,124.74+,DQ,Taylor Sill,Diboll,125.19,,,,,Single-ply,SBD,M
Boys,124.74+,DQ,Joe Robertson,Cleveland,127.69,240.4,136.08,,,Single-ply,SBD,M
