WeightClassKg,JapaneseName,Name,Age,Team,BodyweightKg,Squat1Kg,Squat2Kg,Squat3Kg,Bench1Kg,Bench2Kg,Bench3Kg,Deadlift1Kg,Deadlift2Kg,Deadlift3Kg,Best3SquatKg,Best3BenchKg,Best3DeadliftKg,TotalKg,Place,Bench4Kg,Deadlift4Kg,Sex,Event,Equipment,Division
44,原 あずさ,,33,ｱｻﾏﾄﾚｰﾆﾝｸﾞｸﾗﾌﾞ,43.35,132.5,-137.5,137.5,67.5,70,72.5,120,130,135,137.5,72.5,135,345,1,,,F,SBD,Single-ply,Open
44,北村 順子,,37,ｼｬｰｸ同好会,43.7,107.5,117.5,122.5,67.5,75,78,105,115,122.5,122.5,78,122.5,322.5,2,,,F,SBD,Single-ply,Open
44,加藤 理恵,,27,ｴｽﾌｫﾙｻｰﾙ,43.65,110,-117.5,117.5,62.5,65,67.5,110,120,-122.5,117.5,67.5,120,305,3,,,F,SBD,Single-ply,Open
44,伊藤 達美,,42,ﾏｯｽﾙ$ﾋﾞｭｰﾃｨｰ,43.7,-97.5,97.5,-105,60,-65.5,65.5,115,120,-125,97.5,65.5,120,282.5,4,67.5,,F,SBD,Single-ply,Open
44,上田 さら,,22,東京大学,44,,65,72.5,45,50,-52.5,100,110,-115,72.5,50,110,232.5,5,,,F,SBD,Single-ply,Open
44,川崎 絵美,,20,東京農業大学,43.05,60,70,-77.5,40,45,-47.5,87.5,-97.5,97.5,70,45,97.5,212.5,6,,,F,SBD,Single-ply,Open
48,福島 友佳子,,30,ﾊﾟﾜｰﾊｳｽ,46.75,142.5,-152.5,-152.5,101,107.5,113,137.5,147.5,-155,142.5,113,147.5,402.5,1,,,F,SBD,Single-ply,Open
48,井坂 ひろみ,,48,中野接骨院PLC,47.9,105,110,-112.5,57.5,60,62.5,115,125,127.5,110,62.5,127.5,300,2,,,F,SBD,Single-ply,Open
48,田口 玲子,,37,闘魂GYM,47.55,70,75,80,55,60,-62.5,130,140,150,80,60,150,290,3,,-155,F,SBD,Single-ply,Open
48,新里 さつき,,24,平良ﾄﾚｰﾆﾝｸﾞｼﾞﾑ,,,,,,,,,,,,,,,NS,,,F,SBD,Single-ply,Open
52,菊入 広子,,50,ﾊﾟﾜｰﾊｳｽ,51.15,120,130,135,-65,65,70,140,150,-160.5,135,70,150,355,1,,,F,SBD,Single-ply,Open
52,滝川 千明,,32,ﾊﾟﾜｰﾊｳｽ,50.9,112.5,125,-130,67.5,-72.5,72.5,127.5,-137.5,137.5,125,72.5,137.5,335,2,,,F,SBD,Single-ply,Open
52,田中 彰子,,36,ｽﾎﾟｰﾂﾛｲﾔﾙｵｸｳﾁ,50.4,100,115,120,57.5,62.5,65,120,135,140,120,65,140,325,3,,,F,SBD,Single-ply,Open
52,大森 聖子,,48,ｱｻﾏﾄﾚｰﾆﾝｸﾞｸﾗﾌﾞ,51.25,115,122.5,-127.5,57.5,62.5,65,120,132.5,-137.5,122.5,65,132.5,320,4,,,F,SBD,Single-ply,Open
52,加藤 和江,,34,岩手東芝,50.25,95,105,-110,65,70,-72.5,120,-130,-135,105,70,120,295,5,,,F,SBD,Single-ply,Open
52,渡部 由紀子,,25,?平和台ﾄﾞﾚｽ,50.95,-90,90,100,55,-60,-60,110,115,120,100,55,120,275,6,,,F,SBD,Single-ply,Open
56,小林 久美,,39,ﾎﾟｰﾄﾊﾞｰﾍﾞﾙｸﾗﾌﾞ,55.85,132.5,140,147.5,105,110,112.5,135,150,152.5,147.5,112.5,152.5,412.5,1,-115,,F,SBD,Single-ply,Open
56,木村 初子,,48,ｱｻﾏﾄﾚｰﾆﾝｸﾞｸﾗﾌﾞ,53.75,125,135,145,77.5,82.5,-88,130,140,-150,145,82.5,140,367.5,2,,,F,SBD,Single-ply,Open
56,笹山 尚美,,25,富岡ﾍﾙｽｸﾗﾌﾞ,54.5,120,125,130,67.5,-72.5,-72.5,147.5,-152.5,-152.5,130,67.5,147.5,345,3,,,F,SBD,Single-ply,Open
56,曽根 晴美,,29,ｱｻﾏﾄﾚｰﾆﾝｸﾞｸﾗﾌﾞ,54.85,95,105,-115,65,70,-75,122.5,132.5,135,105,70,135,310,4,,,F,SBD,Single-ply,Open
56,川田 由紀子,,31,個人,54.35,100,115,-120,70,-77.5,77.5,110,115,-120,115,77.5,115,307.5,5,,,F,SBD,Single-ply,Open
56,堀田 幸子,,42,苫小牧,53,95,100,105,-55,-55,55,120,125,-130,105,55,125,285,6,,,F,SBD,Single-ply,Open
60,池谷 あや子,,31,浜松東部,58.75,175,187.5,-195,95,-100,100,177.5,-190.5,-192.5,187.5,100,177.5,465,1,,,F,SBD,Single-ply,Open
60,古味 良子,,45,T-REX沼津,59.65,125,132.5,135,102.5,107.5,110,130,135,140,135,110,140,385,2,,,F,SBD,Single-ply,Open
60,久米 真由美,,33,ｱｻﾏﾄﾚｰﾆﾝｸﾞｸﾗﾌﾞ,59.1,122.5,135,-145,85,90,-95,130,145,-160,135,90,145,370,3,,,F,SBD,Single-ply,Open
60,山口 貴世,,27,ﾊﾟﾜｰｳｴｰﾌﾞ,57.05,-105,105,-115,60,65,-67.5,140,145,150,105,65,150,320,4,,,F,SBD,Single-ply,Open
60,林 和 美,,36,ﾊﾟﾜｰﾊｳｽ,59.8,115,122.5,-125,57.5,-62.5,62.5,125,-132.5,132.5,122.5,62.5,132.5,317.5,5,,,F,SBD,Single-ply,Open
60,重原 麻里,,24,新潟大学大学院,59.1,107.5,,120,52.5,-57.5,-57.5,125,130,135,120,52.5,135,307.5,6,,,F,SBD,Single-ply,Open
60,佐々木 亜紀,,34,ﾊﾟﾜｰﾌｨｯﾄﾈｽ,56.1,90,-100,100,65,70,75,120,-135,-135,100,75,120,295,7,,,F,SBD,Single-ply,Open
60,青木 千帆,,26,ﾓﾓｺｸﾗﾌﾞ,,,,,,,,,,,,,,,NS,,,F,SBD,Single-ply,Open
67.5,山崎 頼子,,40,金太郎,64.7,-160,160,-170,100,105,-107.5,150,160,170,160,105,170,435,1,,,F,SBD,Single-ply,Open
67.5,岡田 美佐,,32,岩崎ﾎﾞﾃﾞｰﾋﾞﾙｸﾗﾌﾞ,61.95,130,-137.5,-137.5,100,105,-116.5,-140,140,147.5,130,105,147.5,382.5,2,,,F,SBD,Single-ply,Open
67.5,河野 理恵,,27,高松ﾄﾚｰﾆﾝｸﾞｸﾗﾌﾞ,65.05,117.5,125,130,75,80,-85,110,122.5,130,130,80,130,340,3,,,F,SBD,Single-ply,Open
67.5,澤 千代美,,50,ﾊﾟﾜｰﾊｳｽ,66.65,100,115,125,80,90,-95,100,120,-127.5,125,90,120,335,4,,,F,SBD,Single-ply,Open
67.5,石塚 しげ子,,46,水海道,67.15,125,-135,135,55,62.5,-67.5,125,135,,135,62.5,135,332.5,5,,,F,SBD,Single-ply,Open
75,清野 万里子,,19,五泉ﾌｨｯﾄﾈｽｸﾗﾌﾞ,70.25,120,130,-140,72.5,77.5,-80,115,130,132.5,130,77.5,132.5,340,1,,,F,SBD,Single-ply,Open
82.5,加藤 みどり,,29,関体協,81.55,-165,165,-175,85,92.5,100,165,175,-182.5,165,100,175,440,1,,,F,SBD,Single-ply,Open
82.5,橋爪 聖子,,19,東名ｱｽﾚﾁｯｸｾﾝﾀｰ,,,,,,,,,,,,,,,NS,,,F,SBD,Single-ply,Open
90,伊藤 るみ子,,21,ﾊﾟﾜｰｼﾞﾑｳｨﾝ,,,,,,,,,,,,,,,NS,,,F,SBD,Single-ply,Open
